301	1	0	8.5	0	20	0	0	1	501	0	2.9	1						6	0	-51	0	5001	15	2000	0	20	1	5
35	1	10	2.5	1	20	1	0	1	901	0	3.1	1	1	1				4	31	0	-25.5	5000	15	2000	0	0		6
15	1	5	-6.5	2	20	2	1	1	1301	0	3.9	2	1	1				4	61	51	0	1501	1	500	1		-1	
40	1	-5	-6.5	3	20	3	2	1	1801	0	1.9	2	1	1				4	91	0	25.5	501	2	500	1		4	1,16,30
	1	-10	2.5	4	20	4	0	1	2501	0	2.2	3	1	1				4	121	-51	0	1502	1	450	2			4,12,4,14,4,16,4,18
				5	20	5	1	1	3201	0	2.9	3	1	1				4	151			502	2	450	2			8
				6	20	6	1	1	4001	0	3.1	4	1	1				4	181			5005	10	500	3			17,30
				7	20	7	0	1	5501	0	3.9	4	1	1				4	211			10502	1	500	3			6,12,6,14,6,16,6,18
				8	20	8	2	1	6801	0	1.9	5	1	1				4	241			1502	1	500	3			8
				9	20	9	0	1	8801	0	2.2	5	1	1				4	271			503	2	300	4			0,500
boss				10	30	200	1	1	18001	10	2.5	500	1	1				5	0			503	2	300	4			8,12,8,14,8,16,8,18
				11	20	11	0	1	14001	0	3.1	6	1	1								504	2	300	5			8
				12	20	12	2	1	15501	0	3.9	6	1	1								504	2	300	5			12,100,0
				13	20	13	2	1	17001	0	1.9	7	1	1								5005	10	500	6		-1	
				14	20	14	1	1	19001	0	2.2	7	1	1								5005	2	300	7			
				15	20	15	1	1	24001	0	2.9	8	1	1								5005	15	500	8			
				16	20	16	0	1	26001	0	3.1	8	1	1								5006	2	300	9			
				17	20	17	1	1	29001	0	3.9	9	1	1								5005	20	500	10			
				18	20	18	2	1	32001	0	1.9	9	1	1								-1						
				19	20	19	1	1	35001	0	2.2	10	1	1														
boss				20	30	201	1	1	100001	15	2.5	800	1	1														
				21	20	21	1	1	95001	5	3.1	11	1	1														
				22	20	22	1	1	100001	5	3.9	11	1	1														
				23	20	23	1	1	105001	5	1.9	12	1	1														
				24	20	24	2	1	110001	5	2.2	12	1	1														
				25	20	25	1	1	115001	5	2.9	13	1	1														
				26	20	26	2	1	120001	5	3.1	13	1	1														
				27	20	27	1	1	125001	5	3.9	14	1	1														
				28	20	28	2	1	130001	5	1.9	14	1	1														
				29	20	29	0	1	135001	5	2.2	15	1	1														
boss				30	30	202	1	1	200001	20	2.8	1000	1	1														
				31	20	31	0	1	150001	5	3.1	16	1	1														
				32	20	32	2	1	155001	5	3.9	16	1	1														
				33	20	33	0	1	160001	5	1.9	17	1	1														
				34	20	34	2	1	165001	5	2.2	17	1	1														
				35	20	35	0	1	170001	5	2.9	18	1	1														
				36	20	36	0	1	175001	5	3.1	18	1	1														
				37	20	37	2	1	180001	5	3.9	19	1	1														
				38	20	38	1	1	185001	5	1.9	19	1	1														
				39	20	39	1	1	190001	5	2.2	20	1	1														
boss				40	30	203	1	1	450001	40	2.8	1500	1	1														
				41	20	41	2	1	400001	10	3.1	21	1	1														
				42	20	42	1	1	415001	10	3.9	21	1	1														
				43	20	43	2	1	430001	10	1.9	22	1	1														
				44	20	44	1	1	445001	10	2.2	22	1	1														
				45	20	45	2	1	460001	10	2.9	23	1	1														
				46	20	46	2	1	475001	10	3.1	23	1	1														
				47	20	47	2	1	490001	10	3.9	24	1	1														
				48	20	48	0	1	500001	10	1.9	24	1	1														
				49	20	49	1	1	1	10	2.2	25	1	1														
boss				50	30	204	1	1	650001	50	2.8	2000	1	1														
				51	20	51	1	1	600001	15	3.1	26	1	1														
				52	20	52	1	1	605001	15	3.9	26	1	1														
				53	20	53	0	1	610001	15	1.9	27	1	1														
				54	20	54	2	1	615001	15	2.2	27	1	1														
				55	20	55	0	1	620001	15	2.9	28	1	1														
				56	20	56	1	1	625001	15	3.1	28	1	1														
				57	20	57	2	1	630001	15	3.9	29	1	1														
				58	20	58	2	1	635001	15	1.9	29	1	1														
				59	20	59	1	1	640001	15	2.2	30	1	1														
boss				60	30	202	1	1	850001	60	2.8	3000	1	1														
				61	20	1	0	1	825001	20	3.1	31	1	1														
				62	20	2	0	1	830001	20	3.9	31	1	1														
				63	20	3	0	1	835001	20	1.9	32	1	1														
				64	20	4	0	1	840001	20	2.2	32	1	1														
				65	20	5	0	1	845001	20	2.9	33	1	1														
				66	20	6	1	1	850001	20	3.1	34	1	1														
				67	20	7	0	1	855001	20	3.9	34	1	1														
				68	20	8	2	1	860001	20	1.9	35	1	1														
				69	20	9	2	1	865001	20	2.2	35	1	1														
boss				70	30	201	1	1	1500001	70	2.8	4000	1	1														
				71	20	10	0	1	1100001	30	3.1	36	1	1														
				72	20	11	1	1	1150001	30	3.9	36	1	1														
				73	20	12	0	1	1200001	30	1.9	37	1	1														
				74	20	13	2	1	1250001	30	2.2	37	1	1														
				75	20	14	1	1	1300001	30	2.9	38	1	1														
				76	20	15	0	1	1350001	30	3.1	38	1	1														
				77	20	16	1	1	1400001	30	3.9	39	1	1														
				78	20	17	0	1	1450001	30	1.9	39	1	1														
				79	20	18	2	1	1500001	30	2.2	40	1	1														
boss				80	30	205	1	1	3540001	80	3	5000	1	1														
				81	20	19	1	1	3338401	40	3.1	41	1	1														
				82	20	20	1	1	3388401	40	3.9	41	1	1														
				83	20	21	2	1	3438401	40	1.9	42	1	1														
				84	20	22	2	1	3488401	40	2.2	42	1	1														
				85	20	23	1	1	3538401	40	2.9	43	1	1														
				86	20	24	0	1	3588401	40	3.1	43	1	1														
				87	20	25	0	1	3658401	40	3.9	44	1	1														
				88	20	26	0	1	3708401	40	1.9	44	1	1														
				89	20	27	0	1	3758401	40	2.2	45	1	1														
boss				90	30	203	1	1	5000001	100	3	7000	1	1														
				91	20	28	1	1	4000001	60	3.1	46	1	1														
				92	20	29	1	1	4050001	60	3.9	46	1	1														
				93	20	30	0	1	4100001	60	1.9	47	1	1														
				94	20	31	0	1	4150001	60	2.2	47	1	1														
				95	20	32	2	1	4200001	60	2.9	48	1	1														
				96	20	33	2	1	4250001	60	3.1	48	1	1														
				97	20	34	1	1	4300001	60	3.9	49	1	1														
				98	20	35	0	1	4350001	60	1.9	49	1	1														
				99	20	36	2	1	1	99	2.2	50	1	1														
boss				100	30	252	1	1	6000001	140	4	1000	1	1														
				101	20	1	0	1	5862201	80	4.1	50	1	1														
				102	20	2	1	1	5900001	80	4.9	50	1	1														
				103	20	3	2	1	5950001	80	2.9	50	1	1														
				104	20	4	0	1	6000001	80	3.2	50	1	1														
				105	20	5	1	1	6050001	80	3.9	50	1	1														
				106	20	6	1	1	6100001	80	4.1	50	1	1														
				107	20	7	0	1	6150001	80	4.9	50	1	1														
				108	20	8	2	1	6200001	80	2.9	50	1	1														
				109	20	9	0	1	6250001	80	3.2	50	1	1														
boss				110	30	200	1	1	30000002	170	4	1000	1	1														
				111	20	11	0	1	10000002	110	4.1	50	1	1														
				112	20	12	2	1	10500002	110	4.9	50	1	1														
				113	20	13	2	1	11000002	110	2.9	50	1	1														
				114	20	14	1	1	12000002	110	3.2	50	1	1														
				115	20	15	1	1	13000002	110	3.9	50	1	1														
				116	20	16	0	1	14000002	110	4.1	50	1	1														
				117	20	17	1	1	15000002	110	4.9	50	1	1														
				118	20	18	2	1	16000002	110	2.9	50	1	1														
				119	20	19	1	1	17000002	110	3.2	50	1	1														
boss				120	30	201	1	1	70000002	180	4	1000	1	1														
				121	20	21	1	1	50000002	140	4.1	50	1	1														
				122	20	22	1	1	51500002	140	4.9	50	1	1														
				123	20	23	1	1	53000002	140	2.9	50	1	1														
				124	20	24	2	1	54500002	140	3.2	50	1	1														
				125	20	25	1	1	56000002	140	3.9	50	1	1														
				126	20	26	2	1	57500002	140	4.1	50	1	1														
				127	20	27	1	1	59000002	140	4.9	50	1	1														
				128	20	28	2	1	60500002	140	2.9	50	1	1														
				129	20	29	0	1	61500002	140	3.2	50	1	1														
boss				130	30	202	1	1	85000002	220	4	1000	1	1														
				131	20	31	0	1	70000002	160	4	50	1	1														
				132	20	32	2	1	70500002	160	4	50	1	1														
				133	20	33	0	1	71000002	160	4	50	1	1														
				134	20	34	2	1	71500002	160	4	50	1	1														
				135	20	35	0	1	72000002	160	4	50	1	1														
				136	20	36	0	1	72500002	160	4	50	1	1														
				137	20	37	2	1	73000002	160	4	50	1	1														
				138	20	38	1	1	73500002	160	4	50	1	1														
				139	20	39	1	1	74000002	160	4	50	1	1														
boss				140	30	203	1	1	120000002	240	4	1000	1	1														
				141	20	41	2	1	95000002	180	5	50	1	1														
				142	20	42	1	1	98000002	180	5	50	1	1														
				143	20	43	2	1	101000002	180	5	50	1	1														
				144	20	44	1	1	104000002	180	5	50	1	1														
				145	20	45	2	1	107000002	180	5	50	1	1														
				146	20	46	2	1	110000002	180	5	50	1	1														
				147	20	47	2	1	113000002	180	5	50	1	1														
				148	20	48	0	1	116000002	180	5	50	1	1														
				149	20	49	1	1	1	149	5	50	1	1														
boss				150	30	204	1	1	160000002	260	5	1000	1	1														
				151	20	51	1	1	30000002	200	5	50	1	1														
				152	20	52	1	1	30000002	200	5	50	1	1														
				153	20	53	0	1	30000002	200	5	50	1	1														
				154	20	54	2	1	30000002	200	5	50	1	1														
				155	20	55	0	1	30000002	200	5	50	1	1														
				156	20	56	1	1	30000002	200	5	50	1	1														
				157	20	57	2	1	30000002	200	5	50	1	1														
				158	20	58	2	1	30000002	200	5	50	1	1														
				159	20	59	1	1	30000002	200	5	50	1	1														
boss				160	30	202	1	1	200000002	290	5	1000	1	1														
				161	20	1	0	1	30000002	220	5	50	1	1														
				162	20	2	0	1	30000002	220	5	50	1	1														
				163	20	3	0	1	30000002	220	5	50	1	1														
				164	20	4	0	1	30000002	220	5	50	1	1														
				165	20	5	0	1	30000002	220	5	50	1	1														
				166	20	6	1	1	30000002	220	5	50	1	1														
				167	20	7	0	1	30000002	220	5	50	1	1														
				168	20	8	2	1	30000002	220	5	50	1	1														
				169	20	9	2	1	30000002	220	5	50	1	1														
boss				170	30	201	1	1	220000002	295	6	1000	1	1														
				171	20	10	0	1	20000002	240	6	50	1	1														
				172	20	11	1	1	20000002	240	6	50	1	1														
				173	20	12	0	1	20000002	240	6	50	1	1														
				174	20	13	2	1	20000002	240	6	50	1	1														
				175	20	14	1	1	20000002	240	6	50	1	1														
				176	20	15	0	1	20000002	240	6	50	1	1														
				177	20	16	1	1	20000002	240	6	50	1	1														
				178	20	17	0	1	20000002	240	6	50	1	1														
				179	20	18	2	1	20000002	240	6	50	1	1														
boss				180	30	205	1	1	240000002	300	6	1000	1	1														
				181	20	19	1	1	20000002	260	6	50	1	1														
				182	20	20	1	1	20000002	260	6	50	1	1														
				183	20	21	2	1	20000002	260	6	50	1	1														
				184	20	22	2	1	20000002	260	6	50	1	1														
				185	20	23	1	1	20000002	260	6	50	1	1														
				186	20	24	0	1	20000002	260	6	50	1	1														
				187	20	25	0	1	20000002	260	6	50	1	1														
				188	20	26	0	1	20000002	260	6	50	1	1														
				189	20	27	0	1	20000002	260	6	50	1	1														
boss				190	30	203	1	1	260000002	310	6	1000	1	1														
				191	20	28	1	1	15000002	300	6	50	1	1														
				192	20	29	1	1	15000002	300	6	50	1	1														
				193	20	30	0	1	15000002	300	6	50	1	1														
				194	20	31	0	1	15000002	300	6	50	1	1														
				195	20	32	2	1	15000002	300	6	50	1	1														
				196	20	33	2	1	15000002	300	6	50	1	1														
				197	20	34	1	1	15000002	300	6	50	1	1														
				198	20	35	0	1	15000002	300	6	50	1	1														
				199	20	36	2	1	15000002	300	6	50	1	1														
boss				200	30	252	1	1	280000002	330	6	1000	1	1														
				201	20	1	0	1	15000002	300	6	50	1															
				202	20	2	1	1	15000002	300	6	50	1															
				203	20	3	2	1	15000002	300	6	50	1															
				204	20	4	0	1	15000002	300	6	50	1															
				205	20	5	1	1	15000002	300	6	50	1															
				206	20	6	1	1	15000002	300	6	50	1															
				207	20	7	0	1	15000002	300	6	50	1															
				208	20	8	2	1	15000002	300	6	50	1															
				209	20	9	0	1	15000002	300	6	50	1															
boss				210	30	200	1	1	300000002	340	6	1000	1															
				211	20	11	0	1	15000002	300	7	50	1															
				212	20	12	2	1	15000002	300	7	50	1															
				213	20	13	2	1	15000002	300	7	50	1															
				214	20	14	1	1	15000002	300	7	50	1															
				215	20	15	1	1	15000002	300	7	50	1															
				216	20	16	0	1	15000002	300	7	50	1															
				217	20	17	1	1	15000002	300	7	50	1															
				218	20	18	2	1	15000002	300	7	50	1															
				219	20	19	1	1	15000002	300	7	50	1															
boss				220	30	201	1	1	320000002	360	7	1000	1															
				221	20	21	1	1	15000002	300	7	50	1															
				222	20	22	1	1	15000002	300	7	50	1															
				223	20	23	1	1	15000002	300	7	50	1															
				224	20	24	2	1	15000002	300	7	50	1															
				225	20	25	1	1	15000002	300	7	50	1															
				226	20	26	2	1	15000002	300	7	50	1															
				227	20	27	1	1	15000002	300	7	50	1															
				228	20	28	2	1	15000002	300	7	50	1															
				229	20	29	0	1	15000002	300	7	50	1															
boss				230	30	202	1	1	330000002	370	7	1000	1															
				231	20	31	0	1	20000002	300	8	50	1															
				232	20	32	2	1	20000002	300	8	50	1															
				233	20	33	0	1	20000002	300	8	50	1															
				234	20	34	2	1	20000002	300	8	50	1															
				235	20	35	0	1	20000002	300	8	50	1															
				236	20	36	0	1	20000002	300	8	50	1															
				237	20	37	2	1	20000002	300	8	50	1															
				238	20	38	1	1	20000002	300	8	50	1															
				239	20	39	1	1	20000002	300	8	50	1															
boss				240	30	203	1	1	340000002	380	8	1000	1															
				241	20	41	2	1	30000002	300	8	50	1															
				242	20	42	1	1	30000002	300	8	50	1															
				243	20	43	2	1	30000002	300	8	50	1															
				244	20	44	1	1	30000002	300	8	50	1															
				245	20	45	2	1	30000002	300	8	50	1															
				246	20	46	2	1	30000002	300	8	50	1															
				247	20	47	2	1	30000002	300	8	50	1															
				248	20	48	0	1	30000002	300	8	50	1															
				249	20	49	1	1	30000002	300	8	50	1															
boss				250	30	204	1	1	350000002	390	8	1000	1															
				251	20	51	1	1	35000002	300	9	50	1															
				252	20	52	1	1	35000002	300	9	50	1															
				253	20	53	0	1	35000002	300	9	50	1															
				254	20	54	2	1	35000002	300	9	50	1															
				255	20	55	0	1	35000002	300	9	50	1															
				256	20	56	1	1	35000002	300	9	50	1															
				257	20	57	2	1	35000002	300	9	50	1															
				258	20	58	2	1	35000002	300	9	50	1															
				259	20	59	1	1	35000002	300	9	50	1															
boss				260	30	202	1	1	355000002	400	9	1000	1															
				261	20	1	0	1	35000002	300	9	50	1															
				262	20	2	0	1	35000002	300	9	50	1															
				263	20	3	0	1	35000002	300	9	50	1															
				264	20	4	0	1	35000002	300	9	50	1															
				265	20	5	0	1	35000002	300	9	50	1															
				266	20	6	1	1	35000002	300	9	50	1															
				267	20	7	0	1	36000002	300	9	50	1															
				268	20	8	2	1	37000002	300	9	50	1															
				269	20	9	2	1	38000002	300	9	50	1															
boss				270	30	201	1	1	360000002	400	9	1000	1															
				271	20	10	0	1	39000002	300	9	50	1															
				272	20	11	1	1	40000002	300	9	50	1															
				273	20	12	0	1	41000002	300	9	50	1															
				274	20	13	2	1	42000002	300	9	50	1															
				275	20	14	1	1	43000002	300	9	50	1															
				276	20	15	0	1	44000002	300	9	50	1															
				277	20	16	1	1	45000002	300	9	50	1															
				278	20	17	0	1	46000002	300	9	50	1															
				279	20	18	2	1	47000002	300	9	50	1															
boss				280	30	205	1	1	365000002	400	9	1000	1															
				281	20	19	1	1	48000002	300	10	50																
				282	20	20	1	1	49000002	300	10	50																
				283	20	21	2	1	50000002	300	10	50																
				284	20	22	2	1	51000002	300	10	50																
				285	20	23	1	1	52000002	300	10	50																
				286	20	24	0	1	53000002	300	10	50																
				287	20	25	0	1	54000002	300	10	50																
				288	20	26	0	1	55000002	300	10	50																
				289	20	27	0	1	56000002	300	10	50																
boss				290	30	203	1	1	370000002	400	10	1000																
				291	20	28	1	1	57000002	300	10	50																
				292	20	29	1	1	58000002	300	10	50																
				293	20	30	0	1	59000002	300	10	50																
				294	20	31	0	1	60000002	300	10	50																
				295	20	32	2	1	61000002	300	10	50																
				296	20	33	2	1	62000002	300	10	50																
				297	20	34	1	1	63000002	300	10	50																
				298	20	35	0	1	64000002	300	10	50																
				299	20	36	2	1	65000002	300	10	50																
boss				300	30	252	1	1	400000002	400	10	100																
																												
				301	0	301	1	1	60000	100	0	1	508	508														
				302	0	302	1	1	90000	120	0	1	508	508														
				303	0	303	1	1	190000	140	0	1	508	508	508													
				304	0	304	1	1	590000	160	0	1	2	2														
				305	0	305	1	1	2000002	180	0	1	2	2	2													
				306	0	306	1	1	5000002	200	0	1	3	3														
				307	0	307	1	1	10000002	220	0	1	3	3	3													
				308	0	308	1	1	50000002	240	0	1	4															
				309	0	309	1	1	100000002	260	0	1	4	4														
				310	0	310	1	1	200000002	280	0	1	508	508	508													
				311	0	311	1	1	350000002	300	0	1	508	508														
				312	0	312	1	1	500000002	320	0	1	5															
																												
				397	0	397	0	0.75	1	1	3																	
				398	0	398	2	0.75	1	1	3																	
				399	0	399	2	1	9999999	85	0																	