101	509	0	8.5	0	45	0	0	1	113 	0	2.1	1						6	0	-51	0	5000	700	1000	2	7
55	509	10	2.5	1	45	1	0	1	227	2	2.3	1	509	509				4	51	0	-25.5	5001	250	1000	2	0
25	509	5	-6.5	2	45	2	1	1	400	4	3.1	2	509	509				5	0	51	0	5005	14	1000	2	
35	509	-5	-6.5	3	45	3	0	1	632	6	3.1	2	509	509						0	25.5	501	4	1000	2	
	509	-10	2.5	4	45	4	0	1	923	8	2.8	3	509	509						-51	0	1501	2	1000	2	
				5	45	5	0	1	1275	10	2.3	3	509	509								-1				
				6	45	6	2	1	1689	12	2.3	4	509	509												
				7	45	7	2	1	2164	14	2.7	4	509	509												
				8	45	8	2	1	2702	16	2.3	5	509	509												
				9	45	9	2	1	3305	18	2.9	5	509	509												
boss				10	45	200	1	1	19855	60	3.3	500	509	509												
				11	45	11	0	1	4703	22	2.5	6	509	509												
				12	45	12	1	1	5501	24	3.4	6	509	509												
				13	45	13	0	1	6366	26	2.2	7	509	509												
				14	45	14	2	1	7299	28	2.9	7	509	509												
				15	45	15	1	1	8300	30	2.3	8	509	509												
				16	45	16	1	1	9371	32	3.4	8	509	509												
				17	45	17	2	1	10512	34	2.7	9	509	509												
				18	45	18	1	1	11725	36	2.0	9	509	509												
				19	45	19	0	1	13009	38	3.1	10	509	509												
boss				20	45	201	1	1	71830	84	3.3	800	509	509												
				21	45	21	2	1	15797	46	2.1	11	509	509												
				22	45	22	0	1	17302	48	2.7	11	509	509												
				23	45	23	1	1	18883	50	3.8	12	509	509												
				24	45	24	2	1	1	52	3.3	12	509	509												
				25	45	25	1	1	22274	54	2.9	13	509	509												
				26	45	26	2	1	24086	56	2.9	13	509	509												
				27	45	27	0	1	25978	58	2.4	14	509	509												
				28	45	28	0	1	27949	60	2.4	14	509	509												
				29	45	29	1	1	30001	62	3.4	15	509	509												
boss				30	45	202	1	1	160675	104	3.3	1000	509	509												
				31	45	31	2	1	34351	66	2.7	16	509	509												
				32	45	32	1	1	36651	68	2.1	16	509	509												
				33	45	33	0	1	39035	70	2.6	17	509	509												
				34	45	34	2	1	41504	72	3.2	17	509	509												
				35	45	35	2	1	44060	74	3.6	18	509	509												
				36	45	36	0	1	46704	76	2.4	18	509	509												
				37	45	37	1	1	49435	78	2.2	19	509	509												
				38	45	38	2	1	52256	80	2.7	19	509	509												
				39	45	39	2	1	53755	84	3.0	20	509	509												
boss				40	45	203	1	1	270595	128	3.3	1500	509	509												
				41	45	40	0	1	54621	90	3.5	21	509	509												
				42	45	41	2	1	55262	92	2.3	21	509	509												
				43	45	42	2	1	56043	94	2.2	22	509	509												
				44	45	43	1	1	56967	96	2.7	22	509	509												
				45	45	44	0	1	58036	98	2.0	23	509	509												
				46	45	45	2	1	59251	100	3.6	23	509	509												
				47	45	46	0	1	60614	102	3.7	24	509	509												
				48	45	47	2	1	62126	104	3.0	24	509	509												
				49	45	48	1	1	1	106	3.7	25	509	509												
boss				50	45	204	1	1	352680	148	3.3	2000	509	509												
				51	45	51	0	1	71116	110	3.6	26	509	509												
				52	45	52	2	1	71841	112	2.9	26	509	509												
				53	45	53	2	1	72713	114	3.4	27	509	509												
				54	45	54	2	1	73735	116	3.3	27	509	509												
				55	45	55	0	1	74907	118	2.7	28	509	509												
				56	45	56	2	1	76231	120	2.1	28	509	509												
				57	45	57	0	1	77710	123	2.8	29	509	509												
				58	45	58	2	1	79345	126	2.4	29	509	509												
				59	45	59	1	1	87718	129	2.6	30	509	509												
boss				60	45	205	1	1	441155	212	3.3	3000	509	509												
				61	45	0	0	1	88893	134	2.4	31	509	509												
				62	45	1	0	1	89708	136	3.1	31	509	509												
				63	45	2	0	1	90675	138	2.3	32	509	509												
				64	45	3	0	1	91799	140	2.5	32	509	509												
				65	45	4	2	1	93079	142	3.0	33	509	509												
				66	45	5	0	1	94519	144	2.8	34	509	509												
				67	45	6	1	1	96119	146	3.7	34	509	509												
				68	45	7	0	1	97883	148	3.3	35	509	509												
				69	45	8	0	1	106669	150	2.3	35	509	509												
boss				70	45	201	1	1	536310	192	3.3	4000	509	509												
				71	45	9	0	1	108012	154	2.3	36	509	509												
				72	45	10	2	1	108920	156	3.8	36	509	509												
				73	45	11	1	1	109988	158	3.5	37	509	509												
				74	45	12	2	1	111218	160	2.3	37	509	509												
				75	45	13	1	1	112613	162	3.1	38	509	509												
				76	45	14	2	1	114173	165	2.8	38	509	509												
				77	45	15	0	1	115901	168	2.5	39	509	509												
				78	45	16	0	1	117798	170	2.8	39	509	509												
				79	45	17	1	1	127013	173	2.0	40	509	509												
boss				80	45	202	1	1	638455	216	3.3	5000	509	509												
				81	45	18	1	1	128533	178	2.6	41	509	509												
				82	45	19	1	1	129539	180	2.6	41	509	509												
				83	45	20	2	1	130713	182	3.8	42	509	509												
				84	45	21	0	1	132055	184	3.1	42	509	509												
				85	45	22	0	1	133568	186	2.0	43	509	509												
				86	45	23	2	1	135254	188	3.8	43	509	509												
				87	45	24	0	1	137115	190	2.0	44	509	509												
				88	45	25	1	1	139154	192	2.6	44	509	509												
				89	45	26	0	1	148811	194	2.7	45	509	509												
boss				90	45	203	1	1	755370	236	3.3	7000	509	509												
				91	45	28	1	1	153351	198	3.4	46	509	509												
				92	45	29	2	1	155644	200	3.3	46	509	509												
				93	45	30	1	1	157952	202	3.3	47	509	509												
				94	45	31	2	1	160276	205	3.0	47	509	509												
				95	45	32	1	1	162615	207	2.4	48	509	509												
				96	45	33	1	1	164970	210	2.2	48	509	509												
				97	45	34	0	1	167340	212	2.3	49	509	509												
				98	45	35	0	1	169727	215	2.7	49	509	509												
				99	45	36	0	1	172129	217	2.9	50	509	509												
boss				100	45	330	1	1	860645	260	3.3	50	509	509												
boss				101	45	390	1	1.5	4045031	320	0.1	50	509	509												
																										
				301	0	301	1	1	67376	100	0	1	509	509	509	509										
				302	0	302	1	1	101065	120	0	1	509	509	509	509										
				303	0	303	1	1	161704	140	0	1	509	509	509	509	2									
				304	0	304	1	1	274899	160	0	1	2	2	2	2	3	3								
				305	0	305	1	1	467327	180	0	1	2	2	2	3	3	3								
				306	0	306	1	1	794458	200	0	1	2	2	3	3	3	3								
				307	0	307	1	1	1350579	220	0	1	4	3	3											
				308	0	308	1	1	2295984	240	0	1	4	4												
				309	0	309	1	1	3903174	260	0	1	4	4	4											
				310	0	310	1	1	6635399	280	0	1	509	509	509	509										
				311	0	311	1	1	11943718	300	0	1	509	509	509	509										
				312	0	312	1	1	21498694	320	0	1	5													
																										
				397	0	397	0	0.75	1	1	3															
				398	0	398	2	0.75	1	1	3															
				399	0	399	2	1	9999999	85	0															