101	509	0	8.5	0	45	0	0	1	143 	0	2.1	1						6	0	-51	0	5000	800	1000	2	7
55	509	10	2.5	1	45	1	0	1	289	2	2.3	1	509	509				4	51	0	-25.5	5001	350	1000	2	0
25	509	5	-6.5	2	45	2	1	1	510	4	3.1	2	509	509				5	0	51	0	5005	16	1000	2	
35	509	-5	-6.5	3	45	3	0	1	807	6	3.1	2	509	509						0	25.5	502	2	1000	2	
	509	-10	2.5	4	45	4	0	1	1182	8	2.8	3	509	509						-51	0	1501	3	1000	2	
				5	45	5	0	1	1636	10	2.3	3	509	509								-1				
				6	45	6	2	1	2171	12	2.3	4	509	509												
				7	45	7	2	1	2788	14	2.7	4	509	509												
				8	45	8	2	1	3489	16	2.3	5	509	509												
				9	45	9	2	1	4276	18	2.9	5	509	509												
boss				10	45	200	1	1	25750	60	3.3	500	509	509												
				11	45	11	0	1	6112	22	2.5	6	509	509												
				12	45	12	1	1	7165	24	3.4	6	509	509												
				13	45	13	0	1	8310	26	2.2	7	509	509												
				14	45	14	2	1	9548	28	2.9	7	509	509												
				15	45	15	1	1	10882	30	2.3	8	509	509												
				16	45	16	1	1	12313	32	3.4	8	509	509												
				17	45	17	2	1	13842	34	2.7	9	509	509												
				18	45	18	1	1	15472	36	2.0	9	509	509												
				19	45	19	0	1	17204	38	3.1	10	509	509												
boss				20	45	201	1	1	95200	86	3.3	800	509	509												
				21	45	21	2	1	20982	48	2.1	11	509	509												
				22	45	22	0	1	23032	50	2.7	11	509	509												
				23	45	23	1	1	25190	52	3.8	12	509	509												
				24	45	24	2	1	1	54	3.3	12	509	509												
				25	45	25	1	1	29843	56	2.9	13	509	509												
				26	45	26	2	1	32341	58	2.9	13	509	509												
				27	45	27	0	1	34956	60	2.4	14	509	509												
				28	45	28	0	1	37689	62	2.4	14	509	509												
				29	45	29	1	1	40544	64	3.4	15	509	509												
boss				30	45	202	1	1	217600	106	3.3	1000	509	509												
				31	45	31	2	1	46622	68	2.7	16	509	509												
				32	45	32	1	1	49850	70	2.1	16	509	509												
				33	45	33	0	1	53207	72	2.6	17	509	509												
				34	45	34	2	1	56694	74	3.2	17	509	509												
				35	45	35	2	1	60314	76	3.6	18	509	509												
				36	45	36	0	1	64069	78	2.4	18	509	509												
				37	45	37	1	1	67961	80	2.2	19	509	509												
				38	45	38	2	1	71992	84	2.7	19	509	509												
				39	45	39	2	1	74216	88	3.0	20	509	509												
boss				40	45	203	1	1	374390	132	3.3	1500	509	509												
				41	45	40	0	1	75732	94	3.5	21	509	509												
				42	45	41	2	1	76783	96	2.3	21	509	509												
				43	45	42	2	1	78034	98	2.2	22	509	509												
				44	45	43	1	1	79489	100	2.7	22	509	509												
				45	45	44	0	1	81152	102	2.0	23	509	509												
				46	45	45	2	1	83026	104	3.6	23	509	509												
				47	45	46	0	1	85115	106	3.7	24	509	509												
				48	45	47	2	1	87423	108	3.0	24	509	509												
				49	45	48	1	1	1	110	3.7	25	509	509												
boss				50	45	204	1	1	498380	152	3.3	2000	509	509												
				51	45	51	0	1	100707	114	3.6	26	509	509												
				52	45	52	2	1	101948	116	2.9	26	509	509												
				53	45	53	2	1	103403	118	3.4	27	509	509												
				54	45	54	2	1	105075	120	3.3	27	509	509												
				55	45	55	0	1	106969	123	2.7	28	509	509												
				56	45	56	2	1	109088	126	2.1	28	509	509												
				57	45	57	0	1	111437	129	2.8	29	509	509												
				58	45	58	2	1	114020	132	2.4	29	509	509												
				59	45	59	1	1	126314	135	2.6	30	509	509												
boss				60	45	205	1	1	636585	218	3.3	3000	509	509												
				61	45	0	0	1	128540	140	2.4	31	509	509												
				62	45	1	0	1	129988	142	3.1	31	509	509												
				63	45	2	0	1	131663	144	2.3	32	509	509												
				64	45	3	0	1	133570	146	2.5	32	509	509												
				65	45	4	2	1	135714	148	3.0	33	509	509												
				66	45	5	0	1	138099	150	2.8	34	509	509												
				67	45	6	1	1	140728	152	3.7	34	509	509												
				68	45	7	0	1	143606	154	3.3	35	509	509												
				69	45	8	0	1	156820	156	2.3	35	509	509												
boss				70	45	201	1	1	790090	198	3.3	4000	509	509												
				71	45	9	0	1	159450	160	2.3	36	509	509												
				72	45	10	2	1	161122	162	3.8	36	509	509												
				73	45	11	1	1	163036	165	3.5	37	509	509												
				74	45	12	2	1	165198	168	2.3	37	509	509												
				75	45	13	1	1	167612	170	3.1	38	509	509												
				76	45	14	2	1	170283	173	2.8	38	509	509												
				77	45	15	0	1	173214	176	2.5	39	509	509												
				78	45	16	0	1	176410	178	2.8	39	509	509												
				79	45	17	1	1	190598	181	2.0	40	509	509												
boss				80	45	202	1	1	960040	224	3.3	5000	509	509												
				81	45	18	1	1	193667	186	2.6	41	509	509												
				82	45	19	1	1	195582	188	2.6	41	509	509												
				83	45	20	2	1	197755	190	3.8	42	509	509												
				84	45	21	0	1	200192	192	3.1	42	509	509												
				85	45	22	0	1	202898	194	2.0	43	509	509												
				86	45	23	2	1	205876	196	3.8	43	509	509												
				87	45	24	0	1	209132	198	2.0	44	509	509												
				88	45	25	1	1	212670	200	2.6	44	509	509												
				89	45	26	0	1	227890	202	2.7	45	509	509												
boss				90	45	203	1	1	1159110	245	3.3	7000	509	509												
				91	45	28	1	1	235793	207	3.4	46	509	509												
				92	45	29	2	1	239801	210	3.3	46	509	509												
				93	45	30	1	1	243848	212	3.3	47	509	509												
				94	45	31	2	1	247933	215	3.0	47	509	509												
				95	45	32	1	1	252057	217	2.4	48	509	509												
				96	45	33	1	1	256221	220	2.2	48	509	509												
				97	45	34	0	1	260424	222	2.3	49	509	509												
				98	45	35	0	1	264667	225	2.7	49	509	509												
				99	45	36	0	1	268951	227	2.9	50	509	509												
boss				100	45	330	1	1	1344755	270	3.3	50	509	509												
boss				101	45	390	1	1.5	5634523	330	0.1	50	509	509												
																										
				301	0	301	1	1	74281	100	0	1	509	509	509	509										
				302	0	302	1	1	111423	120	0	1	509	509	509	509										
				303	0	303	1	1	178278	140	0	1	509	509	509	509	2									
				304	0	304	1	1	303075	160	0	1	2	2	2	2	3	3								
				305	0	305	1	1	515227	180	0	1	2	2	2	3	3	3								
				306	0	306	1	1	875889	200	0	1	2	2	3	3	3	3								
				307	0	307	1	1	1489012	220	0	1	4	3	3											
				308	0	308	1	1	2531322	240	0	1	4	4												
				309	0	309	1	1	4303248	260	0	1	4	4	4											
				310	0	310	1	1	7315526	280	0	1	509	509	509	509										
				311	0	311	1	1	13167948	300	0	1	509	509	509	509										
				312	0	312	1	1	23702309	320	0	1	5													
																										
				397	0	397	0	0.75	1	1	3															
				398	0	398	2	0.75	1	1	3															
				399	0	399	2	1	9999999	85	0															