101	509	0	8.5	0	45	0	0	1	674 	0	2.1	1						6	0	-51	0	5000	1450	1000	2	10
55	509	10	2.5	1	45	1	0	1	1378	2	2.3	1	509	509				4	51	0	-25.5	5001	1000	1000	2	0
25	509	5	-6.5	2	45	2	1	1	2463	4	3.1	2	509	509				5	0	51	0	5005	29	1000	2	
35	509	-5	-6.5	3	45	3	0	1	3954	6	3.1	2	509	509						0	25.5	504	2	1000	2	
	509	-10	2.5	4	45	4	0	1	5873	8	2.8	3	509	509						-51	0	10502	1	1000	2	
				5	45	5	0	1	8247	10	2.3	3	509	509								-1				
				6	45	6	2	1	11102	12	2.3	4	509	509												
				7	45	7	2	1	14464	14	2.7	4	509	509												
				8	45	8	2	1	18363	16	2.3	5	509	509												
				9	45	9	2	1	22826	18	2.9	5	509	509												
boss				10	45	200	1	1	139430	60	3.3	500	509	509												
				11	45	11	0	1	33573	22	2.5	6	509	509												
				12	45	12	1	1	39921	24	3.4	6	509	509												
				13	45	13	0	1	46963	26	2.2	7	509	509												
				14	45	14	2	1	54734	28	2.9	7	509	509												
				15	45	15	1	1	63271	30	2.3	8	509	509												
				16	45	16	1	1	72612	32	3.4	8	509	509												
				17	45	17	2	1	82796	34	2.7	9	509	509												
				18	45	18	1	1	93864	36	2.0	9	509	509												
				19	45	19	0	1	105858	38	3.1	10	509	509												
boss				20	45	201	1	1	594105	99	3.3	800	509	509												
				21	45	21	2	1	132798	61	2.1	11	509	509												
				22	45	22	0	1	147837	63	2.7	11	509	509												
				23	45	23	1	1	163986	65	3.8	12	509	509												
				24	45	24	2	1	1	67	3.3	12	509	509												
				25	45	25	1	1	199813	69	2.9	13	509	509												
				26	45	26	2	1	219597	71	2.9	13	509	509												
				27	45	27	0	1	240701	73	2.4	14	509	509												
				28	45	28	0	1	263183	75	2.4	14	509	509												
				29	45	29	1	1	287101	77	3.4	15	509	509												
boss				30	45	202	1	1	1562585	119	3.3	1000	509	509												
				31	45	31	2	1	339493	82	2.7	16	509	509												
				32	45	32	1	1	368096	86	2.1	16	509	509												
				33	45	33	0	1	398391	90	2.6	17	509	509												
				34	45	34	2	1	430450	94	3.2	17	509	509												
				35	45	35	2	1	464344	98	3.6	18	509	509												
				36	45	36	0	1	500147	102	2.4	18	509	509												
				37	45	37	1	1	537937	106	2.2	19	509	509												
				38	45	38	2	1	577791	110	2.7	19	509	509												
				39	45	39	2	1	603938	114	3.0	20	509	509												
boss				40	45	203	1	1	3089020	158	3.3	1500	509	509												
				41	45	40	0	1	633542	120	3.5	21	509	509												
				42	45	41	2	1	651256	123	2.3	21	509	509												
				43	45	42	2	1	671050	126	2.2	22	509	509												
				44	45	43	1	1	693036	129	2.7	22	509	509												
				45	45	44	0	1	717327	132	2.0	23	509	509												
				46	45	45	2	1	744041	135	3.6	23	509	509												
				47	45	46	0	1	773300	138	3.7	24	509	509												
				48	45	47	2	1	805233	141	3.0	24	509	509												
				49	45	48	1	1	1	144	3.7	25	509	509												
boss				50	45	204	1	1	4717815	187	3.3	2000	509	509												
				51	45	51	0	1	966437	150	3.6	26	509	509												
				52	45	52	2	1	991788	153	2.9	26	509	509												
				53	45	53	2	1	1019748	156	3.4	27	509	509												
				54	45	54	2	1	1050448	159	3.3	27	509	509												
				55	45	55	0	1	1084029	162	2.7	28	509	509												
				56	45	56	2	1	1120635	166	2.1	28	509	509												
				57	45	57	0	1	1160414	170	2.8	29	509	509												
				58	45	58	2	1	1203520	174	2.4	29	509	509												
				59	45	59	1	1	1351475	178	2.6	30	509	509												
boss				60	45	205	1	1	6903865	262	3.3	3000	509	509												
				61	45	0	0	1	1413016	185	2.4	31	509	509												
				62	45	1	0	1	1448357	188	3.1	31	509	509												
				63	45	2	0	1	1486952	190	2.3	32	509	509												
				64	45	3	0	1	1528965	193	2.5	32	509	509												
				65	45	4	2	1	1574564	196	3.0	33	509	509												
				66	45	5	0	1	1623925	198	2.8	34	509	509												
				67	45	6	1	1	1677229	201	3.7	34	509	509												
				68	45	7	0	1	1734662	205	3.3	35	509	509												
				69	45	8	0	1	1919837	207	2.3	35	509	509												
boss				70	45	201	1	1	9802950	251	3.3	4000	509	509												
				71	45	9	0	1	2005016	215	2.3	36	509	509												
				72	45	10	2	1	2053299	217	3.8	36	509	509												
				73	45	11	1	1	2105630	221	3.5	37	509	509												
				74	45	12	2	1	2162207	225	2.3	37	509	509												
				75	45	13	1	1	2223235	227	3.1	38	509	509												
				76	45	14	2	1	2288925	231	2.8	38	509	509												
				77	45	15	0	1	2359498	235	2.5	39	509	509												
				78	45	16	0	1	2435179	237	2.8	39	509	509												
				79	45	17	1	1	2666177	241	2.0	40	509	509												
boss				80	45	202	1	1	13608715	286	3.3	5000	509	509												
				81	45	18	1	1	2781873	248	2.6	41	509	509												
				82	45	19	1	1	2846790	252	2.6	41	509	509												
				83	45	20	2	1	2916724	254	3.8	42	509	509												
				84	45	21	0	1	2991917	258	3.1	42	509	509												
				85	45	22	0	1	3072614	260	2.0	43	509	509												
				86	45	23	2	1	3159074	264	3.8	43	509	509												
				87	45	24	0	1	3251560	266	2.0	44	509	509												
				88	45	25	1	1	3350347	270	2.6	44	509	509												
				89	45	26	0	1	3637598	272	2.7	45	509	509												
boss				90	45	203	1	1	18746250	316	3.3	7000	509	509												
				91	45	28	1	1	3863787	278	3.4	46	509	509												
				92	45	29	2	1	3981275	282	3.3	46	509	509												
				93	45	30	1	1	4101783	284	3.3	47	509	509												
				94	45	31	2	1	4225379	289	3.0	47	509	509												
				95	45	32	1	1	4352133	291	2.4	48	509	509												
				96	45	33	1	1	4482118	296	2.2	48	509	509												
				97	45	34	0	1	4615406	298	2.3	49	509	509												
				98	45	35	0	1	4752072	303	2.7	49	509	509												
				99	45	36	0	1	4892193	305	2.9	50	509	509												
boss				100	45	331	1	1	24460965	350	3.3	50	509	509												
boss				101	45	390	1	1.5	45252785	410	0.1	50	509	509												
																										
				301	0	301	1	1	140061	100	0	1	509	509	509	509										
				302	0	302	1	1	210097	120	0	1	509	509	509	509										
				303	0	303	1	1	336160	140	0	1	509	509	509	509	2									
				304	0	304	1	1	571484	160	0	1	2	2	2	2	3	3								
				305	0	305	1	1	971527	180	0	1	2	2	2	3	3	3								
				306	0	306	1	1	1651613	200	0	1	2	2	3	3	3	3								
				307	0	307	1	1	2807746	220	0	1	4	3	3											
				308	0	308	1	1	4773178	240	0	1	4	4												
				309	0	309	1	1	8114408	260	0	1	4	4	4											
				310	0	310	1	1	13794508	280	0	1	509	509	509	509										
				311	0	311	1	1	24830123	300	0	1	509	509	509	509										
				312	0	312	1	1	44694230	320	0	1	5													
																										
				397	0	397	0	0.75	1	1	3															
				398	0	398	2	0.75	1	1	3															
				399	0	399	2	1	9999999	85	0															