101	509	0	8.5	0	45	0	0	1	964 	0	2.1	1						6	0	-51	0	5000	1600	1000	2	11
55	509	10	2.5	1	45	1	0	1	1976	2	2.3	1	509	509				4	51	0	-25.5	5001	1150	1000	2	0
25	509	5	-6.5	2	45	2	1	1	3543	4	3.1	2	509	509				5	0	51	0	5005	32	1000	2	
35	509	-5	-6.5	3	45	3	0	1	5705	6	3.1	2	509	509						0	25.5	504	4	1000	2	
	509	-10	2.5	4	45	4	0	1	8503	8	2.8	3	509	509						-51	0	1503	1	1000	2	
				5	45	5	0	1	11979	10	2.3	3	509	509								-1				
				6	45	6	2	1	16179	12	2.3	4	509	509												
				7	45	7	2	1	21149	14	2.7	4	509	509												
				8	45	8	2	1	26938	16	2.3	5	509	509												
				9	45	9	2	1	33597	18	2.9	5	509	509												
boss				10	45	200	1	1	205895	60	3.3	500	509	509												
				11	45	11	0	1	49741	22	2.5	6	509	509												
				12	45	12	1	1	59340	24	3.4	6	509	509												
				13	45	13	0	1	70036	26	2.2	7	509	509												
				14	45	14	2	1	81894	28	2.9	7	509	509												
				15	45	15	1	1	94978	30	2.3	8	509	509												
				16	45	16	1	1	109357	32	3.4	8	509	509												
				17	45	17	2	1	125103	34	2.7	9	509	509												
				18	45	18	1	1	142291	36	2.0	9	509	509												
				19	45	19	0	1	160997	38	3.1	10	509	509												
boss				20	45	201	1	1	906510	102	3.3	800	509	509												
				21	45	21	2	1	203290	64	2.1	11	509	509												
				22	45	22	0	1	227049	66	2.7	11	509	509												
				23	45	23	1	1	252669	68	3.8	12	509	509												
				24	45	24	2	1	1	70	3.3	12	509	509												
				25	45	25	1	1	309876	72	2.9	13	509	509												
				26	45	26	2	1	341662	74	2.9	13	509	509												
				27	45	27	0	1	375710	76	2.4	14	509	509												
				28	45	28	0	1	412131	78	2.4	14	509	509												
				29	45	29	1	1	451039	80	3.4	15	509	509												
boss				30	45	202	1	1	2462765	124	3.3	1000	509	509												
				31	45	31	2	1	536796	88	2.7	16	509	509												
				32	45	32	1	1	583896	92	2.1	16	509	509												
				33	45	33	0	1	633988	96	2.6	17	509	509												
				34	45	34	2	1	687208	100	3.2	17	509	509												
				35	45	35	2	1	743700	104	3.6	18	509	509												
				36	45	36	0	1	803613	108	2.4	18	509	509												
				37	45	37	1	1	867101	112	2.2	19	509	509												
				38	45	38	2	1	934324	116	2.7	19	509	509												
				39	45	39	2	1	979729	120	3.0	20	509	509												
boss				40	45	203	1	1	5027125	166	3.3	1500	509	509												
				41	45	40	0	1	1034328	129	3.5	21	509	509												
				42	45	41	2	1	1066637	132	2.3	21	509	509												
				43	45	42	2	1	1102557	135	2.2	22	509	509												
				44	45	43	1	1	1142303	138	2.7	22	509	509												
				45	45	44	0	1	1186098	141	2.0	23	509	509												
				46	45	45	2	1	1234175	144	3.6	23	509	509												
				47	45	46	0	1	1286777	147	3.7	24	509	509												
				48	45	47	2	1	1344157	150	3.0	24	509	509												
				49	45	48	1	1	1	153	3.7	25	509	509												
boss				50	45	204	1	1	7925245	196	3.3	2000	509	509												
				51	45	51	0	1	1628600	159	3.6	26	509	509												
				52	45	52	2	1	1676594	162	2.9	26	509	509												
				53	45	53	2	1	1729290	166	3.4	27	509	509												
				54	45	54	2	1	1786960	170	3.3	27	509	509												
				55	45	55	0	1	1849885	174	2.7	28	509	509												
				56	45	56	2	1	1918360	178	2.1	28	509	509												
				57	45	57	0	1	1992689	182	2.8	29	509	509												
				58	45	58	2	1	2073191	186	2.4	29	509	509												
				59	45	59	1	1	2335349	190	2.6	30	509	509												
boss				60	45	205	1	1	11967200	274	3.3	3000	509	509												
				61	45	0	0	1	2456984	197	2.4	31	509	509												
				62	45	1	0	1	2526297	200	3.1	31	509	509												
				63	45	2	0	1	2601705	202	2.3	32	509	509												
				64	45	3	0	1	2683549	206	2.5	32	509	509												
				65	45	4	2	1	2772183	210	3.0	33	509	509												
				66	45	5	0	1	2867977	212	2.8	34	509	509												
				67	45	6	1	1	2971314	216	3.7	34	509	509												
				68	45	7	0	1	3082594	220	3.3	35	509	509												
				69	45	8	0	1	3422234	222	2.3	35	509	509												
boss				70	45	201	1	1	17528495	266	3.3	4000	509	509												
				71	45	9	0	1	3596224	230	2.3	36	509	509												
				72	45	10	2	1	3694203	232	3.8	36	509	509												
				73	45	11	1	1	3800047	236	3.5	37	509	509												
				74	45	12	2	1	3914183	240	2.3	37	509	509												
				75	45	13	1	1	4037056	242	3.1	38	509	509												
				76	45	14	2	1	4169129	247	2.8	38	509	509												
				77	45	15	0	1	4310882	252	2.5	39	509	509												
				78	45	16	0	1	4462817	254	2.8	39	509	509												
				79	45	17	1	1	4901141	259	2.0	40	509	509												
boss				80	45	202	1	1	25093095	304	3.3	5000	509	509												
				81	45	18	1	1	5145195	266	2.6	41	509	509												
				82	45	19	1	1	5281363	270	2.6	41	509	509												
				83	45	20	2	1	5427636	272	3.8	42	509	509												
				84	45	21	0	1	5584551	276	3.1	42	509	509												
				85	45	22	0	1	5752662	278	2.0	43	509	509												
				86	45	23	2	1	5932548	282	3.8	43	509	509												
				87	45	24	0	1	6124810	284	2.0	44	509	509												
				88	45	25	1	1	6330073	289	2.6	44	509	509												
				89	45	26	0	1	6893668	291	2.7	45	509	509												
boss				90	45	203	1	1	35634065	336	3.3	7000	509	509												
				91	45	28	1	1	7366788	298	3.4	46	509	509												
				92	45	29	2	1	7613774	303	3.3	46	509	509												
				93	45	30	1	1	7867955	305	3.3	47	509	509												
				94	45	31	2	1	8129521	310	3.0	47	509	509												
				95	45	32	1	1	8398665	312	2.4	48	509	509												
				96	45	33	1	1	8675585	317	2.2	48	509	509												
				97	45	34	0	1	8960486	319	2.3	49	509	509												
				98	45	35	0	1	9253574	324	2.7	49	509	509												
				99	45	36	0	1	9555064	326	2.9	50	509	509												
boss				100	45	332	1	1	47775320	372	3.3	50	509	509												
boss				101	45	390	1	1.5	74051746	432	0.1	50	509	509												
																										
				301	0	301	1	1	162137	100	0	1	509	509	509	509										
				302	0	302	1	1	243212	120	0	1	509	509	509	509										
				303	0	303	1	1	389146	140	0	1	509	509	509	509	2									
				304	0	304	1	1	661563	160	0	1	2	2	2	2	3	3								
				305	0	305	1	1	1124663	180	0	1	2	2	2	3	3	3								
				306	0	306	1	1	1911947	200	0	1	2	2	3	3	3	3								
				307	0	307	1	1	3250315	220	0	1	4	3	3											
				308	0	308	1	1	5525548	240	0	1	4	4												
				309	0	309	1	1	9393440	260	0	1	4	4	4											
				310	0	310	1	1	15968866	280	0	1	509	509	509	509										
				311	0	311	1	1	28743970	300	0	1	509	509	509	509										
				312	0	312	1	1	51739157	320	0	1	5													
																										
				397	0	397	0	0.75	1	1	3															
				398	0	398	2	0.75	1	1	3															
				399	0	399	2	1	9999999	85	0															