101	509	0	8.5	0	45	0	0	1	1085 	0	2.1	1						6	0	-51	0	5000	1650	1000	2	11
55	509	10	2.5	1	45	1	0	1	2228	2	2.3	1	509	509				4	51	0	-25.5	5001	1200	1000	2	0
25	509	5	-6.5	2	45	2	1	1	3999	4	3.1	2	509	509				5	0	51	0	5005	33	1000	2	
35	509	-5	-6.5	3	45	3	0	1	6447	6	3.1	2	509	509						0	25.5	504	4	1000	2	
	509	-10	2.5	4	45	4	0	1	9619	8	2.8	3	509	509						-51	0	10502	1	1000	2	
				5	45	5	0	1	13567	10	2.3	3	509	509								-1				
				6	45	6	2	1	18343	12	2.3	4	509	509												
				7	45	7	2	1	24004	14	2.7	4	509	509												
				8	45	8	2	1	30608	16	2.3	5	509	509												
				9	45	9	2	1	38216	18	2.9	5	509	509												
boss				10	45	200	1	1	234465	60	3.3	500	509	509												
				11	45	11	0	1	56705	22	2.5	6	509	509												
				12	45	12	1	1	67721	24	3.4	6	509	509												
				13	45	13	0	1	80016	26	2.2	7	509	509												
				14	45	14	2	1	93666	28	2.9	7	509	509												
				15	45	15	1	1	108750	30	2.3	8	509	509												
				16	45	16	1	1	125351	32	3.4	8	509	509												
				17	45	17	2	1	143556	34	2.7	9	509	509												
				18	45	18	1	1	163457	36	2.0	9	509	509												
				19	45	19	0	1	185146	38	3.1	10	509	509												
boss				20	45	201	1	1	1043620	103	3.3	800	509	509												
				21	45	21	2	1	234292	65	2.1	11	509	509												
				22	45	22	0	1	261958	67	2.7	11	509	509												
				23	45	23	1	1	291833	69	3.8	12	509	509												
				24	45	24	2	1	1	71	3.3	12	509	509												
				25	45	25	1	1	358681	73	2.9	13	509	509												
				26	45	26	2	1	395901	75	2.9	13	509	509												
				27	45	27	0	1	435824	77	2.4	14	509	509												
				28	45	28	0	1	478587	79	2.4	14	509	509												
				29	45	29	1	1	524333	82	3.4	15	509	509												
boss				30	45	202	1	1	2866040	126	3.3	1000	509	509												
				31	45	31	2	1	625367	90	2.7	16	509	509												
				32	45	32	1	1	680969	94	2.1	16	509	509												
				33	45	33	0	1	740181	98	2.6	17	509	509												
				34	45	34	2	1	803174	102	3.2	17	509	509												
				35	45	35	2	1	870129	106	3.6	18	509	509												
				36	45	36	0	1	941232	110	2.4	18	509	509												
				37	45	37	1	1	1016676	114	2.2	19	509	509												
				38	45	38	2	1	1096663	118	2.7	19	509	509												
				39	45	39	2	1	1151182	123	3.0	20	509	509												
boss				40	45	203	1	1	5913155	169	3.3	1500	509	509												
				41	45	40	0	1	1217921	132	3.5	21	509	509												
				42	45	41	2	1	1257299	135	2.3	21	509	509												
				43	45	42	2	1	1301018	138	2.2	22	509	509												
				44	45	43	1	1	1349345	141	2.7	22	509	509												
				45	45	44	0	1	1402561	144	2.0	23	509	509												
				46	45	45	2	1	1460955	147	3.6	23	509	509												
				47	45	46	0	1	1524831	150	3.7	24	509	509												
				48	45	47	2	1	1594507	153	3.0	24	509	509												
				49	45	48	1	1	1	156	3.7	25	509	509												
boss				50	45	204	1	1	9421135	199	3.3	2000	509	509												
				51	45	51	0	1	1938034	162	3.6	26	509	509												
				52	45	52	2	1	1997242	166	2.9	26	509	509												
				53	45	53	2	1	2062179	170	3.4	27	509	509												
				54	45	54	2	1	2133184	174	3.3	27	509	509												
				55	45	55	0	1	2210613	178	2.7	28	509	509												
				56	45	56	2	1	2294838	182	2.1	28	509	509												
				57	45	57	0	1	2386245	186	2.8	29	509	509												
				58	45	58	2	1	2485238	190	2.4	29	509	509												
				59	45	59	1	1	2802419	194	2.6	30	509	509												
boss				60	45	205	1	1	14375600	278	3.3	3000	509	509												
				61	45	0	0	1	2954524	201	2.4	31	509	509												
				62	45	1	0	1	3041030	205	3.1	31	509	509												
				63	45	2	0	1	3135055	207	2.3	32	509	509												
				64	45	3	0	1	3237031	211	2.5	32	509	509												
				65	45	4	2	1	3347411	215	3.0	33	509	509												
				66	45	5	0	1	3466667	217	2.8	34	509	509												
				67	45	6	1	1	3595290	221	3.7	34	509	509												
				68	45	7	0	1	3733792	225	3.3	35	509	509												
				69	45	8	0	1	4149459	227	2.3	35	509	509												
boss				70	45	201	1	1	21275210	271	3.3	4000	509	509												
				71	45	9	0	1	4369412	235	2.3	36	509	509												
				72	45	10	2	1	4493074	237	3.8	36	509	509												
				73	45	11	1	1	4626557	241	3.5	37	509	509												
				74	45	12	2	1	4770411	246	2.3	37	509	509												
				75	45	13	1	1	4925209	248	3.1	38	509	509												
				76	45	14	2	1	5091549	253	2.8	38	509	509												
				77	45	15	0	1	5270054	258	2.5	39	509	509												
				78	45	16	0	1	5461372	260	2.8	39	509	509												
				79	45	17	1	1	6003898	265	2.0	40	509	509												
boss				80	45	202	1	1	30770410	310	3.3	5000	509	509												
				81	45	18	1	1	6315727	272	2.6	41	509	509												
				82	45	19	1	1	6489475	276	2.6	41	509	509												
				83	45	20	2	1	6675993	278	3.8	42	509	509												
				84	45	21	0	1	6875978	282	3.1	42	509	509												
				85	45	22	0	1	7090156	284	2.0	43	509	509												
				86	45	23	2	1	7319281	289	3.8	43	509	509												
				87	45	24	0	1	7564141	291	2.0	44	509	509												
				88	45	25	1	1	7825552	296	2.6	44	509	509												
				89	45	26	0	1	8530914	298	2.7	45	509	509												
boss				90	45	203	1	1	44141700	343	3.3	7000	509	509												
				91	45	28	1	1	9134818	305	3.4	46	509	509												
				92	45	29	2	1	9450597	310	3.3	46	509	509												
				93	45	30	1	1	9775935	312	3.3	47	509	509												
				94	45	31	2	1	10111092	317	3.0	47	509	509												
				95	45	32	1	1	10456338	319	2.4	48	509	509												
				96	45	33	1	1	10811949	324	2.2	48	509	509												
				97	45	34	0	1	11178206	326	2.3	49	509	509												
				98	45	35	0	1	11555401	332	2.7	49	509	509												
				99	45	36	0	1	11943830	334	2.9	50	509	509												
boss				100	45	332	1	1	59719150	380	3.3	50	509	509												
boss				101	45	390	1	1.5	87787150	440	0.1	50	509	509												
																										
				301	0	301	1	1	170243	100	0	1	509	509	509	509										
				302	0	302	1	1	255372	120	0	1	509	509	509	509										
				303	0	303	1	1	408603	140	0	1	509	509	509	509	2									
				304	0	304	1	1	694641	160	0	1	2	2	2	2	3	3								
				305	0	305	1	1	1180896	180	0	1	2	2	2	3	3	3								
				306	0	306	1	1	2007544	200	0	1	2	2	3	3	3	3								
				307	0	307	1	1	3412830	220	0	1	4	3	3											
				308	0	308	1	1	5801825	240	0	1	4	4												
				309	0	309	1	1	9863112	260	0	1	4	4	4											
				310	0	310	1	1	16767309	280	0	1	509	509	509	509										
				311	0	311	1	1	30181168	300	0	1	509	509	509	509										
				312	0	312	1	1	54326114	320	0	1	5													
																										
				397	0	397	0	0.75	1	1	3															
				398	0	398	2	0.75	1	1	3															
				399	0	399	2	1	9999999	85	0															