101	509	0	8.5	0	45	0	0	1	1967 	0	2.1	1						6	0	-51	0	5000	1900	1000	2	13
55	509	10	2.5	1	45	1	0	1	4059	2	2.3	1	509	509				4	51	0	-25.5	5001	1450	1000	2	0
25	509	5	-6.5	2	45	2	1	1	7328	4	3.1	2	509	509				5	0	51	0	5005	38	1000	2	
35	509	-5	-6.5	3	45	3	0	1	11878	6	3.1	2	509	509						0	25.5	505	4	1000	2	
	509	-10	2.5	4	45	4	0	1	17821	8	2.8	3	509	509						-51	0	1503	3	1000	2	
				5	45	5	0	1	25274	10	2.3	3	509	509								-1				
				6	45	6	2	1	34360	12	2.3	4	509	509												
				7	45	7	2	1	45213	14	2.7	4	509	509												
				8	45	8	2	1	57970	16	2.3	5	509	509												
				9	45	9	2	1	72779	18	2.9	5	509	509												
boss				10	45	200	1	1	448975	60	3.3	500	509	509												
				11	45	11	0	1	109180	22	2.5	6	509	509												
				12	45	12	1	1	131109	24	3.4	6	509	509												
				13	45	13	0	1	155762	26	2.2	7	509	509												
				14	45	14	2	1	183332	28	2.9	7	509	509												
				15	45	15	1	1	214021	30	2.3	8	509	509												
				16	45	16	1	1	248042	32	3.4	8	509	509												
				17	45	17	2	1	285619	34	2.7	9	509	509												
				18	45	18	1	1	326987	36	2.0	9	509	509												
				19	45	19	0	1	372396	38	3.1	10	509	509												
boss				20	45	201	1	1	2110525	108	3.3	800	509	509												
				21	45	21	2	1	476390	70	2.1	11	509	509												
				22	45	22	0	1	535538	72	2.7	11	509	509												
				23	45	23	1	1	599853	74	3.8	12	509	509												
				24	45	24	2	1	1	76	3.3	12	509	509												
				25	45	25	1	1	745270	78	2.9	13	509	509												
				26	45	26	2	1	827057	80	2.9	13	509	509												
				27	45	27	0	1	915380	84	2.4	14	509	509												
				28	45	28	0	1	1010625	88	2.4	14	509	509												
				29	45	29	1	1	1113197	92	3.4	15	509	509												
boss				30	45	202	1	1	6117600	136	3.3	1000	509	509												
				31	45	31	2	1	1342038	100	2.7	16	509	509												
				32	45	32	1	1	1469217	104	2.1	16	509	509												
				33	45	33	0	1	1605544	108	2.6	17	509	509												
				34	45	34	2	1	1751532	112	3.2	17	509	509												
				35	45	35	2	1	1907714	116	3.6	18	509	509												
				36	45	36	0	1	2074650	120	2.4	18	509	509												
				37	45	37	1	1	2252926	126	2.2	19	509	509												
				38	45	38	2	1	2443156	132	2.7	19	509	509												
				39	45	39	2	1	2578300	138	3.0	20	509	509												
boss				40	45	203	1	1	13314270	184	3.3	1500	509	509												
				41	45	40	0	1	2756918	147	3.5	21	509	509												
				42	45	41	2	1	2861192	150	2.3	21	509	509												
				43	45	42	2	1	2976414	153	2.2	22	509	509												
				44	45	43	1	1	3103361	156	2.7	22	509	509												
				45	45	44	0	1	3242855	159	2.0	23	509	509												
				46	45	45	2	1	3395758	162	3.6	23	509	509												
				47	45	46	0	1	3562981	166	3.7	24	509	509												
				48	45	47	2	1	3745481	170	3.0	24	509	509												
				49	45	48	1	1	1	174	3.7	25	509	509												
boss				50	45	204	1	1	22364325	218	3.3	2000	509	509												
				51	45	51	0	1	4624834	182	3.6	26	509	509												
				52	45	52	2	1	4791212	186	2.9	26	509	509												
				53	45	53	2	1	4972998	190	3.4	27	509	509												
				54	45	54	2	1	5171247	194	3.3	27	509	509												
				55	45	55	0	1	5387067	198	2.7	28	509	509												
				56	45	56	2	1	5621624	202	2.1	28	509	509												
				57	45	57	0	1	5876147	207	2.8	29	509	509												
				58	45	58	2	1	6151927	212	2.4	29	509	509												
				59	45	59	1	1	6973317	217	2.6	30	509	509												
boss				60	45	205	1	1	35957790	302	3.3	3000	509	509												
				61	45	0	0	1	7428703	226	2.4	31	509	509												
				62	45	1	0	1	7686034	230	3.1	31	509	509												
				63	45	2	0	1	7964902	232	2.3	32	509	509												
				64	45	3	0	1	8266726	236	2.5	32	509	509												
				65	45	4	2	1	8593000	240	3.0	33	509	509												
				66	45	5	0	1	8945293	242	2.8	34	509	509												
				67	45	6	1	1	9325256	247	3.7	34	509	509												
				68	45	7	0	1	9734623	252	3.3	35	509	509												
				69	45	8	0	1	10874273	254	2.3	35	509	509												
boss				70	45	201	1	1	56042835	299	3.3	4000	509	509												
				71	45	9	0	1	11569228	264	2.3	36	509	509												
				72	45	10	2	1	11957982	266	3.8	36	509	509												
				73	45	11	1	1	12376641	271	3.5	37	509	509												
				74	45	12	2	1	12827113	276	2.3	37	509	509												
				75	45	13	1	1	13311402	278	3.1	38	509	509												
				76	45	14	2	1	13831613	283	2.8	38	509	509												
				77	45	15	0	1	14389954	289	2.5	39	509	509												
				78	45	16	0	1	14988746	291	2.8	39	509	509												
				79	45	17	1	1	16562038	297	2.0	40	509	509												
boss				80	45	202	1	1	85315590	343	3.3	5000	509	509												
				81	45	18	1	1	17600737	305	2.6	41	509	509												
				82	45	19	1	1	18177209	310	2.6	41	509	509												
				83	45	20	2	1	18794961	312	3.8	42	509	509												
				84	45	21	0	1	19456545	317	3.1	42	509	509												
				85	45	22	0	1	20164638	319	2.0	43	509	509												
				86	45	23	2	1	20922052	324	3.8	43	509	509												
				87	45	24	0	1	21731734	326	2.0	44	509	509												
				88	45	25	1	1	22596779	332	2.6	44	509	509												
				89	45	26	0	1	24758346	334	2.7	45	509	509												
boss				90	45	203	1	1	128755975	380	3.3	7000	509	509												
				91	45	28	1	1	26779861	342	3.4	46	509	509												
				92	45	29	2	1	27845535	348	3.3	46	509	509												
				93	45	30	1	1	28949448	350	3.3	47	509	509												
				94	45	31	2	1	30092865	356	3.0	47	509	509												
				95	45	32	1	1	31277092	358	2.4	48	509	509												
				96	45	33	1	1	32503478	364	2.2	48	509	509												
				97	45	34	0	1	33773409	366	2.3	49	509	509												
				98	45	35	0	1	35088316	373	2.7	49	509	509												
				99	45	36	0	1	36449676	375	2.9	50	509	509												
boss				100	45	332	1	1	182248380	422	3.3	50	509	509												
boss				101	45	390	1	1.5	222343023	482	0.1	50	509	509												
																										
				301	0	301	1	1	217275	100	0	1	509	509	509	509										
				302	0	302	1	1	325925	120	0	1	509	509	509	509										
				303	0	303	1	1	521490	140	0	1	509	509	509	509	2									
				304	0	304	1	1	886555	160	0	1	2	2	2	2	3	3								
				305	0	305	1	1	1507153	180	0	1	2	2	2	3	3	3								
				306	0	306	1	1	2562190	200	0	1	2	2	3	3	3	3								
				307	0	307	1	1	4355729	220	0	1	4	3	3											
				308	0	308	1	1	7404759	240	0	1	4	4												
				309	0	309	1	1	12588106	260	0	1	4	4	4											
				310	0	310	1	1	21399804	280	0	1	509	509	509	509										
				311	0	311	1	1	38519665	300	0	1	509	509	509	509										
				312	0	312	1	1	69335414	320	0	1	5													
																										
				397	0	397	0	0.75	1	1	3															
				398	0	398	2	0.75	1	1	3															
				399	0	399	2	1	9999999	85	0															