101	1	0	8.5	0	40	17	0	1	299 	5	2.3	1						6	0	-51	0	5001	24	2000	0	40	3	0,0,50,0,200,0,200,0,200
55	1	10	2.5	1	40	49	0	1	573	7	2.5	1	1	1				4	31	0	-25.5	5000	22	2000	0	0	-1	
25	1	5	-6.5	2	40	19	1	1	775	9	3.3	2	1	1				4	41	51	0	1502	1	500	1		4	0,1,100
35	1	-5	-6.5	3	40	23	0	1	1051	11	3.3	2	1	1				4	51	0	25.5	503	1	500	3			
	1	-10	2.5	4	40	18	0	1	1713	13	3.0	3	1	1				4	61	-51	0	1502	1	500	3			10
				5	40	50	0	1	2211	15	2.5	3	1	1				4	71			503	1	500	5		-1	
				6	40	59	2	1	2929	17	2.5	4	1	1				4	81			503	1	500	5			
				7	40	11	2	1	3662	19	2.9	4	1	1				4	91			1502	1	500	5			
				8	40	42	2	1	4391	21	2.5	5	1	1				5	0			10501	1	700	5			
				9	40	51	2	1	4968	23	3.1	5	1	1								1503	1	700	8			
boss				10	40	254	1	1	43696	55	3.5	500	1	1								5005	10	1000	8			
				11	40	32	0	1	6426	27	2.7	6	1	1								98	1	500	8			
				12	40	1	1	1	7485	29	3.6	6	1	1								98	1	1000	8			
				13	40	30	0	1	8835	31	2.4	7	1	1								5000	820	1000	8			
				14	40	2	2	1	10342	33	3.1	7	1	1								5001	1100	1000	8			
				15	40	59	1	1	11837	35	2.5	8	1	1								-1						
				16	40	15	1	1	14693	37	3.6	8	1	1														
				17	40	36	2	1	16695	39	2.9	9	1	1														
				18	40	11	1	1	19463	41	2.2	9	1	1														
				19	40	26	0	1	22864	43	3.3	10	1	1														
boss				20	40	241	1	1	132939	75	3.5	800	1	1														
				21	40	3	2	1	36070	49	2.3	11	1	1														
				22	40	1	0	1	40235	53	2.9	11	1	1														
				23	40	59	1	1	44977	57	4.0	12	1	1														
				24	40	14	2	1	0	61	3.5	12	1	1														
				25	40	27	1	1	52854	65	3.1	13	1	1														
				26	40	52	2	1	58551	69	3.1	13	1	1														
				27	40	45	0	1	61059	73	2.6	14	1	1														
				28	40	54	0	1	63681	77	2.6	14	1	1														
				29	40	22	1	1	66412	81	3.6	15	1	1														
boss				30	40	244	1	1	276602	115	3.5	1000	1	1														
				31	40	3	2	1	77838	89	2.9	16	1	1														
				32	40	18	1	1	83867	93	2.3	16	1	1														
				33	40	48	0	1	90780	97	2.8	17	1	1														
				34	40	42	2	1	98057	101	3.4	17	1	1														
				35	40	31	2	1	137963	105	3.8	18	1	1														
				36	40	0	0	1	144602	109	2.6	18	1	1														
				37	40	38	1	1	151105	113	2.4	19	1	1														
				38	40	44	2	1	157465	117	2.9	19	1	1														
				39	40	0	2	1	163851	121	3.2	20	1	1														
boss				40	40	253	1	1	510985	155	3.5	1500	1	1														
				41	40	61	0	1	246430	129	3.7	21	1	1														
				42	40	62	2	1	259607	133	2.5	21	1	1														
				43	40	57	2	1	272301	137	2.4	22	1	1														
				44	40	19	1	1	284750	141	2.9	22	1	1														
				45	40	19	0	1	297045	145	2.2	23	1	1														
				46	40	24	2	1	308988	149	3.8	23	1	1														
				47	40	31	0	1	321324	153	3.9	24	1	1														
				48	40	31	2	1	333720	157	3.2	24	1	1														
				49	40	30	1	1	0	161	3.9	25	1	1														
boss				50	40	244	1	1	1077821	195	3.5	2000	1	1														
				51	40	21	0	1	511274	170	3.8	26	1	1														
				52	40	9	2	1	529190	175	3.1	26	1	1														
				53	40	29	2	1	547713	180	3.6	27	1	1														
				54	40	63	2	1	567266	185	3.5	27	1	1														
				55	40	60	0	1	588292	190	2.9	28	1	1														
				56	40	42	2	1	610836	195	2.3	28	1	1														
				57	40	33	0	1	635016	200	3.0	29	1	1														
				58	40	52	2	1	660693	205	2.6	29	1	1														
				59	40	7	1	1	687430	210	2.8	30	1	1														
boss				60	40	241	1	1	2146683	245	3.5	3000	1	1														
				61	40	49	0	1	750326	220	2.6	31	1	1														
				62	40	43	0	1	786391	225	3.3	31	1	1														
				63	40	35	0	1	822053	230	2.5	32	1	1														
				64	40	58	0	1	855602	235	2.7	32	1	1														
				65	40	0	2	1	888564	240	3.2	33	1	1														
				66	40	38	0	1	921412	245	3.0	34	1	1														
				67	40	25	1	1	953513	250	3.9	34	1	1														
				68	40	54	0	1	985060	255	3.5	35	1	1														
				69	40	54	0	1	1016603	260	2.5	35	1	1														
boss				70	40	257	1	1	3146377	295	3.5	4000	1	1														
				71	40	14	0	1	1081523	270	2.5	36	1	1														
				72	40	30	2	1	1115014	275	4.0	36	1	1														
				73	40	32	1	1	1149135	280	3.7	37	1	1														
				74	40	38	2	1	1183537	285	2.5	37	1	1														
				75	40	35	1	1	1218524	290	3.3	38	1	1														
				76	40	42	2	1	1253718	295	3.0	38	1	1														
				77	40	34	0	1	1291163	300	2.7	39	1	1														
				78	40	32	0	1	1330332	305	3.0	39	1	1														
				79	40	59	1	1	1372043	310	2.2	40	1	1														
boss				80	40	250	1	1	4248706	345	3.5	5000	1	1														
				81	40	37	1	1	1462580	320	2.8	41	1	1														
				82	40	26	1	1	1510142	325	2.8	41	1	1														
				83	40	59	2	1	1559804	330	4.0	42	1	1														
				84	40	31	0	1	1606670	335	3.3	42	1	1														
				85	40	5	0	1	1655629	340	2.2	43	1	1														
				86	40	36	2	1	1702499	345	4.0	43	1	1														
				87	40	55	0	1	1747109	350	2.2	44	1	1														
				88	40	16	1	1	1791590	355	2.8	44	1	1														
				89	40	52	0	1	1835235	360	2.9	45	1	1														
boss				90	40	257	1	1	5633825	385	3.5	7000	1	1														
				91	40	12	1	1	1918679	370	3.6	46	1	1														
				92	40	48	2	1	1961019	375	3.5	46	1	1														
				93	40	14	1	1	2003631	380	3.5	47	1	1														
				94	40	9	2	1	2047612	385	3.2	47	1	1														
				95	40	33	1	1	2092716	390	2.6	48	1	1														
				96	40	59	1	1	2138490	395	2.4	48	1	1														
				97	40	35	0	1	2184013	400	2.5	49	1	1														
				98	40	11	0	1	2229332	405	2.9	49	1	1														
				99	40	14	0	1	2275323	410	3.1	50	1	1														
boss				100	40	98	1	1	6970371	435	1.0	50	1	1														
																												
				301	0	301	1	1	43484	100	0	1	508	508	508	508												
				302	0	302	1	1	65226	120	0	1	508	508	508	508												
				303	0	303	1	1	104362	140	0	1	508	508	508	508	2											
				304	0	304	1	1	177415	160	0	1	2	2	2	3												
				305	0	305	1	1	301606	180	0	1	2	2	3	3												
				306	0	306	1	1	512730	200	0	1	2	3	3	3												
				307	0	307	1	1	871641	220	0	1	4	3														
				308	0	308	1	1	1481790	240	0	1	4	4														
				309	0	309	1	1	2519043	260	0	1	4	4	4													
				310	0	310	1	1	4534277	280	0	1	508	508	508													
				311	0	311	1	1	8161699	300	0	1	508	508	508	508												
				312	0	312	1	1	14691058	320	0	1	5															
																												
				397	0	397	0	0.75	1	1	3																	
				398	0	398	2	0.75	1	1	3																	
				399	0	399	2	1	9999999	85	0																	