101	1	0	8.5	0	40	0	0	1	286 	5	2.3	1						6	0	-51	0	5001	21	2000	0	30	0	204,219,210
40	1	10	2.5	1	40	1	0	1	540	7	2.5	1	1	1				4	31	0	-25.5	5000	22	2000	0	0	-1	
25	1	5	-6.5	2	40	2	1	1	723	9	3.3	2	1	1				4	41	51	0	194	1	500	8		1	5
35	1	-5	-6.5	3	40	3	0	1	970	11	3.3	2	1	1				4	51	0	25.5	5000	820	1000	8		-1	
	1	-10	2.5	4	40	4	0	1	1566	13	3.0	3	1	1				4	61	-51	0	5001	1100	1000	8		2	2,1,35
				5	40	5	0	1	2003	15	2.5	3	1	1				4	71			-1						3,1,35
				6	40	6	2	1	2633	17	2.5	4	1	1				4	81									7,1,35
				7	40	7	2	1	3267	19	2.9	4	1	1				4	91									8,1,35
				8	40	8	2	1	3890	21	2.5	5	1	1				5	0								-1	
				9	40	9	2	1	4373	23	3.1	5	1	1													4	0,2,35
boss				10	40	200	1	1	38232	55	3.5	500	1	1														
				11	40	11	0	1	5460	27	2.7	6	1	1														9
				12	40	12	1	1	6192	29	3.6	6	1	1														17,50
				13	40	13	0	1	7130	31	2.4	7	1	1														
				14	40	14	2	1	8159	33	3.1	7	1	1														13
				15	40	15	1	1	9144	35	2.5	8	1	1														10,100,0
				16	40	16	1	1	11131	37	3.6	8	1	1														2,35
				17	40	17	2	1	12421	39	2.9	9	1	1														
				18	40	18	1	1	14237	41	2.2	9	1	1														9
				19	40	19	0	1	16462	43	3.3	10	1	1														17,50
boss				20	40	201	1	1	94305	75	3.5	800	1	1														
				21	40	21	2	1	25234	49	2.3	11	1	1														13
				22	40	22	0	1	27781	53	2.9	11	1	1														20,100,0
				23	40	23	1	1	30674	57	4.0	12	1	1														2,35
				24	40	24	2	1	1	61	3.5	12	1	1														
				25	40	25	1	1	35236	65	3.1	13	1	1														9
				26	40	26	2	1	38627	69	3.1	13	1	1														17,50
				27	40	27	0	1	39884	73	2.6	14	1	1														
				28	40	28	0	1	41205	77	2.6	14	1	1														13
				29	40	29	1	1	42588	81	3.6	15	1	1														30,100,0
boss				30	40	202	1	1	175864	115	3.5	1000	1	1														2,35
				31	40	31	2	1	48304	89	2.9	16	1	1														
				32	40	32	1	1	50872	93	2.3	16	1	1														9
				33	40	33	0	1	53895	97	2.8	17	1	1														17,50
				34	40	34	2	1	57046	101	3.4	17	1	1														
				35	40	35	2	1	78737	105	3.8	18	1	1														13
				36	40	36	0	1	81039	109	2.6	18	1	1														40,100,0
				37	40	37	1	1	83236	113	2.4	19	1	1														2,35
				38	40	38	2	1	85330	117	2.9	19	1	1														
				39	40	39	2	1	87416	121	3.2	20	1	1														9
boss				40	40	203	1	1	268593	155	3.5	1500	1	1														17,50
				41	40	40	0	1	129807	129	3.7	21	1	1														
				42	40	41	2	1	137015	133	2.5	21	1	1														13
				43	40	42	2	1	143975	137	2.4	22	1	1														50,100,0
				44	40	43	1	1	150812	141	2.9	22	1	1														2,35
				45	40	44	0	1	157572	145	2.2	23	1	1														
				46	40	45	2	1	164150	149	3.8	23	1	1														9
				47	40	46	0	1	170940	153	3.9	24	1	1														17,50
				48	40	47	2	1	177766	157	3.2	24	1	1														
				49	40	48	1	1	1	161	3.9	25	1	1														13
boss				50	40	204	1	1	575502	195	3.5	2000	1	1														60,100,0
				51	40	51	0	1	273294	170	3.8	26	1	1														2,35
				52	40	52	2	1	283163	175	3.1	26	1	1														
				53	40	53	2	1	293362	180	3.6	27	1	1														9
				54	40	54	2	1	304117	185	3.5	27	1	1														17,50
				55	40	55	0	1	315669	190	2.9	28	1	1														
				56	40	56	2	1	328041	195	2.3	28	1	1														13
				57	40	57	0	1	341300	200	3.0	29	1	1														70,100,0
				58	40	58	2	1	355373	205	2.6	29	1	1														2,35
				59	40	59	1	1	370024	210	2.8	30	1	1														
boss				60	40	205	1	1	1156305	245	3.5	3000	1	1														9
				61	40	0	0	1	403684	220	2.6	31	1	1														17,50
				62	40	1	0	1	422618	225	3.3	31	1	1														
				63	40	2	0	1	441322	230	2.5	32	1	1														13
				64	40	3	0	1	458880	235	2.7	32	1	1														80,100,0
				65	40	4	2	1	476115	240	3.2	33	1	1														2,35
				66	40	5	0	1	493281	245	3.0	34	1	1														
				67	40	6	1	1	510040	250	3.9	34	1	1														9
				68	40	7	0	1	526498	255	3.5	35	1	1														17,50
				69	40	8	0	1	542948	260	2.5	35	1	1														
boss				70	40	201	1	1	1679214	295	3.5	4000	1	1														13
				71	40	9	0	1	576813	270	2.5	36	1	1														90,100,0
				72	40	10	2	1	594287	275	4.0	36	1	1														2,35
				73	40	11	1	1	612092	280	3.7	37	1	1														
				74	40	12	2	1	630042	285	2.5	37	1	1														9
				75	40	13	1	1	648298	290	3.3	38	1	1														17,50
				76	40	14	2	1	666660	295	3.0	38	1	1														
				77	40	15	0	1	686212	300	2.7	39	1	1														13
				78	40	16	0	1	706676	305	3.0	39	1	1													-1	
				79	40	17	1	1	728482	310	2.2	40	1	1														
boss				80	40	202	1	1	2254794	345	3.5	5000	1	1														
				81	40	18	1	1	777946	320	2.8	41	1	1														
				82	40	19	1	1	804984	325	2.8	41	1	1														
				83	40	20	2	1	833187	330	4.0	42	1	1														
				84	40	21	0	1	859938	335	3.3	42	1	1														
				85	40	22	0	1	887849	340	2.2	43	1	1														
				86	40	23	2	1	914676	345	4.0	43	1	1														
				87	40	24	0	1	940319	350	2.2	44	1	1														
				88	40	25	1	1	965920	355	2.8	44	1	1														
				89	40	26	0	1	991095	360	2.9	45	1	1														
boss				90	40	203	1	1	3047355	385	3.5	7000	1	1														
				91	40	28	1	1	1039428	370	3.6	46	1	1														
				92	40	29	2	1	1063957	375	3.5	46	1	1														
				93	40	30	1	1	1088651	380	3.5	47	1	1														
				94	40	31	2	1	1114107	385	3.2	47	1	1														
				95	40	32	1	1	1140193	390	2.6	48	1	1														
				96	40	33	1	1	1166665	395	2.4	48	1	1														
				97	40	34	0	1	1193019	400	2.5	49	1	1														
				98	40	35	0	1	1219279	405	2.9	49	1	1														
				99	40	36	0	1	1245924	410	3.1	50	1	1														
boss				100	40	194	1	1	3821283	435	3.5	50	1	1														
																												
				301	0	301	1	1	44444	100	0	1	508	508	508	508												
				302	0	302	1	1	66666	120	0	1	508	508	508	508												
				303	0	303	1	1	106665	140	0	1	508	508	508	508	2											
				304	0	304	1	1	181330	160	0	1	2	2	2	3												
				305	0	305	1	1	308261	180	0	1	2	2	3	3												
				306	0	306	1	1	524043	200	0	1	2	3	3	3												
				307	0	307	1	1	890873	220	0	1	4	3														
				308	0	308	1	1	1514484	240	0	1	4	4														
				309	0	309	1	1	2574622	260	0	1	4	4	4													
				310	0	310	1	1	4634319	280	0	1	508	508	508													
				311	0	311	1	1	8341774	300	0	1	508	508	508	508												
				312	0	312	1	1	15015193	320	0	1	5															
																												
				397	0	397	0	0.75	1	1	3																	
				398	0	398	2	0.75	1	1	3																	
				399	0	399	2	1	9999999	85	0																	