101	1	0	8.5	0	40	0	0	1	333 	5	2.3	1						6	0	-51	0	5001	24	2000	0	40	0	204,219,210
35	1	10	2.5	1	40	1	0	1	637	7	2.5	1	1	1				4	31	0	-25.5	5000	22	2000	0	0	-1	
25	1	5	-6.5	2	40	2	1	1	862	9	3.3	2	1	1				4	41	51	0	194	1	250	8		1	5
35	1	-5	-6.5	3	40	3	0	1	1168	11	3.3	2	1	1				4	51	0	25.5	194	1	1000	8		-1	
	1	-10	2.5	4	40	4	0	1	1904	13	3.0	3	1	1				4	61	-51	0	5000	750	1000	8		2	2,1,40
				5	40	5	0	1	2457	15	2.5	3	1	1				4	71			5001	940	1000	8			3,1,40
				6	40	6	2	1	3255	17	2.5	4	1	1				4	81			-1						7,1,40
				7	40	7	2	1	4069	19	2.9	4	1	1				4	91									8,1,40
				8	40	8	2	1	4879	21	2.5	5	1	1				5	0								-1	
				9	40	9	2	1	5520	23	3.1	5	1	1													4	0,2,50
boss				10	40	200	1	1	48552	55	3.5	500	1	1														
				11	40	11	0	1	7140	27	2.7	6	1	1														10
				12	40	12	1	1	8317	29	3.6	6	1	1														17,70
				13	40	13	0	1	9817	31	2.4	7	1	1														
				14	40	14	2	1	11492	33	3.1	7	1	1														14
				15	40	15	1	1	13153	35	2.5	8	1	1														10,100,0
				16	40	16	1	1	16326	37	3.6	8	1	1														2,50
				17	40	17	2	1	18551	39	2.9	9	1	1														
				18	40	18	1	1	21626	41	2.2	9	1	1														10
				19	40	19	0	1	25405	43	3.3	10	1	1														17,70
boss				20	40	201	1	1	147710	75	3.5	800	1	1														
				21	40	21	2	1	40078	49	2.3	11	1	1														14
				22	40	22	0	1	44706	53	2.9	11	1	1														20,100,0
				23	40	23	1	1	49975	57	4.0	12	1	1														2,50
				24	40	24	2	1	1	61	3.5	12	1	1														
				25	40	25	1	1	58727	65	3.1	13	1	1														10
				26	40	26	2	1	65057	69	3.1	13	1	1														17,70
				27	40	27	0	1	67844	73	2.6	14	1	1														
				28	40	28	0	1	70757	77	2.6	14	1	1														14
				29	40	29	1	1	73792	81	3.6	15	1	1														30,100,0
boss				30	40	202	1	1	307336	115	3.5	1000	1	1														2,50
				31	40	31	2	1	86487	89	2.9	16	1	1														
				32	40	32	1	1	93186	93	2.3	16	1	1														10
				33	40	33	0	1	100867	97	2.8	17	1	1														17,70
				34	40	34	2	1	108953	101	3.4	17	1	1														
				35	40	35	2	1	153293	105	3.8	18	1	1														14
				36	40	36	0	1	160669	109	2.6	18	1	1														40,100,0
				37	40	37	1	1	167895	113	2.4	19	1	1														2,50
				38	40	38	2	1	174962	117	2.9	19	1	1														
				39	40	39	2	1	182057	121	3.2	20	1	1														10
boss				40	40	203	1	1	567762	155	3.5	1500	1	1														17,70
				41	40	40	0	1	273812	129	3.7	21	1	1														
				42	40	41	2	1	288453	133	2.5	21	1	1														14
				43	40	42	2	1	302557	137	2.4	22	1	1														50,100,0
				44	40	43	1	1	316389	141	2.9	22	1	1														2,50
				45	40	44	0	1	330050	145	2.2	23	1	1														
				46	40	45	2	1	343321	149	3.8	23	1	1														10
				47	40	46	0	1	357027	153	3.9	24	1	1														17,70
				48	40	47	2	1	370800	157	3.2	24	1	1														
				49	40	48	1	1	1	161	3.9	25	1	1														14
boss				50	40	204	1	1	1197579	195	3.5	2000	1	1														60,100,0
				51	40	51	0	1	568083	170	3.8	26	1	1														2,50
				52	40	52	2	1	587989	175	3.1	26	1	1														
				53	40	53	2	1	608571	180	3.6	27	1	1														10
				54	40	54	2	1	630296	185	3.5	27	1	1														17,70
				55	40	55	0	1	653658	190	2.9	28	1	1														
				56	40	56	2	1	678707	195	2.3	28	1	1														14
				57	40	57	0	1	705574	200	3.0	29	1	1														70,100,0
				58	40	58	2	1	734104	205	2.6	29	1	1														2,50
				59	40	59	1	1	763812	210	2.8	30	1	1														
boss				60	40	205	1	1	2385204	245	3.5	3000	1	1														10
				61	40	0	0	1	833696	220	2.6	31	1	1														17,70
				62	40	1	0	1	873768	225	3.3	31	1	1														
				63	40	2	0	1	913393	230	2.5	32	1	1														14
				64	40	3	0	1	950669	235	2.7	32	1	1														80,100,0
				65	40	4	2	1	987294	240	3.2	33	1	1														2,50
				66	40	5	0	1	1023792	245	3.0	34	1	1														
				67	40	6	1	1	1059459	250	3.9	34	1	1														10
				68	40	7	0	1	1094512	255	3.5	35	1	1														17,70
				69	40	8	0	1	1129559	260	2.5	35	1	1														
boss				70	40	201	1	1	3495975	295	3.5	4000	1	1														14
				71	40	9	0	1	1201693	270	2.5	36	1	1														90,100,0
				72	40	10	2	1	1238905	275	4.0	36	1	1														2,50
				73	40	11	1	1	1276817	280	3.7	37	1	1														
				74	40	12	2	1	1315042	285	2.5	37	1	1														10
				75	40	13	1	1	1353916	290	3.3	38	1	1														17,70
				76	40	14	2	1	1393021	295	3.0	38	1	1														
				77	40	15	0	1	1434626	300	2.7	39	1	1														14
				78	40	16	0	1	1478147	305	3.0	39	1	1													-1	
				79	40	17	1	1	1524493	310	2.2	40	1	1														
boss				80	40	202	1	1	4720785	345	3.5	5000	1	1														
				81	40	18	1	1	1625089	320	2.8	41	1	1														
				82	40	19	1	1	1677936	325	2.8	41	1	1														
				83	40	20	2	1	1733116	330	4.0	42	1	1														
				84	40	21	0	1	1785189	335	3.3	42	1	1														
				85	40	22	0	1	1839588	340	2.2	43	1	1														
				86	40	23	2	1	1891666	345	4.0	43	1	1														
				87	40	24	0	1	1941233	350	2.2	44	1	1														
				88	40	25	1	1	1990656	355	2.8	44	1	1														
				89	40	26	0	1	2039150	360	2.9	45	1	1														
boss				90	40	203	1	1	6259806	385	3.5	7000	1	1														
				91	40	28	1	1	2131866	370	3.6	46	1	1														
				92	40	29	2	1	2178910	375	3.5	46	1	1														
				93	40	30	1	1	2226257	380	3.5	47	1	1														
				94	40	31	2	1	2275125	385	3.2	47	1	1														
				95	40	32	1	1	2325240	390	2.6	48	1	1														
				96	40	33	1	1	2376100	395	2.4	48	1	1														
				97	40	34	0	1	2426682	400	2.5	49	1	1														
				98	40	35	0	1	2477036	405	2.9	49	1	1														
				99	40	36	0	1	2528137	410	3.1	50	1	1														
boss				100	40	194	1	1	7744857	435	3.5	50	1	1														
																												
				301	0	301	1	1	62121	100	0	1	508	508	508	508												
				302	0	302	1	1	93181	120	0	1	508	508	508	508												
				303	0	303	1	1	149089	140	0	1	508	508	508	508	2											
				304	0	304	1	1	253451	160	0	1	2	2	2	3												
				305	0	305	1	1	430866	180	0	1	2	2	3	3												
				306	0	306	1	1	732472	200	0	1	2	3	3	3												
				307	0	307	1	1	1245202	220	0	1	4	3														
				308	0	308	1	1	2116843	240	0	1	4	4														
				309	0	309	1	1	3598633	260	0	1	4	4	4													
				310	0	310	1	1	6477539	280	0	1	508	508	508													
				311	0	311	1	1	11659570	300	0	1	508	508	508	508												
				312	0	312	1	1	20987226	320	0	1	5															
																												
				397	0	397	0	0.75	1	1	3																	
				398	0	398	2	0.75	1	1	3																	
				399	0	399	2	1	9999999	85	0																	