101	1	0	8.5	0	45	0	0	1	293	3	2.1	1						6	0	-51	0	5001	19	2000	0	20	0	141,125,112
45	1	10	2.5	1	45	1	0	1	595	4	2.3	1	1	1				4	31	0	-25.5	5000	20	2000	0	0	-1	
25	1	5	-6.5	2	45	2	1	1	1055	5	3.1	2	1	1				4	41	51	0	1502	1	200	1		1	5
35	1	-5	-6.5	3	45	3	0	1	1680	7	3.1	2	1	1				4	51	0	25.5	503	2	300	3		-1	
	1	-10	2.5	4	45	4	0	1	2477	8	2.8	3	1	1				4	61	-51	0	1502	1	200	3		2	9,1,-95
				5	45	5	0	1	3451	9	2.3	3	1	1				4	71			503	2	300	5			5,1,-95
				6	45	6	2	1	4610	11	2.3	4	1	1				4	81			1502	1	200	5			7,1,50
				7	45	7	2	1	5961	12	2.7	4	1	1				4	91			10501	1	200	5		-1	
				8	45	8	2	1	7509	13	2.3	5	1	1				5	0			1502	1	200	8		3	0,0,20,9,295
				9	45	9	2	1	9263	14	2.9	5	1	1								5005	10	1000	8			21,0,50,9,295
boss				10	45	200	1	1	56150	35	3	500	1	1								287	1	400	8			41,0,100,0,295
				11	45	11	0	1	13417	17	2.5	6	1	1								10501	1	200	8		-1	
				12	45	12	1	1	15832	18	3.4	6	1	1								5000	750	1000	8			
				13	45	13	0	1	18482	20	2.2	7	1	1								5001	950	1000	8			
				14	45	14	2	1	21376	21	2.9	7	1	1								-1						
				15	45	15	1	1	24522	22	2.3	8	1	1														
				16	45	16	1	1	27929	24	3.4	8	1	1														
				17	45	17	2	1	31604	25	2.7	9	1	1														
				18	45	18	1	1	35556	26	2	9	1	1														
				19	45	19	0	1	39796	27	3.1	10	1	1														
boss				20	45	201	1	1	221650	48	3	800	1	1														
				21	45	21	2	1	49170	31	2.1	11	1	1														
				22	45	22	0	1	54325	34	2.7	11	1	1														
				23	45	23	1	1	59804	37	3.8	12	1	1														
				24	45	24	2	1	1	39	3.3	12	1	1														
				25	45	25	1	1	71775	42	2.9	13	1	1														
				26	45	26	2	1	78288	44	2.9	13	1	1														
				27	45	27	0	1	85167	47	2.4	14	1	1														
				28	45	28	0	1	92422	50	2.4	14	1	1														
				29	45	29	1	1	100065	52	3.4	15	1	1														
boss				30	45	202	1	1	540535	74	3	1000	1	1														
				31	45	31	2	1	116560	57	2.7	16	1	1														
				32	45	32	1	1	125435	60	2.1	16	1	1														
				33	45	33	0	1	134744	63	2.6	17	1	1														
				34	45	34	2	1	144501	65	3.2	17	1	1														
				35	45	35	2	1	154717	68	3.6	18	1	1														
				36	45	36	0	1	165405	70	2.4	18	1	1														
				37	45	37	1	1	176579	73	2.2	19	1	1														
				38	45	38	2	1	188252	76	2.7	19	1	1														
				39	45	39	2	1	195311	78	3	20	1	1														
boss				40	45	203	1	1	991565	100	3	1500	1	1														
				41	45	40	0	1	201859	83	3.5	21	1	1														
				42	45	41	2	1	205967	86	2.3	21	1	1														
				43	45	42	2	1	210659	89	2.2	22	1	1														
				44	45	43	1	1	215954	91	2.7	22	1	1														
				45	45	44	0	1	221875	94	2	23	1	1														
				46	45	45	2	1	228442	96	3.6	23	1	1														
				47	45	46	0	1	235678	99	3.7	24	1	1														
				48	45	47	2	1	243605	102	3	24	1	1														
				49	45	48	1	1	1	104	3.7	25	1	1														
boss				50	45	204	1	1	1406395	126	3	2000	1	1														
				51	45	51	0	1	285985	110	3.6	26	1	1														
				52	45	52	2	1	291339	113	2.9	26	1	1														
				53	45	53	2	1	297361	117	3.4	27	1	1														
				54	45	54	2	1	304075	120	3.3	27	1	1														
				55	45	55	0	1	311505	123	2.7	28	1	1														
				56	45	56	2	1	319676	126	2.1	28	1	1														
				57	45	57	0	1	328612	130	2.8	29	1	1														
				58	45	58	2	1	338339	133	2.4	29	1	1														
				59	45	59	1	1	377171	136	2.6	30	1	1														
boss				60	45	205	1	1	1912750	159	3	3000	1	1														
				61	45	0	0	1	388643	143	2.4	31	1	1														
				62	45	1	0	1	395477	146	3.1	31	1	1														
				63	45	2	0	1	403076	149	2.3	32	1	1														
				64	45	3	0	1	411468	152	2.5	32	1	1														
				65	45	4	2	1	420678	156	3	33	1	1														
				66	45	5	0	1	430735	159	2.8	34	1	1														
				67	45	6	1	1	441666	162	3.7	34	1	1														
				68	45	7	0	1	453501	165	3.3	35	1	1														
				69	45	8	0	1	498301	169	2.3	35	1	1														
boss				70	45	201	1	1	2526105	191	3	4000	1	1														
				71	45	9	0	1	512960	175	2.3	36	1	1														
				72	45	10	2	1	521545	178	3.8	36	1	1														
				73	45	11	1	1	531005	182	3.5	37	1	1														
				74	45	12	2	1	541370	185	2.3	37	1	1														
				75	45	13	1	1	552670	188	3.1	38	1	1														
				76	45	14	2	1	564936	191	2.8	38	1	1														
				77	45	15	0	1	578199	195	2.5	39	1	1														
				78	45	16	0	1	592491	198	2.8	39	1	1														
				79	45	17	1	1	644074	201	2	40	1	1														
boss				80	45	202	1	1	3264100	224	3	5000	1	1														
				81	45	18	1	1	662501	208	2.6	41	1	1														
				82	45	19	1	1	673148	211	2.6	41	1	1														
				83	45	20	2	1	684793	214	3.8	42	1	1														
				84	45	21	0	1	697470	217	3.1	42	1	1														
				85	45	22	0	1	711212	221	2	43	1	1														
				86	45	23	2	1	726055	224	3.8	43	1	1														
				87	45	24	0	1	742032	227	2	44	1	1														
				88	45	25	1	1	759181	230	2.6	44	1	1														
				89	45	26	0	1	818461	234	2.7	45	1	1														
boss				90	45	203	1	1	4188210	250	3	7000	1	1														
				91	45	28	1	1	857158	240	3.4	46	1	1														
				92	45	29	2	1	877015	243	3.3	46	1	1														
				93	45	30	1	1	897217	247	3.3	47	1	1														
				94	45	31	2	1	917770	250	3	47	1	1														
				95	45	32	1	1	938678	253	2.4	48	1	1														
				96	45	33	1	1	959946	256	2.2	48	1	1														
				97	45	34	0	1	981580	260	2.3	49	1	1														
				98	45	35	0	1	1003585	263	2.7	49	1	1														
				99	45	36	0	1	1025967	266	2.9	50	1	1														
boss				100	45	287	1	1	5129835	282	3	50	1	1														
																												
				301	0	301	1	1	99541	100	0	1	508	508	508	508												
				302	0	302	1	1	149315	120	0	1	508	508	508	508												
				303	0	303	1	1	238905	140	0	1	508	508	508	508	2											
				304	0	304	1	1	406146	160	0	1	2	2	2	3												
				305	0	305	1	1	690449	180	0	1	2	2	3	3												
				306	0	306	1	1	1173772	200	0	1	2	3	3	3												
				307	0	307	1	1	1995415	220	0	1	4	3														
				308	0	308	1	1	3392211	240	0	1	4	4														
				309	0	309	1	1	5766761	260	0	1	4	4	4													
				310	0	310	1	1	9803502	280	0	1	508	508	508													
				311	0	311	1	1	17646308	300	0	1	508	508	508	508												
				312	0	312	1	1	31763358	320	0	1	5															
																												
				397	0	397	0	0.75	1	1	3																	
				398	0	398	2	0.75	1	1	3																	
				399	0	399	2	1	9999999	85	0																	
				399	0	399	2	1	9999999	85	0														