101	1	0	8.5	0	45	0	0	1	760 	3	2.1	1						6	0	-51	0	5001	25	2000	0	40	0	141,125,112
35	1	10	2.5	1	45	1	0	1	1554	5	2.3	1	1	1				4	31	0	-25.5	5000	23	2000	0	0	-1	
25	1	5	-6.5	2	45	2	1	1	2781	6	3.1	2	1	1				4	41	51	0	1502	1	300	1		1	5
35	1	-5	-6.5	3	45	3	0	1	4468	8	3.1	2	1	1				4	51	0	25.5	503	2	300	3		-1	
	1	-10	2.5	4	45	4	0	1	6644	9	2.8	3	1	1				4	61	-51	0	1502	1	300	3		2	9,1,-95
				5	45	5	0	1	9340	11	2.3	3	1	1				4	71			503	2	300	5			5,1,-95
				6	45	6	2	1	12587	12	2.3	4	1	1				4	81			1502	1	300	5			7,1,150
				7	45	7	2	1	16417	14	2.7	4	1	1				4	91			10501	1	300	5		-1	
				8	45	8	2	1	20865	15	2.3	5	1	1				5	0			1502	1	300	8		3	0,0,20,9,295
				9	45	9	2	1	25965	17	2.9	5	1	1								5005	15	1000	8			21,0,50,9,295
boss				10	45	200	1	1	158780	41	3.0	500	1	1								287	1	500	8			41,0,100,9,295
				11	45	11	0	1	38274	20	2.5	6	1	1								287	1	1000	8		-1	
				12	45	12	1	1	45560	21	3.4	6	1	1								10501	1	300	8			
				13	45	13	0	1	53655	23	2.2	7	1	1								5000	980	1000	8			
				14	45	14	2	1	62602	24	2.9	7	1	1								5001	1250	1000	8			
				15	45	15	1	1	72445	26	2.3	8	1	1								-1						
				16	45	16	1	1	83232	27	3.4	8	1	1														
				17	45	17	2	1	95009	29	2.7	9	1	1														
				18	45	18	1	1	107826	30	2.0	9	1	1														
				19	45	19	0	1	121736	32	3.1	10	1	1														
boss				20	45	201	1	1	683965	56	3.0	800	1	1														
				21	45	21	2	1	153050	36	2.1	11	1	1														
				22	45	22	0	1	170567	39	2.7	11	1	1														
				23	45	23	1	1	189404	42	3.8	12	1	1														
				24	45	24	2	1	1	45	3.3	12	1	1														
				25	45	25	1	1	231284	48	2.9	13	1	1														
				26	45	26	2	1	254458	51	2.9	13	1	1														
				27	45	27	0	1	279214	54	2.4	14	1	1														
				28	45	28	0	1	305621	57	2.4	14	1	1														
				29	45	29	1	1	333755	60	3.4	15	1	1														
boss				30	45	202	1	1	1818455	86	3.0	1000	1	1														
				31	45	31	2	1	395510	66	2.7	16	1	1														
				32	45	32	1	1	429291	69	2.1	16	1	1														
				33	45	33	0	1	465122	72	2.6	17	1	1														
				34	45	34	2	1	503089	75	3.2	17	1	1														
				35	45	35	2	1	543283	78	3.6	18	1	1														
				36	45	36	0	1	585798	81	2.4	18	1	1														
				37	45	37	1	1	630731	84	2.2	19	1	1														
				38	45	38	2	1	678182	87	2.7	19	1	1														
				39	45	39	2	1	709627	90	3.0	20	1	1														
boss				40	45	203	1	1	3633460	116	3.0	1500	1	1														
				41	45	40	0	1	745996	96	3.5	21	1	1														
				42	45	41	2	1	767668	99	2.3	21	1	1														
				43	45	42	2	1	791839	102	2.2	22	1	1														
				44	45	43	1	1	818649	105	2.7	22	1	1														
				45	45	44	0	1	848239	108	2.0	23	1	1														
				46	45	45	2	1	880758	111	3.6	23	1	1														
				47	45	46	0	1	916361	114	3.7	24	1	1														
				48	45	47	2	1	955207	117	3.0	24	1	1														
				49	45	48	1	1	1	120	3.7	25	1	1														
boss				50	45	204	1	1	5608305	146	3.0	2000	1	1														
				51	45	51	0	1	1150060	127	3.6	26	1	1														
				52	45	52	2	1	1181468	131	2.9	26	1	1														
				53	45	53	2	1	1216049	135	3.4	27	1	1														
				54	45	54	2	1	1253973	138	3.3	27	1	1														
				55	45	55	0	1	1295415	142	2.7	28	1	1														
				56	45	56	2	1	1340559	146	2.1	28	1	1														
				57	45	57	0	1	1389595	150	2.8	29	1	1														
				58	45	58	2	1	1442720	153	2.4	29	1	1														
				59	45	59	1	1	1621770	157	2.6	30	1	1														
boss				60	45	205	1	1	8293270	183	3.0	3000	1	1														
				61	45	0	0	1	1699152	165	2.4	31	1	1														
				62	45	1	0	1	1743459	168	3.1	31	1	1														
				63	45	2	0	1	1791777	172	2.3	32	1	1														
				64	45	3	0	1	1844314	176	2.5	32	1	1														
				65	45	4	2	1	1901287	180	3.0	33	1	1														
				66	45	5	0	1	1962920	183	2.8	34	1	1														
				67	45	6	1	1	2029447	187	3.7	34	1	1														
				68	45	7	0	1	2101110	191	3.3	35	1	1														
				69	45	8	0	1	2327803	195	2.3	35	1	1														
boss				70	45	201	1	1	11898335	221	3.0	4000	1	1														
				71	45	9	0	1	2436094	202	2.3	36	1	1														
				72	45	10	2	1	2497325	206	3.8	36	1	1														
				73	45	11	1	1	2563604	210	3.5	37	1	1														
				74	45	12	2	1	2635189	213	2.3	37	1	1														
				75	45	13	1	1	2712346	217	3.1	38	1	1														
				76	45	14	2	1	2795350	221	2.8	38	1	1														
				77	45	15	0	1	2884486	225	2.5	39	1	1														
				78	45	16	0	1	2980050	228	2.8	39	1	1														
				79	45	17	1	1	3266066	232	2.0	40	1	1														
boss				80	45	202	1	1	16687690	258	3.0	5000	1															
				81	45	18	1	1	3414749	240	2.6	41	1	1														
				82	45	19	1	1	3497993	243	2.6	41	1	1														
				83	45	20	2	1	3587571	247	3.8	42	1	1														
				84	45	21	0	1	3683797	251	3.1	42	1	1														
				85	45	22	0	1	3786997	255	2.0	43	1	1														
				86	45	23	2	1	3897507	258	3.8	43	1	1														
				87	45	24	0	1	4015676	262	2.0	44	1	1														
				88	45	25	1	1	4141866	266	2.6	44	1	1														
				89	45	26	0	1	4501528	270	2.7	45	1	1														
boss				90	45	203	1	1	23221915	288	3.0	7000	1	1														
				91	45	28	1	1	4791095	277	3.4	46	1	1														
				92	45	29	2	1	4941758	281	3.3	46	1	1														
				93	45	30	1	1	5096465	285	3.3	47	1	1														
				94	45	31	2	1	5255315	288	3.0	47	1	1														
				95	45	32	1	1	5418406	292	2.4	48	1	1														
				96	45	33	1	1	5585839	296	2.2	48	1	1														
				97	45	34	0	1	5757719	300	2.3	49	1	1														
				98	45	35	0	1	5934150	303	2.7	49	1	1														
				99	45	36	0	1	6115241	307	2.9	50	1	1														
boss				100	45	287	1	1	30576205	326	3.0	50	1	1														
																												
				301	0	301	1	1	147064	100	0	1	508	508	508	508												
				302	0	302	1	1	220601	120	0	1	508	508	508	508												
				303	0	303	1	1	352968	140	0	1	508	508	508	508	2											
				304	0	304	1	1	600058	160	0	1	2	2	2	3												
				305	0	305	1	1	1020103	180	0	1	2	2	3	3												
				306	0	306	1	1	1734193	200	0	1	2	3	3	3												
				307	0	307	1	1	2948133	220	0	1	4	3														
				308	0	308	1	1	5011836	240	0	1	4	4														
				309	0	309	1	1	8520128	260	0	1	4	4	4													
				310	0	310	1	1	14484233	280	0	1	508	508	508													
				311	0	311	1	1	26071629	300	0	1	508	508	508	508												
				312	0	312	1	1	46928941	320	0	1	5															
																												
				397	0	397	0	0.75	1	1	3																	
				398	0	398	2	0.75	1	1	3																	
				399	0	399	2	1	9999999	85	0																	