101	1	0	8.5	0	45	0	1	1	306 	3	2.1	1						6	0	-51	0	5001	24	2000	0	30	0	122,124,125
55	1	10	2.5	1	45	1	1	1	588	4	2.3	1	1	1				4	31	0	-25.5	5000	22	2000	0	0	-1	
25	1	5	-6.5	2	45	2	1	1	785	6	3.1	2	1	1				4	41	51	0	1502	1	500	1		2	7,2,100
35	1	-5	-6.5	3	45	3	1	1	1069	7	3.1	2	1	1				4	51	0	25.5	106	1	500	3			5,2,-70
	1	-10	2.5	4	45	4	1	1	1719	9	2.8	3	1	1				4	61	-51	0	1502	1	500	3		-1	
				5	45	5	1	1	2192	10	2.3	3	1	1				4	71			106	1	500	5			
				6	45	6	1	1	2920	11	2.3	4	1	1				4	81			1503	1	500	5			
				7	45	7	1	1	3611	13	2.7	4	1	1				4	91			10501	1	500	5			
				8	45	8	1	1	4352	14	2.3	5	1	1				5	0			1503	1	900	8			
				9	45	9	1	1	4875	16	2.9	5	1	1								5005	12	1000	8			
boss				10	45	200	1	1	42480	38	3.0	500	1	1								294	1	700	8			
				11	45	11	1	1	6216	18	2.5	6	1	1								10502	1	800	8			
				12	45	12	1	1	7208	20	3.4	6	1	1								5000	960	1000	8			
				13	45	13	1	1	8473	21	2.2	7	1	1								5001	1200	1000	8			
				14	45	14	1	1	9883	23	2.9	7	1	1								-1						
				15	45	15	1	1	11274	24	2.3	8	1	1														
				16	45	16	1	1	13951	25	3.4	8	1	1														
				17	45	17	1	1	15809	27	2.7	9	1	1														
				18	45	18	1	1	18382	28	2.0	9	1	1														
				19	45	19	1	1	21543	30	3.1	10	1	1														
boss				20	45	201	1	1	124985	52	3.0	800	1	1														
				21	45	21	1	1	33844	34	2.1	11	1	1														
				22	45	22	1	1	37680	37	2.7	11	1	1														
				23	45	23	1	1	42048	39	3.8	12	1	1														
				24	45	24	1	1	1	42	3.3	12	1	1														
				25	45	25	1	1	49255	45	2.9	13	1	1														
				26	45	26	1	1	54485	48	2.9	13	1	1														
				27	45	27	1	1	56742	51	2.4	14	1	1														
				28	45	28	1	1	59103	53	2.4	14	1	1														
				29	45	29	1	1	61563	56	3.4	15	1	1														
boss				30	45	202	1	1	256116	80	3.0	1000	1	1														
				31	45	31	1	1	72226	62	2.7	16	1	1														
				32	45	32	1	1	77496	65	2.1	16	1	1														
				33	45	33	1	1	84056	67	2.6	17	1	1														
				34	45	34	1	1	90451	70	3.2	17	1	1														
				35	45	35	1	1	126815	73	3.6	18	1	1														
				36	45	36	1	1	133186	76	2.4	18	1	1														
				37	45	37	1	1	138726	79	2.2	19	1	1														
				38	45	38	1	1	144846	81	2.7	19	1	1														
				39	45	39	1	1	150269	84	3.0	20	1	1														
boss				40	45	203	1	1	467310	108	3.0	1500	1	1														
				41	45	40	1	1	225134	90	3.5	21	1	1														
				42	45	41	1	1	236943	93	2.3	21	1	1														
				43	45	42	1	1	248305	95	2.2	22	1	1														
				44	45	43	1	1	259438	98	2.7	22	1	1														
				45	45	44	1	1	270428	101	2.0	23	1	1														
				46	45	45	1	1	281094	104	3.6	23	1	1														
				47	45	46	1	1	292113	107	3.7	24	1	1														
				48	45	47	1	1	303184	109	3.0	24	1	1														
				49	45	48	1	1	1	112	3.7	25	1	1														
boss				50	45	204	1	1	978021	136	3.0	2000	1	1														
				51	45	51	1	1	463678	119	3.6	26	1	1														
				52	45	52	1	1	479675	122	2.9	26	1	1														
				53	45	53	1	1	496219	126	3.4	27	1	1														
				54	45	54	1	1	513691	129	3.3	27	1	1														
				55	45	55	1	1	532492	133	2.7	28	1	1														
				56	45	56	1	1	552661	136	2.1	28	1	1														
				57	45	57	1	1	574304	140	2.8	29	1	1														
				58	45	58	1	1	597294	143	2.4	29	1	1														
				59	45	59	1	1	621233	147	2.6	30	1	1														
boss				60	45	205	1	1	1939275	171	3.0	3000	1	1														
				61	45	0	1	1	684508	154	2.4	31	1	1														
				62	45	1	1	1	723979	157	3.1	31	1	1														
				63	45	2	1	1	763271	161	2.3	32	1	1														
				64	45	3	1	1	800755	164	2.5	32	1	1														
				65	45	4	1	1	837816	168	3.0	33	1	1														
				66	45	5	1	1	874876	171	2.8	34	1	1														
				67	45	6	1	1	911322	175	3.7	34	1	1														
				68	45	7	1	1	947319	178	3.3	35	1	1														
				69	45	8	1	1	983381	182	2.3	35	1	1														
boss				70	45	201	1	1	3060411	206	3.0	4000	1	1														
				71	45	9	1	1	1088253	189	2.3	36	1	1														
				72	45	10	1	1	1157602	192	3.8	36	1	1														
				73	45	11	1	1	1228084	196	3.5	37	1	1														
				74	45	12	1	1	1299340	199	2.3	37	1	1														
				75	45	13	1	1	1371704	203	3.1	38	1	1														
				76	45	14	1	1	1444761	206	2.8	38	1	1														
				77	45	15	1	1	1520904	210	2.5	39	1	1														
				78	45	16	1	1	1599639	213	2.8	39	1	1														
				79	45	17	1	1	1682058	217	2.0	40	1	1														
boss				80	45	202	1	1	5304672	241	3.0	5000	1	1														
				81	45	18	1	1	1908169	224	2.6	41	1	1														
				82	45	19	1	1	2051755	227	2.6	41	1	1														
				83	45	20	1	1	2200304	231	3.8	42	1	1														
				84	45	21	1	1	2346870	234	3.1	42	1	1														
				85	45	22	1	1	2498315	238	2.0	43	1	1														
				86	45	23	1	1	2648333	241	3.8	43	1	1														
				87	45	24	1	1	2796273	245	2.0	44	1	1														
				88	45	25	1	1	2945267	248	2.6	44	1	1														
				89	45	26	1	1	3094040	252	2.7	45	1	1														
boss				90	45	203	1	1	9726777	269	3.0	7000	1	1														
				91	45	28	1	1	3387938	259	3.4	46	1	1														
				92	45	29	1	1	3537252	262	3.3	46	1	1														
				93	45	30	1	1	3687895	266	3.3	47	1	1														
				94	45	31	1	1	3841912	269	3.0	47	1	1														
				95	45	32	1	1	3998941	273	2.4	48	1	1														
				96	45	33	1	1	4158175	276	2.2	48	1	1														
				97	45	34	1	1	4317820	280	2.3	49	1	1														
				98	45	35	1	1	4477905	283	2.7	49	1	1														
				99	45	36	1	1	4640159	287	2.9	50	1	1														
boss				100	45	294	1	1	14422971	304	3.0	50	1	1														
																												
				301	0	301	1	1	48779	100	0	1	508	508	508	508												
				302	0	302	1	1	73168	120	0	1	508	508	508	508												
				303	0	303	1	1	117068	140	0	1	508	508	508	508	2											
				304	0	304	1	1	199015	160	0	1	2	2	2	3												
				305	0	305	1	1	338325	180	0	1	2	2	3	3												
				306	0	306	1	1	575152	200	0	1	2	3	3	3												
				307	0	307	1	1	977758	220	0	1	4	3														
				308	0	308	1	1	1662188	240	0	1	4	4														
				309	0	309	1	1	2825719	260	0	1	4	4	4													
				310	0	310	1	1	5086294	280	0	1	508	508	508													
				311	0	311	1	1	9155329	300	0	1	508	508	508	508												
				312	0	312	1	1	16479592	320	0	1	5															
																												
				397	0	397	0	0.75	1	1	3																	
				398	0	398	2	0.75	1	1	3																	
				399	0	399	2	1	9999999	85	0																	