101	1	0	8.5	0	45	0	1	1	319 	3	2.1	1						6	0	-51	0	5001	25	2000	0	40	0	122,124,125
55	1	10	2.5	1	45	1	1	1	624	5	2.3	1	1	1				4	31	0	-25.5	5000	23	2000	0	0	-1	
25	1	5	-6.5	2	45	2	1	1	862	6	3.1	2	1	1				4	41	51	0	1502	1	800	1		2	7,2,125
35	1	-5	-6.5	3	45	3	1	1	1188	8	3.1	2	1	1				4	51	0	25.5	106	1	500	3			5,2,-90
	1	-10	2.5	4	45	4	1	1	1964	9	2.8	3	1	1				4	61	-51	0	1502	1	500	3		-1	
				5	45	5	1	1	2570	11	2.3	3	1	1				4	71			106	1	800	5			
				6	45	6	1	1	3447	12	2.3	4	1	1				4	81			1503	1	500	5			
				7	45	7	1	1	4356	14	2.7	4	1	1				4	91			10502	1	500	5			
				8	45	8	1	1	5275	15	2.3	5	1	1				5	0			1503	1	1000	8			
				9	45	9	1	1	6022	17	2.9	5	1	1								5005	15	1000	8			
boss				10	45	200	1	1	26704	41	3.0	500	1	1								294	1	500	8			
				11	45	11	1	1	7728	20	2.5	6	1	1								294	1	1000	8			
				12	45	12	1	1	8872	21	3.4	6	1	1								10503	1	500	8			
				13	45	13	1	1	10333	23	2.2	7	1	1								5000	980	1000	8			
				14	45	14	1	1	11951	24	2.9	7	1	1								5001	1250	1000	8			
				15	45	15	1	1	13528	26	2.3	8	1	1								-1						
				16	45	16	1	1	16622	27	3.4	8	1	1														
				17	45	17	1	1	18712	29	2.7	9	1	1														
				18	45	18	1	1	21626	30	2.0	9	1	1														
				19	45	19	1	1	25201	32	3.1	10	1	1														
boss				20	45	201	1	1	72720	56	3.0	800	1	1														
				21	45	21	1	1	39188	36	2.1	11	1	1														
				22	45	22	1	1	43428	39	2.7	11	1	1														
				23	45	23	1	1	48252	42	3.8	12	1	1														
				24	45	24	1	1	0	45	3.3	12	1	1														
				25	45	25	1	1	56075	48	2.9	13	1	1														
				26	45	26	1	1	61804	51	2.9	13	1	1														
				27	45	27	1	1	64144	54	2.4	14	1	1														
				28	45	28	1	1	66595	57	2.4	14	1	1														
				29	45	29	1	1	69153	60	3.4	15	1	1														
boss				30	45	202	1	1	143424	86	3.0	1000	1	1														
				31	45	31	1	1	80966	66	2.7	16	1	1														
				32	45	32	1	1	87480	69	2.1	16	1	1														
				33	45	33	1	1	94934	72	2.6	17	1	1														
				34	45	34	1	1	102785	75	3.2	17	1	1														
				35	45	35	1	1	144932	78	3.6	18	1	1														
				36	45	36	1	1	152212	81	2.4	18	1	1														
				37	45	37	1	1	159357	84	2.2	19	1	1														
				38	45	38	1	1	166357	87	2.7	19	1	1														
				39	45	39	1	1	173388	90	3.0	20	1	1														
boss				40	45	203	1	1	270778	116	3.0	1500	1	1														
				41	45	40	1	1	259614	96	3.5	21	1	1														
				42	45	41	1	1	271969	99	2.3	21	1	1														
				43	45	42	1	1	283777	102	2.2	22	1	1														
				44	45	43	1	1	295296	105	2.7	22	1	1														
				45	45	44	1	1	306627	108	2.0	23	1	1														
				46	45	45	1	1	317572	111	3.6	23	1	1														
				47	45	46	1	1	328897	114	3.7	24	1	1														
				48	45	47	1	1	340264	117	3.0	24	1	1														
				49	45	48	1	1	0	120	3.7	25	1	1														
boss				50	45	204	1	1	545563	146	3.0	2000	1	1														
				51	45	51	1	1	515880	127	3.6	26	1	1														
				52	45	52	1	1	532284	131	2.9	26	1	1														
				53	45	53	1	1	549274	135	3.4	27	1	1														
				54	45	54	1	1	567266	138	3.3	27	1	1														
				55	45	55	1	1	586698	142	2.7	28	1	1														
				56	45	56	1	1	607604	146	2.1	28	1	1														
				57	45	57	1	1	630093	150	2.8	29	1	1														
				58	45	58	1	1	654020	153	2.4	29	1	1														
				59	45	59	1	1	678944	157	2.6	30	1	1														
boss				60	45	205	1	1	1057786	183	3.0	3000	1	1														
				61	45	0	1	1	744183	165	2.4	31	1	1														
				62	45	1	1	1	784608	168	3.1	31	1	1														
				63	45	2	1	1	824767	172	2.3	32	1	1														
				64	45	3	1	1	862914	176	2.5	32	1	1														
				65	45	4	1	1	900560	180	3.0	33	1	1														
				66	45	5	1	1	938165	183	2.8	34	1	1														
				67	45	6	1	1	975077	187	3.7	34	1	1														
				68	45	7	1	1	1011480	191	3.3	35	1	1														
				69	45	8	1	1	1047927	195	2.3	35	1	1														
boss				70	45	201	1	1	1627634	221	3.0	4000	1	1														
				71	45	9	1	1	1169007	202	2.3	36	1	1														
				72	45	10	1	1	1254391	206	3.8	36	1	1														
				73	45	11	1	1	1341145	210	3.5	37	1	1														
				74	45	12	1	1	1428881	213	2.3	37	1	1														
				75	45	13	1	1	1517967	217	3.1	38	1	1														
				76	45	14	1	1	1607944	221	2.8	38	1	1														
				77	45	15	1	1	1701486	225	2.5	39	1	1														
				78	45	16	1	1	1798075	228	2.8	39	1	1														
				79	45	17	1	1	1898966	232	2.0	40	1	1														
boss				80	45	202	1	1	3006394	258	3.0	5000	1	1														
				81	45	18	1	1	2180765	240	2.6	41	1	1														
				82	45	19	1	1	2361854	243	2.6	41	1	1														
				83	45	20	1	1	2549080	247	3.8	42	1	1														
				84	45	21	1	1	2734387	251	3.1	42	1	1														
				85	45	22	1	1	2925716	255	2.0	43	1	1														
				86	45	23	1	1	3115685	258	3.8	43	1	1														
				87	45	24	1	1	3303462	262	2.0	44	1	1														
				88	45	25	1	1	3492697	266	2.6	44	1	1														
				89	45	26	1	1	3681861	270	2.7	45	1	1														
boss				90	45	203	1	1	5805799	288	3.0	7000	1	1														
				91	45	28	1	1	4056307	277	3.4	46	1	1														
				92	45	29	1	1	4246557	281	3.3	46	1	1														
				93	45	30	1	1	4438528	285	3.3	47	1	1														
				94	45	31	1	1	4634688	288	3.0	47	1	1														
				95	45	32	1	1	4834611	292	2.4	48	1	1														
				96	45	33	1	1	5037332	296	2.2	48	1	1														
				97	45	34	1	1	5240676	300	2.3	49	1	1														
				98	45	35	1	1	5444670	303	2.7	49	1	1														
				99	45	36	1	1	5651414	307	2.9	50	1	1														
boss				100	45	294	1	1	8796988	326	3.0	50	1	1														
																												
				301	0	301	1	1	49960	100	0	1	508	508	508	508												
				302	0	302	1	1	74941	120	0	1	508	508	508	508												
				303	0	303	1	1	119905	140	0	1	508	508	508	508	2											
				304	0	304	1	1	203838	160	0	1	2	2	2	3												
				305	0	305	1	1	346524	180	0	1	2	2	3	3												
				306	0	306	1	1	589090	200	0	1	2	3	3	3												
				307	0	307	1	1	1001453	220	0	1	4	3														
				308	0	308	1	1	1702470	240	0	1	4	4														
				309	0	309	1	1	2894199	260	0	1	4	4	4													
				310	0	310	1	1	5209558	280	0	1	508	508	508													
				311	0	311	1	1	9377204	300	0	1	508	508	508	508												
				312	0	312	1	1	16878967	320	0	1	5															
																												
				397	0	397	0	0.75	1	1	3																	
				398	0	398	2	0.75	1	1	3																	
				399	0	399	2	1	9999999	85	0																	