101	1	0	8.5	0	40	5	0	1	266 	0	2.9	5						6	0	-51	0	5000	15	2000	0	20
55	1	10	2.5	1	40	61	2	1	505	4	3.2	5	1	1				4	25	0	-25.5	5001	13	2000	0	0
25	1	5	-6.5	2	40	44	2	1	680	8	3.8	6	1	1				4	50	51	0	1501	1	500	1	
35	1	-5	-6.5	3	40	24	1	1	909	12	2.7	6	1	1				4	67	0	25.5	5005	1	500	1	
	1	-10	2.5	4	40	8	0	1	1472	16	3.7	7	1	1				4	84	-51	0	5005	1	500	1	
				5	40	5	1	1	1884	20	3.1	7	1	1				5	0			1501	1	500	2	
				6	40	15	2	1	2482	24	3.5	8	1	1				11	0			1502	1	400	2	
				7	40	1	0	1	3081	28	3.5	8	1	1				12	0			5005	2	500	2	
				8	40	61	1	1	3671	32	4.0	9	1	1				13	0			1501	1	500	3	
				9	40	27	1	1	4128	36	2.7	9	1	1								1502	1	400	3	
boss				10	45	201	1	1	18585	90	3.8	1000	1	1								5005	2	500	3	
				11	40	14	0	1	5163	44	3.1	10	1	1								5005	2	500	3	
				12	40	48	1	1	5855	48	3.3	10	1	1								1502	1	400	4	
				13	40	3	1	1	6745	52	3.6	11	1	1								502	1	500	5	
				14	40	57	1	1	7721	56	3.8	11	1	1								502	1	500	5	
				15	40	51	0	1	8657	60	3.6	12	1	1								503	1	500	5	
				16	40	34	0	1	10540	64	2.5	12	1	1								503	1	500	5	
				17	40	12	1	1	11763	68	3.0	13	1	1								503	1	500	5	
				18	40	45	0	1	13486	72	2.8	13	1	1								503	1	500	5	
				19	40	18	2	1	15598	76	2.6	14	1	1								504	1	500	5	
boss				20	45	202	1	1	98831	130	3.7	2000	1	1								1501	1	2000	5	
				21	40	64	0	1	23929	84	3.9	15	1	1								1501	1	2000	5	
				22	40	32	1	1	26346	88	3.1	15	1	1								1502	1	2000	5	
				23	40	31	0	1	29098	92	2.7	16	1	1								5000	603	2000	5	
				24	40	38	0	1	1	96	2.7	16	1	1								5001	207	2000	5	
				25	40	3	2	1	33435	100	3.4	17	1	1								5005	14	2000	5	
				26	40	24	2	1	36658	104	3.6	17	1	1								5005	5	2000	6	
				27	40	4	1	1	37855	108	2.9	18	1	1								5001	150	2000	7	
				28	40	3	1	1	39115	112	2.9	18	1	1								1503	1	2000	8	
				29	40	60	1	1	40429	116	3.3	19	1	1								-1				
boss				30	45	202	1	1	215733	170	3.4	3000	1	1												
				31	40	52	1	1	45864	124	3.3	20	1	1												
				32	40	62	2	1	48306	128	2.8	20	1	1												
				33	40	62	2	1	51185	132	2.6	21	1	1												
				34	40	31	0	1	54182	136	2.7	21	1	1												
				35	40	46	0	1	74792	140	3.4	22	1	1												
				36	40	59	0	1	76987	144	2.9	22	1	1												
				37	40	33	1	1	79080	148	2.9	23	1	1												
				38	40	54	1	1	81077	152	3.2	23	1	1												
				39	40	10	0	1	83065	156	3.8	24	1	1												
boss				40	45	202	1	1	508835	210	4.0	4000	1	1												
				41	40	12	0	1	120469	164	2.7	25	1	1												
				42	40	59	2	1	124345	168	3.2	25	1	1												
				43	40	37	0	1	127921	172	4.0	26	1	1												
				44	40	59	1	1	131321	176	3.4	26	1	1												
				45	40	20	2	1	134608	180	2.7	27	1	1												
				46	40	58	1	1	137693	184	2.9	27	1	1												
				47	40	15	1	1	140917	188	3.0	28	1	1												
				48	40	32	1	1	144131	192	2.9	28	1	1												
				49	40	22	2	1	1	196	3.7	29	1	1												
boss				50	45	205	1	1	897618	250	3.5	5000	1	1												
				51	40	19	2	1	211703	204	3.4	30	1	1												
				52	40	37	1	1	216311	208	3.4	30	1	1												
				53	40	0	0	1	221117	212	2.9	31	1	1												
				54	40	52	2	1	226292	216	3.2	31	1	1												
				55	40	49	1	1	232003	220	3.2	32	1	1												
				56	40	5	2	1	238238	224	3.6	32	1	1												
				57	40	10	1	1	245042	228	4.0	33	1	1												
				58	40	0	0	1	252338	232	3.8	33	1	1												
				59	40	52	2	1	259955	236	3.6	34	1	1												
boss				60	45	201	1	1	1606361	290	3.0	6000	1	1												
				61	40	7	2	1	275504	244	2.5	35	1	1												
				62	40	6	0	1	283311	248	2.8	35	1	1												
				63	40	50	2	1	290813	252	3.7	36	1	1												
				64	40	41	0	1	297441	256	2.8	36	1	1												
				65	40	1	1	1	303759	260	3.6	37	1	1												
				66	40	65	0	1	309950	264	3.4	38	1	1												
				67	40	23	1	1	315816	268	2.8	38	1	1												
				68	40	48	2	1	321427	272	4.0	39	1	1												
				69	40	12	0	1	326979	276	4.0	39	1	1												
boss				70	45	205	1	1	2330288	330	3.4	7000	1	1												
				71	40	3	2	1	338812	284	3.1	40	1	1												
				72	40	53	2	1	345119	288	2.6	40	1	1												
				73	40	23	2	1	351567	292	3.9	41	1	1												
				74	40	51	0	1	358040	296	2.7	41	1	1												
				75	40	44	0	1	364641	300	2.8	42	1	1												
				76	40	8	2	1	371247	304	2.7	42	1	1												
				77	40	4	1	1	378463	308	2.6	43	1	1												
				78	40	26	2	1	386116	312	3.9	43	1	1												
				79	40	34	1	1	394433	316	3.0	44	1	1												
boss				80	45	204	1	1	2844744	370	4.0	8000	1	1												
				81	40	63	0	1	418350	324	3.4	45	1	1												
				82	40	37	1	1	433718	328	3.7	45	1	1												
				83	40	18	1	1	449736	332	3.1	46	1	1												
				84	40	33	2	1	464989	336	3.4	46	1	1												
				85	40	62	1	1	480886	340	3.2	47	1	1												
				86	40	56	2	1	496216	344	3.0	47	1	1												
				87	40	20	2	1	510921	348	2.6	48	1	1												
				88	40	13	2	1	525610	352	4.0	48	1	1												
				89	40	20	2	1	540082	356	3.3	49	1	1												
boss				90	45	203	1	1	3878146	410	3.2	9000	1	1												
				91	40	44	2	1	567959	364	3.4	50	1	1												
				92	40	15	2	1	582105	368	3.4	50	1	1												
				93	40	63	0	1	596354	372	3.7	51	1	1												
				94	40	34	2	1	611024	376	3.9	51	1	1												
				95	40	55	0	1	626053	380	4.0	52	1	1												
				96	40	10	1	1	641303	384	2.6	52	1	1												
				97	40	9	1	1	656490	388	3.5	53	1	1												
				98	40	65	0	1	671643	392	3.6	53	1	1												
				99	40	27	1	1	687008	396	2.8	54	1	1												
boss				100	45	333	1	1	4916620	446	2.7	10000	1	1												
																										
				301	0	301	1	1	59984	50	0	1	508	508	508	508										
				302	0	302	1	1	92975	70	0	1	508	508	508	508										
				303	0	303	1	1	144111	100	0	1	508	508	508	508										
				304	0	304	1	1	223371	150	0	1	2	2	2	3										
				305	0	305	1	1	346225	170	0	1	2	2	3	3										
				306	0	306	1	1	536649	200	0	1	2	3	3	3										
				307	0	307	1	1	831806	220	0	1	4													
				308	0	308	1	1	1289300	240	0	1	4	4												
				309	0	309	1	1	1998414	270	0	1	4	4	4											
				310	0	310	1	1	3097542	300	0	1	5													
																										
				397	0	397	0	0.75	1	1	3															
				398	0	398	2	0.75	1	1	3															
				399	0	399	2	1	9999999	85	0															