101	1	0	8.5	0	40	5	0	1	337 	0	2.9	5						6	0	-51	0	5000	23	2000	0	24
55	1	10	2.5	1	40	61	2	1	665	4	3.2	5	1	1				4	25	0	-25.5	5001	21	2000	0	0
25	1	5	-6.5	2	40	44	2	1	909	8	3.8	6	1	1				4	50	51	0	5005	1	420	1	
35	1	-5	-6.5	3	40	24	1	1	1244	12	2.7	6	1	1				4	67	0	25.5	1501	1	420	1	
	1	-10	2.5	4	40	8	0	1	2046	16	3.7	7	1	1				4	84	-51	0	5005	2	420	2	
				5	40	5	1	1	2660	20	3.1	7	1	1				5	0			5005	2	420	2	
				6	40	15	2	1	3549	24	3.5	8	1	1				11	0			1501	1	420	2	
				7	40	1	0	1	4467	28	3.5	8	1	1				12	0			1502	1	420	2	
				8	40	61	1	1	5398	32	4.0	9	1	1				13	0			5005	2	420	3	
				9	40	27	1	1	6150	36	2.7	9	1	1								5005	2	420	3	
boss				10	45	201	1	1	28060	90	3.8	1000	1	1								1501	1	420	3	
				11	40	14	0	1	7893	44	3.1	10	1	1								1502	1	420	3	
				12	40	48	1	1	9073	48	3.3	10	1	1								5005	2	420	4	
				13	40	3	1	1	10593	52	3.6	11	1	1								5005	2	420	4	
				14	40	57	1	1	12279	56	3.8	11	1	1								1501	1	2000	4	
				15	40	51	0	1	14109	60	3.6	12	1	1								1502	1	420	4	
				16	40	34	0	1	17611	64	2.5	12	1	1								1503	1	320	4	
				17	40	12	1	1	20143	68	3.0	13	1	1								5000	1245	2000	5	
				18	40	45	0	1	23661	72	2.8	13	1	1								5001	2479	2000	5	
				19	40	18	2	1	28043	76	2.6	14	1	1								5005	25	2000	5	
boss				20	45	202	1	1	182017	130	3.7	2000	1	1								5005	2	420	5	
				21	40	64	0	1	45148	84	3.9	15	1	1								1501	1	2000	5	
				22	40	32	1	1	50928	88	3.1	15	1	1								1502	1	2000	5	
				23	40	31	0	1	57606	92	2.7	16	1	1								1502	1	2000	5	
				24	40	38	0	1	1	96	2.7	16	1	1								1503	1	2000	5	
				25	40	3	2	1	69449	100	3.4	17	1	1								504	1	420	5	
				26	40	24	2	1	77986	104	3.6	17	1	1								504	1	420	5	
				27	40	4	1	1	82476	108	2.9	18	1	1								505	1	420	5	
				28	40	3	1	1	87274	112	2.9	18	1	1								505	1	420	5	
				29	40	60	1	1	92385	116	3.3	19	1	1								505	1	420	5	
boss				30	45	202	1	1	504829	170	3.4	3000	1	1								505	1	420	5	
				31	40	52	1	1	109899	124	3.3	20	1	1								506	1	320	5	
				32	40	62	2	1	118524	128	2.8	20	1	1								506	1	320	5	
				33	40	62	2	1	128577	132	2.6	21	1	1								1503	1	2000	6	
				34	40	31	0	1	139362	136	2.7	21	1	1								506	1	2000	7	
				35	40	46	0	1	196959	140	3.4	22	1	1								5005	10	2000	8	
				36	40	59	0	1	207560	144	2.9	22	1	1								-1				
				37	40	33	1	1	218259	148	2.9	23	1	1												
				38	40	54	1	1	229074	152	3.2	23	1	1												
				39	40	10	0	1	240248	156	3.8	24	1	1												
boss				40	45	202	1	1	1524069	210	4.0	4000	1	1												
				41	40	12	0	1	373598	164	2.7	25	1	1												
				42	40	59	2	1	399249	168	3.2	25	1	1												
				43	40	37	0	1	425219	172	4.0	26	1	1												
				44	40	59	1	1	451909	176	3.4	26	1	1												
				45	40	20	2	1	479503	180	2.7	27	1	1												
				46	40	58	1	1	507720	184	2.9	27	1	1												
				47	40	15	1	1	537816	188	3.0	28	1	1												
				48	40	32	1	1	569328	192	2.9	28	1	1												
				49	40	22	2	1	1	196	3.7	29	1	1												
boss				50	45	205	1	1	3797776	250	3.5	5000	1	1												
				51	40	19	2	1	926865	204	3.4	30	1	1												
				52	40	37	1	1	979945	208	3.4	30	1	1												
				53	40	0	0	1	1036518	212	2.9	31	1	1												
				54	40	52	2	1	1097537	216	3.2	31	1	1												
				55	40	49	1	1	1164154	220	3.2	32	1	1												
				56	40	5	2	1	1236750	224	3.6	32	1	1												
				57	40	10	1	1	1315942	228	4.0	33	1	1												
				58	40	0	0	1	1401807	232	3.8	33	1	1												
				59	40	52	2	1	1493772	236	3.6	34	1	1												
boss				60	45	201	1	1	9547624	290	3.0	6000	1	1												
				61	40	7	2	1	1693600	244	2.5	35	1	1												
				62	40	6	0	1	1801189	248	2.8	35	1	1												
				63	40	50	2	1	1912075	252	3.7	36	1	1												
				64	40	41	0	1	2022371	256	2.8	36	1	1												
				65	40	1	1	1	2135696	260	3.6	37	1	1												
				66	40	65	0	1	2253346	264	3.4	38	1	1												
				67	40	23	1	1	2373948	268	2.8	38	1	1												
				68	40	48	2	1	2498058	272	4.0	39	1	1												
				69	40	12	0	1	2627250	276	4.0	39	1	1												
boss				70	45	205	1	1	19347691	330	3.4	7000	1	1												
				71	40	3	2	1	2906728	284	3.1	40	1	1												
				72	40	53	2	1	3057933	288	2.6	40	1	1												
				73	40	23	2	1	3217126	292	3.9	41	1	1												
				74	40	51	0	1	3383641	296	2.7	41	1	1												
				75	40	44	0	1	3558694	300	2.8	42	1	1												
				76	40	8	2	1	3741559	304	2.7	42	1	1												
				77	40	4	1	1	3938799	308	2.6	43	1	1												
				78	40	26	2	1	4149510	312	3.9	43	1	1												
				79	40	34	1	1	4377005	316	3.0	44	1	1												
boss				80	45	204	1	1	32620439	370	4.0	8000	1	1												
				81	40	63	0	1	4956888	324	3.4	45	1	1												
				82	40	37	1	1	5313573	328	3.7	45	1	1												
				83	40	18	1	1	5696521	332	3.1	46	1	1												
				84	40	33	2	1	6088833	336	3.4	46	1	1												
				85	40	62	1	1	6509366	340	3.2	47	1	1												
				86	40	56	2	1	6942869	344	3.0	47	1	1												
				87	40	20	2	1	7388571	348	2.6	48	1	1												
				88	40	13	2	1	7855635	352	4.0	48	1	1												
				89	40	20	2	1	8341687	356	3.3	49	1	1												
boss				90	45	203	1	1	61896577	410	3.2	9000	1	1												
				91	40	44	2	1	9366500	364	3.4	50	1	1												
				92	40	15	2	1	9918674	368	3.4	50	1	1												
				93	40	63	0	1	10498295	372	3.7	51	1	1												
				94	40	34	2	1	11112467	376	3.9	51	1	1												
				95	40	55	0	1	11761755	380	4.0	52	1	1												
				96	40	10	1	1	12445351	384	2.6	52	1	1												
				97	40	9	1	1	13159320	388	3.5	53	1	1												
				98	40	65	0	1	13905097	392	3.6	53	1	1												
				99	40	27	1	1	14689511	396	2.8	54	1	1												
boss				100	45	333	1	1	108566306	446	2.7	10000	1	1												
																										
				301	0	301	1	1	145570	50	0	1	508	508	508	508										
				302	0	302	1	1	225634	70	0	1	508	508	508	508										
				303	0	303	1	1	349732	100	0	1	508	508	508	508										
				304	0	304	1	1	542085	150	0	1	2	2	2	3										
				305	0	305	1	1	840232	170	0	1	2	2	3	3										
				306	0	306	1	1	1302359	200	0	1	2	3	3	3										
				307	0	307	1	1	2018656	220	0	1	4													
				308	0	308	1	1	3128917	240	0	1	4	4												
				309	0	309	1	1	4849820	270	0	1	4	4	4											
				310	0	310	1	1	7517221	300	0	1	5													
																										
				397	0	397	0	0.75	1	1	3															
				398	0	398	2	0.75	1	1	3															
				399	0	399	2	1	9999999	85	0															