101	1	0	8.5	0	40	4	0	1	999 	0	2.9	5						6	0	-51	0	5000	13000	1000	1	15
55	1	10	2.5	1	40	10	1	1	1168	4	3.2	5	1	1				5	0	0	-25.5	5001	13000	1000	1	0
25	1	5	-6.5	2	40	59	1	1	1639	9	3.8	6	1	1						51	0	10503	1	300	1	
35	1	-5	-6.5	3	40	58	2	1	2930	13	2.7	6	1	1						0	25.5	10503	1	1000	1	
	1	-10	2.5	4	40	59	2	1	4800	18	3.7	7	1	1						-51	0	5005	90	1000	1	
				5	40	39	2	1	7741	22	3.1	7	1	1								5005	1	500	1	
				6	40	64	1	1	12747	27	3.5	8	1	1								5005	1	500	1	
				7	40	47	1	1	20326	31	3.5	8	1	1								5005	2	500	1	
				8	40	31	0	1	31141	35	4.0	9	1	1								5005	2	500	1	
				9	40	35	2	1	45970	40	2.7	9	1	1								5005	2	500	1	
boss				10	45	204	1	1	262699	94	3.8	1000	1	1								5005	2	500	1	
				11	40	4	0	1	91177	49	3.1	10	1	1								5005	2	500	1	
				12	40	37	0	1	123446	53	3.3	10	1	1								5005	2	500	1	
				13	40	55	0	1	163484	57	3.6	11	1	1								5005	2	500	1	
				14	40	64	1	1	212364	62	3.8	11	1	1								5005	2	500	1	
				15	40	1	0	1	271158	66	3.6	12	1	1								5005	2	500	1	
				16	40	34	1	1	340980	71	2.5	12	1	1								5005	2	500	1	
				17	40	64	0	1	422971	75	3.0	13	1	1								5005	2	500	1	
				18	40	54	0	1	518263	80	2.8	13	1	1								5005	2	500	1	
				19	40	20	1	1	628022	84	2.6	14	1	1								5005	2	500	1	
boss				20	45	250	1	1	3766974	138	3.7	2000	1	1								5005	2	500	1	
				21	40	19	2	1	895549	93	3.9	15	1	1								5005	2	500	1	
				22	40	56	2	1	1055618	97	3.1	15	1	1								5005	2	500	1	
				23	40	23	2	1	1234752	102	2.7	16	1	1								5005	2	500	1	
				24	40	10	1	1	1434046	106	2.7	16	1	1								5005	2	500	1	
				25	40	27	2	1	1654602	111	3.4	17	1	1								5005	2	500	1	
				26	40	26	0	1	1897486	115	3.6	17	1	1								5005	2	500	1	
				27	40	16	1	1	2163730	119	2.9	18	1	1								5005	2	500	1	
				28	40	48	2	1	2454320	124	2.9	18	1	1								5005	2	500	1	
				29	40	46	2	1	2770234	128	3.3	19	1	1								5005	2	500	1	
boss				30	45	201	1	1	18674193	183	3.4	3000	1	1								5005	2	500	1	
				31	40	18	2	1	3481592	137	3.3	20	1	1								-1				
				32	40	17	2	1	3878722	141	2.8	20	1	1												
				33	40	64	0	1	4304508	146	2.6	21	1	1												
				34	40	52	1	1	4759645	150	2.7	21	1	1												
				35	40	13	0	1	5244790	155	3.4	22	1	1												
				36	40	45	1	1	5760500	159	2.9	22	1	1												
				37	40	28	2	1	6307280	164	2.9	23	1	1												
				38	40	4	2	1	6885578	168	3.2	23	1	1												
				39	40	12	1	1	7495756	172	3.8	24	1	1												
boss				40	45	254	1	1	56966725	227	4.0	4000	1	1												
				41	40	44	1	1	8812836	181	2.7	25	1	1												
				42	40	27	0	1	9520081	186	3.2	25	1	1												
				43	40	33	2	1	10259901	190	4.0	26	1	1												
				44	40	23	1	1	11032276	194	3.4	26	1	1												
				45	40	26	1	1	11837076	199	2.7	27	1	1												
				46	40	6	1	1	12674133	203	2.9	27	1	1												
				47	40	30	1	1	13543141	208	3.0	28	1	1												
				48	40	51	2	1	14443752	212	2.9	28	1	1												
				49	40	47	1	1	15375516	217	3.7	29	1	1												
boss				50	45	200	1	1	114365151	271	3.5	5000	1	1												
				51	40	63	1	1	17330214	225	3.4	30	1	1												
				52	40	35	2	1	18351806	230	3.4	30	1	1												
				53	40	41	2	1	19401852	234	2.9	31	1	1												
				54	40	25	0	1	20479455	239	3.2	31	1	1												
				55	40	14	2	1	21583638	243	3.2	32	1	1												
				56	40	14	1	1	22713324	248	3.6	32	1	1												
				57	40	55	0	1	23867344	252	4.0	33	1	1												
				58	40	22	1	1	25044483	256	3.8	33	1	1												
				59	40	63	2	1	26243385	261	3.6	34	1	1												
boss				60	45	250	1	1	192238561	315	3.0	6000	1	1												
				61	40	8	1	1	28700770	270	2.5	35	1	1												
				62	40	58	2	1	29956188	274	2.8	35	1	1												
				63	40	62	1	1	31227212	278	3.7	36	1	1												
				64	40	15	0	1	32512132	283	2.8	36	1	1												
				65	40	26	1	1	33809124	287	3.6	37	1	1												
				66	40	39	0	1	35116297	292	3.4	38	1	1												
				67	40	26	1	1	36431692	296	2.8	38	1	1												
				68	40	30	2	1	37753293	301	4.0	39	1	1												
				69	40	55	2	1	39078976	305	4.0	39	1	1												
boss				70	45	203	1	1	282846194	359	3.4	7000	1	1												
				71	40	64	2	1	41733936	314	3.1	40	1	1												
				72	40	56	0	1	43058698	318	2.6	40	1	1												
				73	40	3	0	1	44378559	323	3.9	41	1	1												
				74	40	9	2	1	45691126	327	2.7	41	1	1												
				75	40	17	0	1	46993966	332	2.8	42	1	1												
				76	40	9	1	1	48284601	336	2.7	42	1	1												
				77	40	60	1	1	49560496	340	2.6	43	1	1												
				78	40	62	1	1	50819113	345	3.9	43	1	1												
				79	40	56	1	1	52057852	349	3.0	44	1	1												
boss				80	45	251	1	1	372918688	404	4.0	8000	1	1												
				81	40	39	1	1	54465222	358	3.4	45	1	1												
				82	40	41	2	1	55628559	362	3.7	45	1	1												
				83	40	13	0	1	56761442	367	3.1	46	1	1												
				84	40	8	2	1	57861189	371	3.4	46	1	1												
				85	40	24	0	1	58925126	376	3.2	47	1	1												
				86	40	27	0	1	59950569	380	3.0	47	1	1												
				87	40	7	2	1	60934843	385	2.6	48	1	1												
				88	40	42	0	1	61875307	389	4.0	48	1	1												
				89	40	58	1	1	62769322	393	3.3	49	1	1												
boss				90	45	203	1	1	445299884	448	3.2	9000	1	1												
				91	40	12	2	1	64407579	402	3.4	50	1	1												
				92	40	5	0	1	65146712	407	3.4	50	1	1												
				93	40	26	0	1	65829172	411	3.7	51	1	1												
				94	40	0	1	1	66452521	415	3.9	51	1	1												
				95	40	63	0	1	67014382	420	4.0	52	1	1												
				96	40	16	1	1	67512433	424	2.6	52	1	1												
				97	40	6	1	1	67944442	429	3.5	53	1	1												
				98	40	53	2	1	68308239	433	3.6	53	1	1												
				99	40	26	1	1	68601758	438	2.8	54	1	1												
boss				100	45	256	1	1	481761168	492	2.7	10000	1	1												
																										
				301	0	301	1	1	418713	100	0	1	508	508	508											
				302	0	302	1	1	649010	120	0	1	508	508	508	508	508									
				303	0	303	1	1	1005970	140	0	1	2	2	2	2	2									
				304	0	304	1	1	1559263	160	0	1	3	3	3	3	3									
				305	0	305	1	1	2416856	180	0	1	4													
				306	0	306	1	1	3746138	200	0	1	4	4												
				307	0	307	1	1	5806513	220	0	1	4	4												
				308	0	308	1	1	9000104	240	0	1	508	508												
				309	0	309	1	1	13950164	260	0	1	508	508	508											
				310	0	310	1	1	21622759	280	0	1	5													
																										
				397	0	397	0	0.75	1	1	3															
				398	0	398	2	0.75	1	1	3															
				399	0	399	2	1	9999999	85	0															