41	1	0	8.5	0	40	5	2	1	38 	0	1.8	5						6	0	-33.95	-8.08	5000	9	2000	0	9
55	1	10	2.5	1	40	7	1	1	76	1	1.1	5	1	1				4	12	-5.66	-22.22	5001	7	2000	0	5
25	1	5	-6.5	2	40	3	2	1	106	2	1.2	6	1	1				4	25	16.98	-10.91	5005	1	500	1	
35	1	-5	-6.5	3	40	11	2	1	147	3	1.8	6	1	1				4	34	22.64	-13.74	5005	1	500	2	
	1	-10	2.5	4	40	5	2	1	246	4	1.9	7	1	1				4	42	50.93	0.4	1501	1	500	2	
				5	40	5	1	1	330	5	2.2	7	1	1				5	0	11.32	20.19	5005	2	500	3	
				6	40	2	2	1	459	6	1.1	8	1	1				11	0	0	14.54	1501	1	500	3	
				7	40	9	0	1	601	7	1.8	8	1	1				12	0	-11.32	20.19	5005	2	500	4	
				8	40	4	2	1	748	8	2.3	9	1	1				13	0	-33.95	8.88	1501	1	500	4	
				9	40	9	0	1	874	9	2.0	9	1	1						-16.98	0.4	5000	517	2000	5	
boss				10	45	201	1	1	4092	60	2.1	1000	1	1						-33.95	-8.08	5001	30	2000	5	
				11	40	4	1	1	1173	11	2.2	10	1	1								5005	6	2000	5	
				12	40	6	2	1	1362	12	2.1	10	1	1								1502	1	400	5	
				13	40	11	0	1	1601	13	2.4	11	1	1								501	1	500	5	
				14	40	9	0	1	1863	14	1.3	11	1	1								501	1	500	5	
				15	40	7	2	1	2120	15	1.4	12	1	1								501	1	500	5	
				16	40	0	2	1	2625	16	1.7	12	1	1								502	1	500	5	
				17	40	1	0	1	2966	17	1.4	13	1	1								502	1	500	5	
				18	40	7	0	1	3438	18	1.5	13	1	1								5000	50	2000	6	
				19	40	3	2	1	4022	19	2.3	14	1	1								5001	70	2000	7	
boss				20	45	202	1	1	20728	70	2.5	2000	1	1								1502	1	2000	8	
				21	40	11	1	1	6342	21	1.6	15	1	1								-1				
				22	40	1	1	1	7056	22	1.3	15	1	1												
				23	40	0	1	1	7867	23	2.5	16	1	1												
				24	40	4	1	1	1	24	1.5	16	1	1												
				25	40	11	1	1	9185	25	2.3	17	1	1												
				26	40	9	0	1	9873	26	2.3	17	1	1												
				27	40	1	0	1	9985	27	1.8	18	1	1												
				28	40	6	2	1	10106	28	2.4	18	1	1												
				29	40	0	1	1	10235	29	1.6	19	1	1												
boss				30	45	205	1	1	42804	80	1.2	3000	1	1												
				31	40	6	1	1	11167	31	1.1	20	1	1												
				32	40	4	0	1	11541	32	2.4	20	1	1												
				33	40	4	0	1	12004	33	2.4	21	1	1												
				34	40	4	0	1	12492	34	2.1	21	1	1												
				35	40	6	1	1	16963	35	1.1	22	1	1												
				36	40	3	0	1	17157	36	2.5	22	1	1												
				37	40	3	1	1	17322	37	1.7	23	1	1												
				38	40	1	2	1	17460	38	1.0	23	1	1												
				39	40	7	1	1	17592	39	1.5	24	1	1												
boss				40	45	203	1	1	84560	90	1.1	4000	1	1												
																										
				301	0	301	1	1	15119	50	0	1	508	508	508	508										
				302	0	302	1	1	23434	70	0	1	508	508	508	508										
				303	0	303	1	1	36322	100	0	1	508	508	508	508										
				304	0	304	1	1	56299	150	0	1	2	2	2	3										
				305	0	305	1	1	87263	170	0	1	2	2	3	3										
				306	0	306	1	1	135257	200	0	1	2	3	3	3										
				307	0	307	1	1	209648	220	0	1	4													
				308	0	308	1	1	324954	240	0	1	4	4												
				309	0	309	1	1	503678	270	0	1	4	4	4											
				310	0	310	1	1	780700	300	0	1	5													
																										
				397	0	397	0	0.75	1	1	3															
				398	0	398	2	0.75	1	1	3															
				399	0	399	2	1	9999999	85	0															