101	1	0	8.5	0	40	54	0	1	729 	0	3.5	5						6	0	-51	0	5000	12000	1000	1	15
55	1	10	2.5	1	40	15	0	1	1105	1	3.8	5	1	1				5	0	0	-25.5	5001	10000	1000	1	0
25	1	5	-6.5	2	40	58	1	1	1891	2	4.6	6	1	1						51	0	10503	1	800	1	
35	1	-5	-6.5	3	40	56	1	1	3382	3	3.2	6	1	1						0	25.5	5005	75	1000	1	
	1	-10	2.5	4	40	37	2	1	5970	5	4.4	7	1	1						-51	0	5005	1	500	1	
				5	40	62	1	1	10146	7	3.7	7	1	1								5005	2	500	1	
				6	40	53	2	1	16538	10	4.2	8	1	1								5005	3	500	1	
				7	40	58	2	1	25907	13	4.2	8	1	1								5005	3	500	1	
				8	40	26	1	1	39148	16	4.8	9	1	1								5005	3	500	1	
				9	40	30	1	1	57298	20	3.2	9	1	1								5005	3	500	1	
boss				10	45	202	1	1	1631590	54	4.6	1000	1	1								5005	3	500	1	
				11	40	60	1	1	113331	29	3.7	10	1	1								5005	3	500	1	
				12	40	39	1	1	154110	35	4.0	10	1	1								5005	3	500	1	
				13	40	13	1	1	205619	40	4.3	11	1	1								5005	3	500	1	
				14	40	50	2	1	269742	46	4.6	11	1	1								5005	3	500	1	
				15	40	26	0	1	348552	52	4.3	12	1	1								5005	3	500	1	
				16	40	8	2	1	444318	58	3.0	12	1	1								5005	3	500	1	
				17	40	15	2	1	559492	64	3.6	13	1	1								5005	3	500	1	
				18	40	45	0	1	696688	71	3.4	13	1	1								5005	3	500	1	
				19	40	37	1	1	858757	77	3.1	14	1	1								5005	3	500	1	
boss				20	45	203	1	1	20974396	113	4.4	2000	1	1								5005	3	500	1	
				21	40	35	2	1	1269781	89	4.7	15	1	1								5005	3	500	1	
				22	40	59	1	1	1525348	95	3.7	15	1	1								5005	3	500	1	
				23	40	63	2	1	1818985	101	3.2	16	1	1								5005	3	500	1	
				24	40	33	0	1	2154490	108	3.2	16	1	1								5005	3	500	1	
				25	40	17	2	1	2535783	114	4.1	17	1	1								5005	3	500	1	
				26	40	27	2	1	2966968	120	4.3	17	1	1								5005	3	500	1	
				27	40	1	2	1	3452331	126	3.5	18	1	1								5005	3	500	1	
				28	40	27	2	1	3996310	132	3.5	18	1	1								5005	3	500	1	
				29	40	55	2	1	4603509	139	4.0	19	1	1								5005	3	500	1	
boss				30	45	201	1	1	95015526	175	4.1	3000	1	1								-1				
				31	40	53	2	1	6026550	151	4.0	20	1	1												
				32	40	61	1	1	6852235	157	3.4	20	1	1												
				33	40	13	0	1	7760774	163	3.1	21	1	1												
				34	40	46	1	1	8757338	169	3.2	21	1	1												
				35	40	7	1	1	9847228	176	4.1	22	1	1												
				36	40	32	0	1	11035744	182	3.5	22	1	1												
				37	40	18	2	1	12328291	188	3.5	23	1	1												
				38	40	36	0	1	13730301	194	3.8	23	1	1												
				39	40	6	0	1	15247206	200	4.6	24	1	1												
boss				40	45	200	1	1	236383320	237	4.8	4000	1	1												
				41	40	3	2	1	18647637	213	3.2	25	1	1												
				42	40	60	0	1	20541964	219	3.8	25	1	1												
				43	40	10	2	1	22572910	225	4.8	26	1	1												
				44	40	33	1	1	24745766	231	4.1	26	1	1												
				45	40	4	2	1	27065742	237	3.2	27	1	1												
				46	40	45	1	1	29537958	244	3.5	27	1	1												
				47	40	35	1	1	32167306	250	3.6	28	1	1												
				48	40	60	0	1	34958734	256	3.5	28	1	1												
				49	40	43	2	1	37916815	262	4.4	29	1	1												
boss				50	45	202	1	1	574644066	298	4.2	5000	1	1												
				51	40	52	1	1	44350569	275	4.1	30	1	1												
				52	40	59	0	1	47834458	281	4.1	30	1	1												
				53	40	25	1	1	51501457	287	3.5	31	1	1												
				54	40	10	2	1	55354991	293	3.8	31	1	1												
				55	40	27	1	1	59398142	299	3.8	32	1	1												
				56	40	19	1	1	63633757	305	4.3	32	1	1												
				57	40	22	2	1	68064314	312	4.8	33	1	1												
				58	40	50	0	1	72691783	318	4.6	33	1	1												
				59	40	56	0	1	77517862	324	4.3	34	1	1												
boss				60	45	201	1	1	866709646	360	3.6	6000	1	1												
				61	40	45	0	1	87770267	336	3.0	35	1	1												
				62	40	49	2	1	93197693	342	3.4	35	1	1												
				63	40	6	1	1	98825738	349	4.4	36	1	1												
				64	40	15	2	1	104653830	355	3.4	36	1	1												
				65	40	36	1	1	110680564	361	4.3	37	1	1												
				66	40	44	0	1	116904273	367	4.1	38	1	1												
				67	40	4	1	1	123322431	373	3.4	38	1	1												
				68	40	17	2	1	129932086	380	4.8	39	1	1												
				69	40	27	1	1	136729556	386	4.8	39	1	1												
boss				70	45	202	1	1	1207169439	422	4.1	7000	1	1												
				71	40	18	2	1	150870310	398	3.7	40	1	1												
				72	40	61	1	1	158203095	404	3.1	40	1	1												
				73	40	16	2	1	165702629	410	4.7	41	1	1												
				74	40	7	2	1	173361912	417	3.2	41	1	1												
				75	40	16	2	1	181173229	423	3.4	42	1	1												
				76	40	41	1	1	189128171	429	3.2	42	1	1												
				77	40	54	0	1	197217558	435	3.1	43	1	1												
				78	40	2	0	1	205431455	441	4.7	43	1	1												
				79	40	27	0	1	213759152	448	3.6	44	1	1												
boss				80	45	203	1	1	1866390058	484	4.8	8000	1	1												
				81	40	38	0	1	230709622	460	4.1	45	1	1												
				82	40	1	1	1	239307146	466	4.4	45	1	1												
				83	40	59	0	1	247968210	472	3.7	46	1	1												
				84	40	8	1	1	256678305	478	4.1	46	1	1												
				85	40	37	1	1	265422113	485	3.8	47	1	1												
				86	40	64	2	1	274183730	491	3.6	47	1	1												
				87	40	29	0	1	282946369	497	3.1	48	1	1												
				88	40	39	1	1	291692554	503	4.8	48	1	1												
				89	40	31	1	1	300404128	509	4.0	49	1	1												
boss				90	45	202	1	1	2596122646	546	3.8	9000	1	1												
				91	40	34	1	1	317647214	522	4.1	50	1	1												
				92	40	47	1	1	326138946	528	4.1	50	1	1												
				93	40	49	1	1	334516576	534	4.4	51	1	1												
				94	40	42	1	1	342758655	540	4.7	51	1	1												
				95	40	7	0	1	350843143	546	4.8	52	1	1												
				96	40	25	0	1	358747611	553	3.1	52	1	1												
				97	40	3	0	1	366448897	559	4.2	53	1	1												
				98	40	54	0	1	373923593	565	4.3	53	1	1												
				99	40	29	0	1	381147797	571	3.4	54	1	1												
boss				100	45	204	1	1	3260017382	607	3.2	10000	1	1												
																										
				301	0	301	1	1	3640109	300	0	1	508	508	508											
				302	0	302	1	1	7616933	350	0	1	508	508	508	508	508									
				303	0	303	1	1	14867171	400	0	1	2	2	2	2	2									
				304	0	304	1	1	27788590	450	0	1	3	3	3	3	3									
				305	0	305	1	1	50426057	500	0	1	4													
				306	0	306	1	1	89559057	550	0	1	4	4												
				307	0	307	1	1	156484047	600	0	1	4	4												
				308	0	308	1	1	269935083	650	0	1	508	508												
				309	0	309	1	1	460845874	700	0	1	508	508	508											
				310	0	310	1	1	780102939	750	0	1	5													
																										
				397	0	397	0	0.75	1	1	3															
				398	0	398	2	0.75	1	1	3															
				399	0	399	2	1	9999999	85	0															