101	1	0	8.5	0	40	31	1	1	360 	0	2.9	5						6	0	-51	0	5000	4000	1000	1	15	3	0,0,100,15,100,13,100,9,3
55	1	10	2.5	1	40	11	2	1	583	1	3.2	5	1	1				5	0	0	-25.5	5001	3000	1000	1	0		1,0,100,15,100,13,100,7,245
25	1	5	-6.5	2	40	41	1	1	947	2	3.8	6	1	1						51	0	10501	1	800	1			2,0,100,13,100,14,100,7,240
35	1	-5	-6.5	3	40	44	1	1	1487	3	2.7	6	1	1						0	25.5	10501	1	800	1			3,0,100,15,100,13,100,9,12
	1	-10	2.5	4	40	57	2	1	2231	5	3.7	7	1	1						-51	0	505	5	800	1			4,0,100,15,100,13,100,9,15
				5	40	24	2	1	3234	7	3.1	7	1	1								5005	30	1000	1			5,0,100,15,100,13,100,9,18
				6	40	48	1	1	4534	10	3.5	8	1	1								5005	2	500	1			6,0,100,14,100,15,100,9,21
				7	40	2	2	1	6182	13	3.5	8	1	1								5005	2	500	1			7,0,100,13,100,14,100,7,215
				8	40	9	1	1	8235	16	4.0	9	1	1								5005	2	500	1			8,0,100,13,100,14,100,9,27
				9	40	51	2	1	10769	20	2.7	9	1	1								5005	3	500	1			9,0,100,14,100,15,100,7,205
boss				10	45	202	1	1	276755	74	3.8	1000	1	1								5005	3	500	1			10,0,100,13,100,14,100,9,33
				11	40	17	0	1	17527	29	3.1	10	1	1								5005	3	500	1			11,0,100,13,100,14,100,7,195
				12	40	7	0	1	21927	34	3.3	10	1	1								5005	3	500	1			12,0,100,14,100,15,100,7,190
				13	40	33	0	1	27130	39	3.6	11	1	1								5005	3	500	1			13,0,100,14,100,15,100,9,42
				14	40	39	2	1	33226	45	3.8	11	1	1								5005	3	500	1			14,0,100,15,100,13,100,9,45
				15	40	43	0	1	40352	51	3.6	12	1	1								5005	3	500	1			15,0,100,15,100,13,100,9,48
				16	40	1	1	1	48601	57	2.5	12	1	1								5005	3	500	1			16,0,100,14,100,15,100,9,51
				17	40	2	1	1	58120	63	3.0	13	1	1								-1						17,0,100,14,100,15,100,7,165
				18	40	9	2	1	69042	69	2.8	13	1	1														18,0,100,14,100,15,100,9,57
				19	40	5	2	1	81507	75	2.6	14	1	1														19,0,100,13,100,14,100,9,60
boss				20	45	204	1	1	1914198	131	3.7	2000	1	1														20,0,100,14,100,15,100,9,63
				21	40	21	2	1	111772	87	3.9	15	1	1														21,0,100,13,100,14,100,9,66
				22	40	63	0	1	129912	93	3.1	15	1	1														22,0,100,13,100,14,100,7,140
				23	40	48	0	1	150293	99	2.7	16	1	1														23,0,100,15,100,13,100,9,66
				24	40	4	0	1	173139	105	2.7	16	1	1														24,0,100,13,100,14,100,9,66
				25	40	44	1	1	198638	111	3.4	17	1	1														25,0,100,13,100,14,100,7,125
				26	40	63	1	1	226998	117	3.6	17	1	1														26,0,100,14,100,15,100,9,66
				27	40	64	0	1	258507	123	2.9	18	1	1														27,0,100,14,100,15,100,7,115
				28	40	58	1	1	293335	129	2.9	18	1	1														28,0,100,14,100,15,100,9,66
				29	40	16	0	1	331778	135	3.3	19	1	1														29,0,100,14,100,15,100,7,105
boss				30	45	202	1	1	6733302	191	3.4	3000	1	1														30,0,100,14,100,15,100,9,66
				31	40	9	0	1	420476	147	3.3	20	1	1														31,0,100,15,100,13,100,7,95
				32	40	41	2	1	471293	153	2.8	20	1	1														32,0,100,15,100,13,100,7,90
				33	40	49	1	1	526741	159	2.6	21	1	1														33,0,100,15,100,13,100,7,85
				34	40	36	2	1	587219	165	2.7	21	1	1														34,0,100,15,100,13,100,7,80
				35	40	27	0	1	652921	171	3.4	22	1	1														35,0,100,14,100,15,100,9,66
				36	40	18	2	1	724194	177	2.9	22	1	1														36,0,100,13,100,14,100,7,70
				37	40	1	0	1	801354	183	2.9	23	1	1														37,0,100,13,100,14,100,7,65
				38	40	15	0	1	884696	189	3.2	23	1	1														38,0,100,13,100,14,100,9,66
				39	40	20	1	1	974543	195	3.8	24	1	1														39,0,100,15,100,13,100,9,66
boss				40	45	202	1	1	14996900	251	4.0	4000	1	1														40,0,100,14,100,15,100,7,50
				41	40	40	0	1	1175020	207	2.7	25	1	1														41,0,100,15,100,13,100,7,45
				42	40	57	0	1	1286274	213	3.2	25	1	1														42,0,100,13,100,14,100,7,40
				43	40	28	0	1	1405369	219	4.0	26	1	1														43,0,100,14,100,15,100,7,35
				44	40	48	0	1	1532567	225	3.4	26	1	1														44,0,100,13,100,14,100,7,30
				45	40	48	0	1	1668213	231	2.7	27	1	1														45,0,100,14,100,15,100,7,25
				46	40	47	2	1	1812601	237	2.9	27	1	1														46,0,100,14,100,15,100,7,25
				47	40	58	2	1	1966087	243	3.0	28	1	1														47,0,100,13,100,14,100,7,25
				48	40	19	2	1	2128938	249	2.9	28	1	1														48,0,100,15,100,13,100,7,25
				49	40	37	1	1	2301505	255	3.7	29	1	1														49,0,100,15,100,13,100,9,66
boss				50	45	202	1	1	34777338	311	3.5	5000	1	1														50,0,100,15,100,13,100,9,66
				51	40	45	1	1	2676936	267	3.4	30	1	1														51,0,100,14,100,15,100,9,66
				52	40	16	0	1	2880339	273	3.4	30	1	1														52,0,100,15,100,13,100,7,25
				53	40	55	0	1	3094585	279	2.9	31	1	1														53,0,100,15,100,13,100,9,66
				54	40	15	0	1	3319936	285	3.2	31	1	1														54,0,100,14,100,15,100,9,66
				55	40	15	0	1	3556600	291	3.2	32	1	1														55,0,100,14,100,15,100,7,25
				56	40	60	2	1	3804806	297	3.6	32	1	1														56,0,100,13,100,14,100,7,25
				57	40	30	0	1	4064802	303	4.0	33	1	1														57,0,100,14,100,15,100,9,66
				58	40	59	2	1	4336712	309	3.8	33	1	1														58,0,100,15,100,13,100,9,66
				59	40	14	2	1	4620825	312	3.6	34	1	1														59,0,100,14,100,15,100,9,66
boss				60	45	201	1	1	51630738	365	3.0	6000	1	1														60,0,100,15,100,13,100,9,66
				61	40	14	0	1	5225981	318	2.5	35	1	1														61,0,100,15,100,13,100,9,66
				62	40	21	0	1	5547242	321	2.8	35	1	1														62,0,100,13,100,14,100,9,66
				63	40	52	1	1	5881088	324	3.7	36	1	1														63,0,100,15,100,13,100,9,66
				64	40	25	0	1	6227540	327	2.8	36	1	1														64,0,100,14,100,15,100,7,25
				65	40	30	2	1	6586693	330	3.6	37	1	1														65,0,100,15,100,13,100,7,25
				66	40	18	1	1	6958410	333	3.4	38	1	1														66,0,100,13,100,14,100,9,66
				67	40	45	0	1	7342817	336	2.8	38	1	1														67,0,100,13,100,14,100,7,25
				68	40	63	0	1	7739721	339	4.0	39	1	1														68,0,100,13,100,14,100,7,25
				69	40	61	0	1	8148967	342	4.0	39	1	1														69,0,100,14,100,15,100,7,25
boss				70	45	202	1	1	89990364	395	3.4	7000	1	1														70,0,100,14,100,15,100,9,66
				71	40	6	1	1	9004098	348	3.1	40	1	1														71,0,100,13,100,14,100,9,66
				72	40	61	1	1	9449565	351	2.6	40	1	1														72,0,100,14,100,15,100,7,25
				73	40	36	1	1	9906566	354	3.9	41	1	1														73,0,100,13,100,14,100,7,25
				74	40	52	0	1	10374804	357	2.7	41	1	1														74,0,100,14,100,15,100,7,25
				75	40	37	0	1	10854009	360	2.8	42	1	1														75,0,100,14,100,15,100,9,66
				76	40	12	2	1	11343685	363	2.7	42	1	1														76,0,100,15,100,13,100,7,25
				77	40	42	2	1	11843347	366	2.6	43	1	1														77,0,100,13,100,14,100,9,66
				78	40	42	0	1	12352689	369	3.9	43	1	1														78,0,100,15,100,13,100,9,66
				79	40	59	1	1	12870994	372	3.0	44	1	1														79,0,100,15,100,13,100,7,25
boss				80	45	201	1	1	140677213	425	4.0	8000	1	1														80,0,100,15,100,13,100,7,25
				81	40	46	1	1	13932402	378	3.4	45	1	1														81,0,100,15,100,13,100,9,66
				82	40	39	0	1	14473984	381	3.7	45	1	1														82,0,100,15,100,13,100,7,25
				83	40	40	1	1	15022167	384	3.1	46	1	1														83,0,100,15,100,13,100,7,25
				84	40	17	1	1	15575798	387	3.4	46	1	1														84,0,100,13,100,14,100,7,25
				85	40	48	2	1	16134210	390	3.2	47	1	1														85,0,100,13,100,14,100,9,66
				86	40	9	1	1	16696402	393	3.0	47	1	1														86,0,100,15,100,13,100,7,25
				87	40	58	0	1	17261646	396	2.6	48	1	1														87,0,100,15,100,13,100,9,66
				88	40	55	1	1	17828701	399	4.0	48	1	1														88,0,100,15,100,13,100,7,25
				89	40	31	1	1	18396599	402	3.3	49	1	1														89,0,100,13,100,14,100,7,25
boss				90	45	204	1	1	199125224	455	3.2	9000	1	1														90,0,100,13,100,14,100,9,66
				91	40	46	2	1	19530629	408	3.4	50	1	1														91,0,100,14,100,15,100,7,25
				92	40	55	1	1	20094289	411	3.4	50	1	1														92,0,100,13,100,14,100,9,66
				93	40	17	0	1	20654165	414	3.7	51	1	1														93,0,100,14,100,15,100,7,25
				94	40	9	0	1	21208909	417	3.9	51	1	1														94,0,100,13,100,14,100,9,66
				95	40	52	0	1	21757108	420	4.0	52	1	1														95,0,100,14,100,15,100,9,66
				96	40	60	0	1	22297456	423	2.6	52	1	1														96,0,100,13,100,14,100,7,25
				97	40	53	1	1	22828434	426	3.5	53	1	1														97,0,100,15,100,13,100,9,66
				98	40	9	0	1	23348640	429	3.6	53	1	1														98,0,100,14,100,15,100,9,66
				99	40	4	2	1	23856492	432	2.8	54	1	1														99,0,100,15,100,13,100,7,25
boss				100	45	204	1	1	255680955	485	2.7	10000	1	1													-1	
																												
				301	0	301	1	1	1468401	300	0	1	508	508	508													
				302	0	302	1	1	2503630	350	0	1	508	508	508	508	508											
				303	0	303	1	1	4233428	400	0	1	2	2	2	2	2											
				304	0	304	1	1	7108665	450	0	1	3	3	3	3	3											
				305	0	305	1	1	11865998	500	0	1	4															
				306	0	306	1	1	19706049	550	0	1	4	4														
				307	0	307	1	1	32580692	600	0	1	4	4														
				308	0	308	1	1	53656326	650	0	1	508	508														
				309	0	309	1	1	88059490	700	0	1	508	508	508													
				310	0	310	1	1	144075132	750	0	1	5															
																												
				397	0	397	0	0.75	1	1	3																	
				398	0	398	2	0.75	1	1	3																	
				399	0	399	2	1	9999999	85	0																	