5	101	0	8.5	0	15	0	0	1	20	0	1.8	5						6	0	-39.61	0.4	5000	5	2000	0	6
55	103	10	2.5	1	15	1	0	1	28	0	2.2	5	106	106				5	0	0	-19.39	5001	5	2000	0	1
5		5	-6.5	2	15	2	1	1	39	0	2.3	6	103							39.61	0.4	1501	1	1000	1	
35		-5	-6.5	3	15	3	1	1	54	0	1.5	6	161	152						0	20.19	5000	50	1000	1	
		-10	2.5	4	15	4	1	1	75	0	2	7	1	1						-39.61	0.4	5001	50	1000	1	
																						5005	1	1000	1	
				301	0	301	1	1	10000	50	0	1	508	508								-1				
																										
				397	0	397	0	0.75	1	1	3															
				398	0	398	2	0.75	1	1	3															
				399	0	399	2	1	9999999	85	0															