101	1	0	8.5	0	20	36	2	1	661 	0	2.9	7						6	0	-51	0	5000	10000	1000	1	15	1	5
30	1	10	2.5	1	20	27	2	1	1136	1	2.6	7	1	1	1			5	0	0	-25.5	5001	10000	1000	1	0	-1	
25	1	5	-6.5	2	20	1	0	1	1983	2	3.7	9	1	1	1					51	0	10502	1	1000	1		2	20,5,-30
35	1	-5	-6.5	3	20	45	2	1	3373	3	2.7	9	1	1						0	25.5	10503	1	500	1		-1	
	1	-10	2.5	4	20	62	0	1	5508	5	3.5	10	1	1	1					-51	0	506	5	800	1		3	0,0,100,15,100,13,100,7,250
				5	20	49	0	1	8700	7	3.9	10	1	1	1							5005	120	1000	1			1,0,100,13,100,14,100,8,110
				6	20	6	1	1	12662	10	3.9	12	1	1								5005	1	500	1			2,0,100,15,100,13,100,7,240
				7	20	42	2	1	17966	13	3.2	12	1	1	1							5005	3	500	1			3,0,100,14,100,15,100,9,78
				8	20	53	1	1	24918	16	3.4	13	1	1	1							5005	6	500	1			4,0,100,13,100,14,100,7,230
				9	20	15	2	1	33916	20	3.0	13	1	1								5005	10	500	1			5,0,100,13,100,14,100,7,225
boss				10	45	202	1	1	907404	75	3.7	1500	1	1	1							-1						6,0,100,15,100,13,100,7,220
				11	20	46	0	1	59754	29	3.0	15	1	1	1													7,0,100,15,100,13,100,9,138
				12	20	37	2	1	77664	34	2.7	15	1	1														8,0,100,15,100,13,100,9,153
				13	20	6	1	1	99684	39	4.0	16	1	1	1													9,0,100,15,100,13,100,9,168
				14	20	16	0	1	126506	45	3.9	16	1	1	1													10,0,100,14,100,15,100,9,183
				15	20	18	1	1	158932	52	3.4	18	1	1														11,0,100,13,100,14,100,8,210
				16	20	48	0	1	197748	58	3.2	18	1	1	1													12,0,100,13,100,14,100,9,213
				17	20	48	2	1	243920	64	3.5	19	1	1	1													13,0,100,14,100,15,100,8,230
				18	20	42	2	1	298398	70	3.3	19	1	1														14,0,100,15,100,13,100,9,243
				19	20	46	0	1	362266	76	3.9	21	1	1	1													15,0,100,15,100,13,100,9,258
boss				20	45	204	1	1	8735318	133	2.7	3000	1	1	1													16,0,100,13,100,14,100,8,260
				21	20	4	1	1	523008	88	3.2	22	1	1														17,0,100,15,100,13,100,9,288
				22	20	6	1	1	622476	94	3.9	22	1	1	1													18,0,100,15,100,13,100,7,160
				23	20	7	2	1	736460	100	3.9	24	1	1	1													19,0,100,14,100,15,100,9,318
				24	20	44	2	1	866560	107	3.6	24	1	1														20,0,100,13,100,14,100,8,300
				25	20	47	1	1	1014304	113	2.5	25	1	1	1													21,0,100,13,100,14,100,7,145
				26	20	61	1	1	1181362	119	3.7	25	1	1	1													22,0,100,15,100,13,100,8,320
				27	20	5	0	1	1369564	125	3.8	27	1	1														23,0,100,14,100,15,100,9,378
				28	20	16	1	1	1580654	131	3.5	27	1	1	1													24,0,100,14,100,15,100,7,130
				29	20	31	2	1	1816626	137	3.4	28	1	1	1													25,0,100,15,100,13,100,7,125
boss				30	45	201	1	1	37430266	194	3.8	4500	1	1														26,0,100,13,100,14,100,8,360
				31	20	45	1	1	2371182	149	3.8	30	1	1	1													27,0,100,15,100,13,100,8,370
				32	20	17	0	1	2694006	156	3.2	30	1	1	1													28,0,100,14,100,15,100,7,110
				33	20	29	2	1	3050042	162	3.9	31	1	1														29,0,100,15,100,13,100,9,450
				34	20	8	0	1	3441720	168	2.5	31	1	1	1													30,0,100,14,100,15,100,8,400
				35	20	13	1	1	3871274	174	3.6	33	1	1	1													31,0,100,15,100,13,100,7,100
				36	20	9	0	1	4341084	180	3.8	33	1	1														32,0,100,14,100,15,100,7,100
				37	20	55	0	1	4853714	186	3.7	34	1	1	1													33,0,100,14,100,15,100,9,450
				38	20	41	0	1	5411544	192	3.3	34	1	1	1													34,0,100,15,100,13,100,9,450
				39	20	53	1	1	6017130	198	3.1	36	1	1														35,0,100,13,100,14,100,8,450
boss				40	45	202	1	1	93422828	256	3.9	6000	1	1	1													36,0,100,15,100,13,100,9,450
				41	20	47	2	1	7381874	211	2.9	37	1	1	1													37,0,100,13,100,14,100,8,470
				42	20	2	1	1	8146150	217	2.8	37	1	1														38,0,100,13,100,14,100,7,100
				43	20	34	1	1	8968650	223	4.0	39	1	1	1													39,0,100,13,100,14,100,8,490
				44	20	24	1	1	9851892	229	4.0	39	1	1	1													40,0,100,14,100,15,100,8,500
				45	20	57	0	1	10798502	235	2.7	40	1	1														41,0,100,13,100,14,100,9,450
				46	20	7	2	1	11811058	241	3.2	40	1	1	1													42,0,100,14,100,15,100,9,450
				47	20	4	0	1	12892192	247	2.6	42	1	1	1													43,0,100,13,100,14,100,8,530
				48	20	62	2	1	14044382	253	3.1	42	1	1														44,0,100,14,100,15,100,9,450
				49	20	24	0	1	15270170	260	3.1	43	1	1	1													45,0,100,15,100,13,100,8,550
boss				50	45	200	1	1	232009540	317	2.7	7500	1	1	1													46,0,100,15,100,13,100,7,100
				51	20	1	2	1	17952402	272	3.1	45	1	1														47,0,100,14,100,15,100,7,100
				52	20	52	0	1	19413408	278	2.6	45	1	1	1													48,0,100,14,100,15,100,8,580
				53	20	32	1	1	20957412	284	3.3	46	1	1	1													49,0,100,14,100,15,100,9,450
				54	20	61	1	1	22586596	290	4.0	46	1	1														50,0,100,15,100,13,100,9,450
				55	20	32	1	1	24302810	296	3.4	48	1	1	1													51,0,100,15,100,13,100,7,100
				56	20	33	1	1	26108082	302	2.5	48	1	1	1													52,0,100,13,100,14,100,9,450
				57	20	39	1	1	28004214	309	3.2	49	1	1														53,0,100,14,100,15,100,7,100
				58	20	59	2	1	29992720	315	3.9	49	1	1	1													54,0,100,14,100,15,100,9,450
				59	20	8	1	1	32075282	318	3.1	51	1	1	1													55,0,100,14,100,15,100,7,100
boss				60	45	201	1	1	359657630	372	3.7	9000	1	1														56,0,100,13,100,14,100,7,100
				61	20	29	2	1	36527218	324	2.7	52	1	1	1													57,0,100,15,100,13,100,9,450
				62	20	62	2	1	38898594	327	2.6	52	1	1	1													58,0,100,14,100,15,100,9,450
				63	20	35	0	1	41368022	330	3.2	54	1	1														59,0,100,15,100,13,100,7,100
				64	20	13	2	1	43935968	333	3.3	54	1	1	1													60,0,100,15,100,13,100,9,450
				65	20	6	0	1	46602816	336	3.2	55	1	1	1													61,0,100,13,100,14,100,8,710
				66	20	31	0	1	49368428	339	3.6	57	1	1														62,0,100,13,100,14,100,9,450
				67	20	15	2	1	52232872	342	3.0	57	1	1	1													63,0,100,15,100,13,100,9,450
				68	20	30	0	1	55195452	345	3.3	58	1	1	1													64,0,100,15,100,13,100,8,740
				69	20	10	1	1	58255352	348	3.1	58	1	1														65,0,100,14,100,15,100,9,450
boss				70	45	204	1	1	515858550	402	3.8	10500	1	1	1													66,0,100,13,100,14,100,9,450
				71	20	37	2	1	64663080	354	2.5	60	1	1	1													67,0,100,13,100,14,100,9,450
				72	20	5	1	1	68007868	358	3.5	60	1	1														68,0,100,15,100,13,100,8,780
				73	20	29	0	1	71443890	361	3.7	61	1	1	1													69,0,100,15,100,13,100,8,790
				74	20	40	2	1	74968952	364	3.6	61	1	1	1													70,0,100,15,100,13,100,9,450
				75	20	5	0	1	78580470	367	2.8	63	1	1														71,0,100,14,100,15,100,8,810
				76	20	8	1	1	82275284	370	3.0	63	1	1	1													72,0,100,13,100,14,100,8,820
				77	20	40	0	1	86049866	373	2.9	64	1	1	1													73,0,100,15,100,13,100,7,100
				78	20	23	2	1	89900852	376	3.9	64	1	1														74,0,100,15,100,13,100,9,450
				79	20	3	0	1	93823778	379	2.9	66	1	1	1													75,0,100,15,100,13,100,7,100
boss				80	45	203	1	1	821639646	433	3.6	12000	1	1	1													76,0,100,14,100,15,100,9,450
				81	20	35	2	1	101867140	385	2.7	67	1	1														77,0,100,15,100,13,100,8,870
				82	20	35	1	1	105977098	388	3.0	67	1	1	1													78,0,100,13,100,14,100,9,450
				83	20	14	0	1	110138958	391	4.0	69	1	1	1													79,0,100,15,100,13,100,8,890
				84	20	50	0	1	114345918	394	3.3	69	1	1														80,0,100,15,100,13,100,8,900
				85	20	27	1	1	118591558	397	3.8	70	1	1	1													81,0,100,13,100,14,100,8,910
				86	20	29	1	1	122868974	400	3.4	70	1	1	1													82,0,100,15,100,13,100,8,920
				87	20	9	0	1	127171146	403	3.7	72	1	1														83,0,100,15,100,13,100,8,930
				88	20	13	1	1	131489576	406	3.9	72	1	1	1													84,0,100,15,100,13,100,7,100
				89	20	1	0	1	135816430	410	2.6	73	1	1	1													85,0,100,14,100,15,100,9,450
boss				90	45	204	1	1	1177202396	464	3.1	13500	1	1														86,0,100,15,100,13,100,9,450
				91	20	15	2	1	144460658	416	3.6	75	1	1	1													87,0,100,15,100,13,100,8,970
				92	20	30	0	1	148759272	419	3.5	75	1	1	1													88,0,100,15,100,13,100,7,100
				93	20	16	0	1	153029594	422	3.4	76	1	1														89,0,100,15,100,13,100,7,100
				94	20	43	1	1	157261090	425	3.9	76	1	1	1													90,0,100,13,100,14,100,7,100
				95	20	1	0	1	161443202	428	2.9	78	1	1	1													91,0,100,14,100,15,100,8,1010
				96	20	14	2	1	165565244	431	2.7	78	1	1														92,0,100,15,100,13,100,9,450
				97	20	24	1	1	169615622	434	3.8	79	1	1	1													93,0,100,15,100,13,100,9,450
				98	20	21	0	1	173582814	437	3.7	79	1	1	1													94,0,100,13,100,14,100,7,100
				99	20	51	2	1	177455020	440	3.9	81	1	1														95,0,100,13,100,14,100,9,450
boss				100	45	204	1	1	1522249184	494	3.3	15000	1	1														96,0,100,13,100,14,100,7,100
																												97,0,100,14,100,15,100,9,450
				301	0	301	1	1	3502450	300	0	2	508	508	508													98,0,100,15,100,13,100,9,450
				302	0	302	1	1	6948889	350	0	2	508	508	508	508	508											99,0,100,14,100,15,100,9,450
				303	0	303	1	1	13351308	400	0	2	2	2	2	2	2										-1	
				304	0	304	1	1	25042174	450	0	2	3	3	3	3	3											
				305	0	305	1	1	46093312	500	0	2	4															
				306	0	306	1	1	83560988	550	0	2	4	4														
				307	0	307	1	1	142471574	600	0	2	4	4														
				308	0	308	1	1	240906412	650	0	2	508	508														
				309	0	309	1	1	404521940	700	0	2	508	508	508													
				310	0	310	1	1	675240624	750	0	2	5															
																												
				397	0	397	0	0.75	1	1	3																	
				398	0	398	2	0.75	1	1	3																	
				399	0	399	2	1	9999999	85	0																	