51	1	0	8.5	0	40	23	1	1	85 	0	2.2	5						6	0	-50.93	6.05	5000	13	2000	0	13	4	0,2,50
55	1	10	2.5	1	40	2	0	1	160	2	1.9	5	1	1				4	12	-22.64	-8.08	5001	11	2000	0	3		
25	1	5	-6.5	2	40	7	2	1	214	3	3.0	6	1	1				4	25	-33.95	-13.74	1501	1	460	1			35
35	1	-5	-6.5	3	40	2	2	1	287	5	1.6	6	1	1				4	34	0	-30.7	5005	1	460	1			3,50
	1	-10	2.5	4	40	15	1	1	465	7	2.7	7	1	1				4	42	62.25	0.4	1501	1	460	2			
				5	40	4	0	1	607	9	1.9	7	1	1				5	0	45.27	8.88	1501	1	2000	2			35
				6	40	13	1	1	821	10	3.0	8	1	1				11	0	5.66	-10.91	5005	2	460	2		-1	
				7	40	9	1	1	1050	12	2.0	8	1	1				12	0	-11.32	-2.43	1501	1	2000	3			
				8	40	21	2	1	1280	14	2.7	9	1	1				13	0	28.3	17.36	1502	1	360	3			
				9	40	10	1	1	1467	15	2.0	9	1	1						0	31.5	5005	2	460	3			
boss				10	45	200	1	1	6744	67	1.8	1000	1	1						-50.93	6.05	1502	1	360	4			
				11	40	21	0	1	1905	19	1.8	10	1	1								5005	2	460	4			
				12	40	2	2	1	2180	21	1.7	10	1	1								501	1	460	5			
				13	40	14	2	1	2532	22	1.7	11	1	1								501	1	460	5			
				14	40	21	1	1	2914	24	3.0	11	1	1								502	1	460	5			
				15	40	14	1	1	3282	26	2.6	12	1	1								502	1	460	5			
				16	40	4	0	1	4023	28	1.5	12	1	1								1502	1	2000	5			
				17	40	4	2	1	4506	29	2.0	13	1	1								5000	554	2000	5			
				18	40	16	0	1	5177	31	2.9	13	1	1								5001	199	2000	5			
				19	40	6	0	1	6006	33	2.8	14	1	1								5005	10	2000	5			
boss				20	45	200	1	1	38255	84	2.6	2000	1	1								5005	2	460	5			
				21	40	10	0	1	9298	36	2.7	15	1	1								5000	200	2000	6			
				22	40	18	2	1	10268	38	2.8	15	1	1								5001	150	2000	7			
				23	40	17	2	1	11370	40	2.8	16	1	1								503	1	2000	8			
				24	40	5	2	1	1	41	1.5	16	1	1								-1						
				25	40	15	0	1	13119	43	1.7	17	1	1														
				26	40	2	0	1	14420	45	1.7	17	1	1														
				27	40	10	2	1	14916	46	2.4	18	1	1														
				28	40	20	1	1	15433	48	2.2	18	1	1														
				29	40	22	0	1	15973	50	2.0	19	1	1														
boss				30	45	201	1	1	85355	102	2.2	3000	1	1														
				31	40	16	0	1	18170	53	1.9	20	1	1														
				32	40	5	2	1	19161	55	2.2	20	1	1														
				33	40	22	0	1	20328	57	2.6	21	1	1														
				34	40	1	2	1	21564	58	2.6	21	1	1														
				35	40	8	1	1	29822	60	1.6	22	1	1														
				36	40	12	0	1	30732	62	2.9	22	1	1														
				37	40	0	1	1	31602	64	2.5	23	1	1														
				38	40	12	2	1	32434	65	2.4	23	1	1														
				39	40	1	1	1	33262	67	1.5	24	1	1														
boss				40	45	204	1	1	170455	119	2.3	4000	1	1														
				41	40	16	0	1	48326	71	2.6	25	1	1														
				42	40	6	0	1	49927	72	2.1	25	1	1														
				43	40	19	0	1	51408	74	2.7	26	1	1														
				44	40	23	1	1	52225	76	1.9	26	1	1														
				45	40	12	0	1	52984	77	2.3	27	1	1														
				46	40	5	1	1	53655	79	2.3	27	1	1														
				47	40	21	0	1	54372	81	2.0	28	1	1														
				48	40	9	2	1	55076	83	2.9	28	1	1														
				49	40	6	2	1	1	84	2.7	29	1	1														
boss				50	45	202	1	1	282420	136	2.8	5000	1	1														
																												
				301	0	301	1	1	25727	50	0	1	508	508	508	508												
				302	0	302	1	1	39876	70	0	1	508	508	508	508												
				303	0	303	1	1	61807	100	0	1	508	508	508	508												
				304	0	304	1	1	95800	150	0	1	2	2	2	3												
				305	0	305	1	1	148490	170	0	1	2	2	3	3												
				306	0	306	1	1	230159	200	0	1	2	3	3	3												
				307	0	307	1	1	356746	220	0	1	4															
				308	0	308	1	1	552956	240	0	1	4	4														
				309	0	309	1	1	857081	270	0	1	4	4	4													
				310	0	310	1	1	1328475	300	0	1	5															
																												
				397	0	397	0	0.75	1	1	3																	
				398	0	398	2	0.75	1	1	3																	
				399	0	399	2	1	9999999	85	0																	