7	105	0	8.5	0	15	0	0	1	20	0	1.8	5						6	0	-39.61	0.4	5000	5	2000	0	6
55	105	10	2.5	1	30	1	0	1	28	1	2.2	5	105	100				5	0	0	-19.39	5001	5	2000	0	1
5		5	-6.5	2	30	2	1	1	39	2	2.3	6	107	104						39.61	0.4	1501	1	1000	1	
35		-5	-6.5	3	30	3	0	1	54	3	1.5	6	105	103						0	20.19	5000	50	1000	1	
		-10	2.5	4	30	4	2	1	75	4	2	7	107	100						-39.61	0.4	5001	50	1000	1	
				5	30	5	1	1	105	5	2.1	7	101	105								5005	1	1000	1	
				6	30	6	0	1	147	6	2	8	100	104								-1				
																										
				301	0	301	1	1	10000	50	0	1	508	508												
																										
				397	0	397	0	0.75	1	1	3															
				398	0	398	2	0.75	1	1	3															
				399	0	399	2	1	9999999	85	0															