61	1	0	8.5	0	45	0	0	1	43 	0	1.8	1						6	0	-51	0	5001	7	2000	0	25
55	1	10	2.5	1	45	1	0	1	84	2	2.0	1	1	1				4	31	0	-25.5	5000	13	2000	0	0
25	1	5	-6.5	2	45	2	1	1	117	4	2.8	2	1	1				4	41	51	0	5000	400	500	2	
35	1	-5	-6.5	3	45	3	0	1	162	6	2.8	2	1	1				4	51	0	25.5	5000	700	1000	3	
	1	-10	2.5	4	45	4	0	1	270	8	2.5	3	1	1				5	0	-51	0	5000	300	1000	4	
				5	45	5	0	1	361	10	2.0	3	1	1								5001	100	1000	4	
				6	45	6	2	1	501	12	2.0	4	1	1								-1				
				7	45	7	2	1	654	14	2.4	4	1	1												
				8	45	8	2	1	813	16	2.0	5	1	1												
				9	45	9	2	1	949	18	2.6	5	1	1												
boss				10	45	200	1	1	8560	50	3.0	500	1	1												
				11	45	11	0	1	1270	22	2.2	6	1	1												
				12	45	12	1	1	1473	24	3.1	6	1	1												
				13	45	13	0	1	1732	26	1.9	7	1	1												
				14	45	14	2	1	2015	28	2.6	7	1	1												
				15	45	15	1	1	2292	30	2.0	8	1	1												
				16	45	16	1	1	2837	32	3.1	8	1	1												
				17	45	17	2	1	3205	34	2.4	9	1	1												
				18	45	18	1	1	3715	36	1.7	9	1	1												
				19	45	19	0	1	4343	38	2.8	10	1	1												
boss				20	45	201	1	1	20124	70	3.0	800	1	1												
				21	45	21	2	1	6833	44	1.8	11	1	1												
				22	45	22	0	1	7599	48	2.4	11	1	1												
				23	45	23	1	1	8469	52	3.5	12	1	1												
				24	45	24	2	1	1	56	3.0	12	1	1												
				25	45	25	1	1	9884	60	2.6	13	1	1												
				26	45	26	2	1	10924	64	2.6	13	1	1												
				27	45	27	0	1	11355	68	2.1	14	1	1												
				28	45	28	0	1	11803	72	2.1	14	1	1												
				29	45	29	1	1	12269	76	3.1	15	1	1												
boss				30	45	202	1	1	50948	110	3.0	1000	1	1												
				31	45	31	2	1	14073	84	2.4	16	1	1												
				32	45	32	1	1	14899	88	1.8	16	1	1												
				33	45	33	0	1	15864	92	2.3	17	1	1												
				34	45	34	2	1	16891	96	2.9	17	1	1												
				35	45	35	2	1	23449	100	3.3	18	1	1												
				36	45	36	0	1	24242	104	2.1	18	1	1												
				37	45	37	1	1	25008	108	1.9	19	1	1												
				38	45	38	2	1	25743	112	2.4	19	1	1												
				39	45	39	2	1	26478	116	2.7	20	1	1												
boss				40	45	203	1	1	81672	150	3.0	1500	1	1												
				41	45	40	0	1	37919	124	3.2	21	1	1												
				42	45	41	2	1	38522	128	2.0	21	1	1												
				43	45	42	2	1	39014	132	1.9	22	1	1												
				44	45	43	1	1	39440	136	2.4	22	1	1												
				45	45	44	0	1	39819	140	1.7	23	1	1												
				46	45	45	2	1	40129	144	3.3	23	1	1												
				47	45	46	0	1	40470	148	3.4	24	1	1												
				48	45	47	2	1	40799	152	2.7	24	1	1												
				49	45	48	1	1	1	156	3.4	25	1	1												
boss				50	45	204	1	1	124467	190	3.0	2000	1	1												
				51	45	51	0	1	62150	165	3.3	26	1	1												
				52	45	52	2	1	62638	170	2.6	26	1	1												
				53	45	53	2	1	63169	175	3.1	27	1	1												
				54	45	54	2	1	63789	180	3.0	27	1	1												
				55	45	55	0	1	64538	185	2.4	28	1	1												
				56	45	56	2	1	65412	190	1.8	28	1	1												
				57	45	57	0	1	66416	195	2.5	29	1	1												
				58	45	58	2	1	67526	200	2.1	29	1	1												
				59	45	59	1	1	68692	205	2.3	30	1	1												
boss				60	45	205	1	1	209832	240	2.5	3000	1	1												
																										
				301	0	301	1	1	31211	100	0	1	508	508												
				302	0	302	1	1	46816	120	0	1	508	508	508											
				303	0	303	1	1	74905	140	0	1	508	508	508	2										
				304	0	304	1	1	127338	160	0	1	2	2	2											
				305	0	305	1	1	216474	180	0	1	2	2	3											
				306	0	306	1	1	368005	200	0	1	3	3	3											
				307	0	307	1	1	625608	220	0	1	4													
				308	0	308	1	1	1063533	240	0	1	4	4												
				309	0	309	1	1	1808006	260	0	1	5													
																										
				397	0	397	0	0.75	1	1	3															
				398	0	398	2	0.75	1	1	3															
				399	0	399	2	1	9999999	85	0															