101	1	0	8.5	0	45	0	0	1	302	20	2.9	1						6	0	-51	0	5001	16	10000	0	8
55	1	10	2.5	1	45	1	0	1	411	21	3.1	2	1	1				0	4000	0	-25.5	5000	18	10000	0	0
25	1	5	-6.5	2	45	2	1	1	519	22	3.9	3	1	1				4	52	51	0	5005	1	500	2	
35	1	-5	-6.5	3	45	3	2	1	647	23	1.9	4	1	1				4	82	0	25.5	1501	1	500	2	
	1	-10	2.5	4	45	4	0	1	756	24	2.2	5	1	1				5	0	-51	0	1501	1	1000	2	
				5	45	5	1	1	1055	25	2.9	6	1	1								5005	2	500	3	
				6	45	6	1	1	1163	26	3.1	7	1	1								1501	2	500	3	
				7	45	7	0	1	1319	27	3.9	8	1	1								1501	1	1000	3	
				8	45	8	2	1	1426	28	1.9	9	1	1								1502	1	500	3	
				9	45	9	0	1	1532	29	2.2	10	1	1								5005	4	500	4	
boss				10	45	194	1	1	42369	50	2.4	1275	1	1								5005	5	1000	4	
				11	45	11	0	1	2306	31	3.1	12	1	1								1501	4	500	4	
				12	45	12	2	1	2726	32	3.9	13	1	1								1501	3	1000	4	
				13	45	13	2	1	2945	33	1.9	14	1	1								1502	2	500	4	
				14	45	14	1	1	3269	34	2.2	15	1	1								1502	2	500	4	
				15	45	15	1	1	3789	35	2.9	16	1	1								503	1	500	4	
				16	45	16	0	1	4040	36	3.1	17	1	1								503	2	500	4	
				17	45	17	1	1	4364	37	3.9	18	1	1								503	3	1000	4	
				18	45	18	2	1	4658	38	1.9	19	1	1								504	1	500	4	
				19	45	19	1	1	5793	39	2.2	20	1	1								504	2	500	4	
boss				20	45	295	1	1	138124	60	2.4	1525	1	1								504	2	1000	4	
				21	45	21	1	1	5766	42	3.1	22	1	1								505	1	500	4	
				22	45	22	1	1	6251	44	3.9	23	1	1								505	2	500	4	
				23	45	23	1	1	6673	46	1.9	24	1	1								5000	180	1000	4	
				24	45	24	2	1	7232	48	2.2	25	1	1								-1				
				25	45	25	1	1	8225	50	2.9	26	1	1												
				26	45	26	2	1	9148	52	3.1	27	1	1												
				27	45	27	1	1	9640	54	3.9	28	1	1												
				28	45	28	2	1	10138	56	1.9	29	1	1												
				29	45	29	0	1	10750	58	2.2	30	1	1												
boss				30	45	202	1	1	339477	80	2.4	1775	1	1												
				31	45	31	0	1	15391	62	3.1	32	1	1												
				32	45	32	2	1	16306	64	3.9	33	1	1												
				33	45	33	0	1	18008	66	1.9	34	1	1												
				34	45	34	2	1	18967	68	2.2	35	1	1												
				35	45	35	0	1	21283	70	2.9	36	1	1												
				36	45	36	0	1	22508	72	3.1	37	1	1												
				37	45	37	2	1	23529	74	3.9	38	1	1												
				38	45	38	1	1	25144	76	1.9	39	1	1												
				39	45	39	1	1	26190	78	2.2	40	1	1												
boss				40	45	203	1	1	636644	100	2.4	2025	1	1												
				41	45	41	2	1	42192	82	3.1	42	1	1												
				42	45	42	1	1	42754	84	3.9	43	1	1												
				43	45	43	2	1	44291	86	1.9	44	1	1												
				44	45	44	1	1	44843	88	2.2	45	1	1												
				45	45	45	2	1	48202	90	2.9	46	1	1												
				46	45	46	2	1	49113	92	3.1	47	1	1												
				47	45	47	2	1	50176	94	3.9	48	1	1												
				48	45	48	0	1	52514	96	1.9	49	1	1												
				49	45	49	1	1	53607	98	2.2	50	1	1												
boss				50	45	204	1	1	998018	120	2.4	2275	1	1												
				51	45	51	1	1	73036	102	3.1	52	1	1												
				52	45	52	1	1	73589	104	3.9	53	1	1												
				53	45	53	0	1	75573	106	1.9	54	1	1												
				54	45	54	2	1	77024	108	2.2	55	1	1												
				55	45	55	0	1	83680	110	2.9	56	1	1												
				56	45	56	1	1	85201	112	3.1	57	1	1												
				57	45	57	2	1	86554	114	3.9	58	1	1												
				58	45	58	2	1	88090	116	1.9	59	1	1												
				59	45	59	1	1	89639	118	2.2	60	1	1												
boss				60	45	202	1	1	1413529	140	2.4	2525	1	1												
				61	45	1	0	1	148399	122	3.1	62	1	1												
				62	45	2	0	1	187954	124	3.9	63	1	1												
				63	45	3	0	1	193811	126	1.9	64	1	1												
				64	45	4	0	1	202158	128	2.2	65	1	1												
				65	45	5	0	1	220877	130	2.9	66	1	1												
				66	45	6	1	1	226653	132	3.1	67	1	1												
				67	45	7	0	1	237487	134	3.9	68	1	1												
				68	45	8	2	1	246455	136	1.9	69	1	1												
				69	45	9	2	1	262292	138	2.2	70	1	1												
boss				70	45	201	1	1	2450209	160	2.4	2775	1	1												
				71	45	10	0	1	344656	142	3.1	72	1	1												
				72	45	11	1	1	368730	144	3.9	73	1	1												
				73	45	12	0	1	391077	146	1.9	74	1	1												
				74	45	13	2	1	410982	148	2.2	75	1	1												
				75	45	14	1	1	449835	150	2.9	76	1	1												
				76	45	15	0	1	485716	152	3.1	77	1	1												
				77	45	16	1	1	509985	154	3.9	78	1	1												
				78	45	17	0	1	526442	156	1.9	79	1	1												
				79	45	18	2	1	553632	158	2.2	80	1	1												
boss				80	45	205	1	1	3311949	180	2.4	3025	1	1												
				81	45	19	1	1	747239	162	3.1	82	1	1												
				82	45	20	1	1	765772	164	3.9	83	1	1												
				83	45	21	2	1	816278	166	1.9	84	1	1												
				84	45	22	2	1	887127	168	2.2	85	1	1												
				85	45	23	1	1	952103	170	2.9	86	1	1												
				86	45	24	0	1	993401	172	3.1	87	1	1												
				87	45	25	0	1	1011639	174	3.9	88	1	1												
				88	45	26	0	1	1045782	176	1.9	89	1	1												
				89	45	27	0	1	1085434	178	2.2	90	1	1												
boss				90	45	203	1	1	4025295	200	2.4	3275	1	1												
				91	45	28	1	1	1542327	182	3.1	92	1	1												
				92	45	29	1	1	1562680	184	3.9	93	1	1												
				93	45	30	0	1	1619925	186	1.9	94	1	1												
				94	45	31	0	1	1666421	188	2.2	95	1	1												
				95	45	32	2	1	1713165	190	2.9	96	1	1												
				96	45	33	2	1	1768510	192	3.1	97	1	1												
				97	45	34	1	1	1785121	194	3.9	98	1	1												
				98	45	35	0	1	1873268	196	1.9	99	1	1												
				99	45	36	2	1	1921242	198	2.2	100	1	1												
boss				100	45	252	1	1	5294284	220	2.4	101	1	1												
																										
				301	0	301	1	1	68373	25	0	1	508	508												
				302	0	302	1	1	136745	37	0	1	508	508												
				303	0	303	1	1	273491	48	0	1	508	508	508											
				304	0	304	1	1	546981	60	0	1	2	2												
				305	0	305	1	1	1093962	71	0	1	3													
				306	0	306	1	1	2187924	83	0	1	3	3												
				307	0	307	1	1	4375849	94	0	1	4													
				308	0	308	1	1	8751698	106	0	1	4	4												
				309	0	309	1	1	17503396	117	0	1	508	508												
				310	0	310	1	1	35006792	150	0	3	5													
																										
				397	0	397	0	0.75	1	1	3															
				398	0	398	2	0.75	1	1	3															
				399	0	399	2	1	9999999	85	0															