101	1	0	8.5	0	45	0	0	1	172	0	1.8	1						6	0	-51	0	5001	16	2000	0	15
32	1	10	2.5	1	45	1	0	1	326	2	2	1	1	1				4	61	0	-25.5	5000	17	2000	0	0
25	1	5	-6.5	2	45	2	1	1	437	4	2.8	2	1	1				4	81	51	0	5000	600	1000	3	
35	1	-5	-6.5	3	45	3	0	1	587	6	2.8	2	1	1				5	0	0	25.5	503	10	1000	3	
	1	-10	2.5	4	45	4	0	1	948	8	2.5	3	1	1						-51	0	503	1	800	3	
				5	45	5	0	1	1213	10	2	3	1	1								503	2	1000	3	
				6	45	6	2	1	1592	12	2	4	1	1								504	3	800	3	
				7	45	7	2	1	1972	14	2.4	4	1	1								504	1	800	3	
				8	45	8	2	1	2347	16	2	5	1	1								504	2	1000	3	
				9	45	9	2	1	2638	18	2.6	5	1	1								505	2	800	3	
boss				10	45	200	1	1	28830	36	2.8	500	1	1								505	1	1000	3	
				11	45	11	0	1	4480	22	2.2	6	1	1								505	2	1000	3	
				12	45	12	1	1	5020	24	3.1	6	1	1								-1				
				13	45	13	0	1	5719	26	1.9	7	1	1												
				14	45	14	2	1	6512	28	2.6	7	1	1												
				15	45	15	1	1	7524	30	2	8	1	1												
				16	45	16	1	1	9042	32	3.1	8	1	1												
				17	45	17	2	1	10124	34	2.4	9	1	1												
				18	45	18	1	1	11470	36	1.7	9	1	1												
				19	45	19	0	1	12878	38	2.8	10	1	1												
boss				20	45	201	1	1	132382	65	2.8	800	1	1												
				21	45	21	2	1	26872	42	1.8	11	1	1												
				22	45	22	0	1	28903	44	2.4	11	1	1												
				23	45	23	1	1	30713	46	3.5	12	1	1												
				24	45	24	2	1	32403	48	3	12	1	1												
				25	45	25	1	1	33857	50	2.6	13	1	1												
				26	45	26	2	1	35997	52	2.6	13	1	1												
				27	45	27	0	1	37282	54	2.1	14	1	1												
				28	45	28	0	1	38662	56	2.1	14	1	1												
				29	45	29	1	1	40026	58	3.1	15	1	1												
boss				30	45	202	1	1	330564	90	2.8	1000	1	1												
				31	45	31	2	1	66952	62	2.4	16	1	1												
				32	45	32	1	1	70250	64	1.8	16	1	1												
				33	45	33	0	1	74639	66	2.3	17	1	1												
				34	45	34	2	1	79376	68	2.9	17	1	1												
				35	45	35	2	1	101533	70	3.3	18	1	1												
				36	45	36	0	1	104212	72	2.1	18	1	1												
				37	45	37	1	1	106701	74	1.9	19	1	1												
				38	45	38	2	1	109326	76	2.4	19	1	1												
				39	45	39	2	1	111886	78	2.7	20	1	1												
boss				40	45	203	1	1	803802	110	2.8	1500	1	1												
				41	45	41	1	1	221417	82	3.2	21	1	1												
				42	45	42	1	1	227126	84	2	21	1	1												
				43	45	43	0	1	232613	86	1.9	22	1	1												
				44	45	44	1	1	237627	88	2.4	22	1	1												
				45	45	45	2	1	242915	90	1.7	23	1	1												
				46	45	46	0	1	248126	92	3.3	23	1	1												
				47	45	47	0	1	254283	94	3.4	24	1	1												
				48	45	48	0	1	259719	96	2.7	24	1	1												
				49	45	49	1	1	265301	98	3.4	25	1	1												
boss				50	45	204	1	1	1628685	130	3	2000	1	1												
				51	45	51	0	1	430161	102	3.3	26	1	1												
				52	45	52	2	1	441268	104	2.6	26	1	1												
				53	45	53	2	1	453670	106	3.1	27	1	1												
				54	45	54	2	1	467619	108	3	27	1	1												
				55	45	55	0	1	482890	110	2.4	28	1	1												
				56	45	56	2	1	499130	112	1.8	28	1	1												
				57	45	57	0	1	515763	114	2.5	29	1	1												
				58	45	58	2	1	533673	116	2.1	29	1	1												
				59	45	59	1	1	548374	118	2.3	30	1	1												
boss				60	45	205	1	1	3121583	150	3	3000	1	1												
				61	45	0	0	1	663091	122	2.1	31	1	1												
				62	45	1	0	1	685168	124	2.8	31	1	1												
				63	45	2	0	1	709033	126	2	32	1	1												
				64	45	3	0	1	729666	128	2.2	32	1	1												
				65	45	4	2	1	749058	130	2.7	33	1	1												
				66	45	5	0	1	769213	132	2.5	34	1	1												
				67	45	6	1	1	789355	134	3.4	34	1	1												
				68	45	7	0	1	810085	136	3	35	1	1												
				69	45	8	0	1	831258	138	2	35	1	1												
boss				70	45	204	1	1	4263661	180	3	4000	1	1												
				71	45	9	0	1	1964085	142	2	36	1	1												
				72	45	10	2	1	1969829	144	3.5	36	1	1												
				73	45	11	1	1	1977038	146	3.3	37	1	1												
				74	45	12	2	1	1986528	148	2.1	37	1	1												
				75	45	13	1	1	1998137	150	2.9	38	1	1												
				76	45	14	2	1	2011893	152	2.6	38	1	1												
				77	45	15	0	1	2027322	154	2.3	39	1	1												
				78	45	16	0	1	2043357	156	2.6	39	1	1												
				79	45	17	1	1	2060365	158	1.8	40	1	1												
boss				80	45	203	1	1	9394864	200	3	5000	1	1												
				81	45	18	0	1	2331965	162	1.8	41	1	1												
				82	45	19	1	1	2374265	164	2.4	41	1	1												
				83	45	20	2	1	2418448	166	3.5	42	1	1												
				84	45	21	2	1	2462989	168	3	42	1	1												
				85	45	22	0	1	2509064	170	2.6	43	1	1												
				86	45	23	1	1	2549538	172	2.6	43	1	1												
				87	45	24	0	1	2591590	174	2.1	44	1	1												
				88	45	25	0	1	2631577	176	2.1	44	1	1												
				89	45	26	1	1	2669665	178	3.1	45	1	1												
boss				90	45	204	1	1	10827889	220	3.5	7000	1	1												
				91	45	28	0	1	2743022	182	2.4	46	1	1												
				92	45	29	2	1	2777671	184	1.8	46	1	1												
				93	45	30	1	1	2809377	186	2.3	47	1	1												
				94	45	31	2	1	2842568	188	2.9	47	1	1												
				95	45	32	2	1	2875696	190	3.3	48	1	1												
				96	45	33	1	1	2910067	192	2.1	48	1	1												
				97	45	34	1	1	2945355	194	1.9	49	1	1												
				98	45	35	0	1	2984850	196	2.4	49	1	1												
				99	45	36	2	1	3020758	198	2.7	50	1	1												
boss				100	45	205	1	1	12224838	250	3.5	50	1	1												
																										
				301	0	301	1	1	29196	25	0	1	508	508	508											
				302	0	302	1	1	56932	45	0	1	508	508	508	508										
				303	0	303	1	1	111018	65	0	1	508	508	508	508	508									
				304	0	304	1	1	216485	85	0	2	2	2	2	2										
				305	0	305	1	1	422145	105	0	2	3	3	3											
				306	0	306	1	1	823183	125	0	2	3	3	3	3										
				307	0	307	1	1	1605207	145	0	2	4													
				308	0	308	1	1	3130153	165	0	2	4	4												
				309	0	309	1	1	6103799	185	0	2	5													
																										
				397	0	397	0	0.75	1	1	3															
				398	0	398	2	0.75	1	1	3															
				399	0	399	2	1	9999999	85	0															