61	1	0	8.5	0	40	28	0	1	143 	0	2.5	5						6	0	-62.25	0.4	5000	16	2000	0	16
55	1	10	2.5	1	40	3	2	1	272	2	2.7	5	1	1				4	15	-45.27	-8.08	5001	14	2000	0	7
25	1	5	-6.5	2	40	28	0	1	363	5	1.9	6	1	1				4	30	-22.64	3.23	1501	1	540	1	
35	1	-5	-6.5	3	40	17	0	1	485	7	1.8	6	1	1				4	40	5.66	-10.91	5005	1	540	1	
	1	-10	2.5	4	40	3	2	1	780	9	2.1	7	1	1				4	50	-16.98	-22.22	5005	2	540	1	
				5	40	8	1	1	996	11	2.7	7	1	1				5	0	0	-30.7	1501	1	540	2	
				6	40	23	1	1	1305	14	1.9	8	1	1				11	0	56.59	-2.43	1502	1	440	2	
				7	40	13	1	1	1617	16	1.8	8	1	1				12	0	-5.66	28.67	5005	2	540	2	
				8	40	13	2	1	1922	18	3.0	9	1	1				13	0	-62.25	0.4	1501	1	540	3	
				9	40	15	1	1	2155	21	2.9	9	1	1								1502	1	440	3	
boss				10	45	202	1	1	9668	73	1.6	1000	1	1						-16.98	11.71	5005	2	540	3	
				11	40	22	2	1	2680	25	2.0	10	1	1						22.64	-8.08	5005	2	540	3	
				12	40	29	2	1	3031	27	1.6	10	1	1						33.95	-2.43	1502	1	440	4	
				13	40	19	1	1	3482	30	2.2	11	1	1						-5.66	17.36	502	1	540	5	
				14	40	27	2	1	3973	32	2.1	11	1	1						-16.98	11.71	502	1	540	5	
				15	40	7	0	1	4440	34	1.9	12	1	1								503	1	540	5	
				16	40	25	1	1	5392	36	2.7	12	1	1								503	1	540	5	
				17	40	9	2	1	6003	39	2.0	13	1	1								503	1	540	5	
				18	40	22	2	1	6864	41	1.9	13	1	1								503	1	540	5	
				19	40	1	1	1	7921	43	2.1	14	1	1								504	1	540	5	
boss				20	45	200	1	1	50115	96	2.7	2000	1	1								1501	1	2000	5	
				21	40	1	2	1	12124	48	2.4	15	1	1								1501	1	2000	5	
				22	40	22	0	1	13328	50	2.5	15	1	1								1502	1	2000	5	
				23	40	2	2	1	14694	52	1.9	16	1	1								5000	871	2000	5	
				24	40	20	1	1	1	55	1.7	16	1	1								5001	524	2000	5	
				25	40	26	1	1	16822	57	1.8	17	1	1								5005	14	2000	5	
				26	40	17	1	1	18416	59	2.4	17	1	1								5005	5	2000	6	
				27	40	10	2	1	18981	62	2.3	18	1	1								5001	150	2000	7	
				28	40	29	2	1	19575	64	1.6	18	1	1								1503	1	2000	8	
				29	40	27	0	1	20197	66	2.4	19	1	1								-1				
boss				30	45	203	1	1	107585	118	2.3	3000	1	1												
				31	40	7	1	1	22836	71	2.4	20	1	1												
				32	40	8	1	1	24015	73	1.9	20	1	1												
				33	40	12	1	1	25407	75	1.6	21	1	1												
				34	40	9	1	1	26861	78	1.7	21	1	1												
				35	40	14	1	1	37049	80	2.6	22	1	1												
				36	40	16	2	1	38083	82	2.1	22	1	1												
				37	40	13	1	1	39068	84	1.6	23	1	1												
				38	40	21	2	1	40003	87	2.9	23	1	1												
				39	40	3	0	1	40934	89	2.9	24	1	1												
boss				40	45	200	1	1	209325	141	3.0	4000	1	1												
				41	40	14	2	1	59220	93	1.7	25	1	1												
				42	40	6	1	1	61058	96	2.2	25	1	1												
				43	40	22	0	1	62746	98	2.8	26	1	1												
				44	40	26	0	1	64348	100	2.9	26	1	1												
				45	40	10	2	1	65892	103	2.5	27	1	1												
				46	40	9	0	1	67336	105	2.6	27	1	1												
				47	40	23	2	1	68849	107	2.1	28	1	1												
				48	40	24	2	1	70355	109	2.9	28	1	1												
				49	40	20	1	1	1	112	2.1	29	1	1												
boss				50	45	201	1	1	366830	164	1.9	5000	1	1												
				51	40	16	2	1	103087	116	2.8	30	1	1												
				52	40	28	2	1	105243	119	2.7	30	1	1												
				53	40	11	1	1	107496	121	2.4	31	1	1												
				54	40	28	1	1	109924	123	2.0	31	1	1												
				55	40	15	0	1	112605	125	1.7	32	1	1												
				56	40	27	1	1	115540	128	1.9	32	1	1												
				57	40	17	2	1	118744	130	1.9	33	1	1												
				58	40	5	2	1	122184	132	2.4	33	1	1												
				59	40	6	0	1	125776	135	2.2	34	1	1												
boss				60	45	201	1	1	776202	187	2.3	6000	1	1												
																										
				301	0	301	1	1	38906	50	0	1	508	508	508	508										
				302	0	302	1	1	60304	70	0	1	508	508	508	508										
				303	0	303	1	1	93471	100	0	1	508	508	508	508										
				304	0	304	1	1	144880	150	0	1	2	2	2	3										
				305	0	305	1	1	224564	170	0	1	2	2	3	3										
				306	0	306	1	1	348074	200	0	1	2	3	3	3										
				307	0	307	1	1	539514	220	0	1	4													
				308	0	308	1	1	836246	240	0	1	4	4												
				309	0	309	1	1	1296181	270	0	1	4	4	4											
				310	0	310	1	1	2009080	300	0	1	5													
																										
				397	0	397	0	0.75	1	1	3															
				398	0	398	2	0.75	1	1	3															
				399	0	399	2	1	9999999	85	0															