301	1	0	8.5	0	20	2	0	1	486	0	3.9	1						6	0	-51	0	5001	15	2000	0	20	1	1,15
35	1	10	2.5	1	20	44	0	1	932	1	3.6	1	1	1				4	31	0	-25.5	5000	15	2000	0	0		5
15	1	5	-6.5	2	20	1	1	1	1270	2	5.3	2	1	1				4	61	51	0	1501	1	500	1			6
20	1	-5	-6.5	3	20	2	2	1	1733	3	4	2	1	1				4	91	0	25.5	501	2	500	1		-1	
	1	-10	2.5	4	20	5	0	1	2860	4	4.1	3	1	1				4	121	-51	0	1502	1	450	2		3	77,0,100,7,625
				5	20	55	1	1	3798	5	4.8	3	1	1				4	151			502	2	450	2			78,0,0,7,10
				6	20	15	1	1	5238	6	4.8	4	1	1				4	181			5005	10	500	3			99,0,100,9,340
				7	20	28	0	1	6812	7	3.5	4	1	1				4	211			10502	1	500	3			102,0,0,7,10
				8	20	6	2	1	8451	8	3.8	5	1	1				4	241			1502	1	500	3			106,0,100,7,1000
				9	20	46	0	1	9856	9	5.4	5	1	1				4	271			503	2	300	4			107,0,0,7,10
boss				10	30	200	1	1	178035	63	4.4	500	1	1				5	0			503	2	300	4			146,0,100,7,1250
				11	20	31	0	1	13227	11	3.6	6	1	1								504	2	300	5			147,0,0,7,10
				12	20	29	2	1	15386	12	3.4	6	1	1								504	2	300	5			151,0,100,17,0,7,100
				13	20	14	2	1	18162	13	3	7	1	1								5005	10	500	6			156,0,100,17,0,7,150
				14	20	3	1	1	21235	14	3.4	7	1	1								5005	2	300	7			161,0,100,17,0,7,200
				15	20	2	1	1	24292	15	5.3	8	1	1								5005	15	500	8			166,0,100,17,0,7,250
				16	20	25	0	1	30255	16	4.3	8	1	1								5006	2	300	9			171,0,100,17,0,7,390
				17	20	51	1	1	34407	17	5	9	1	1								5005	20	500	10			176,0,100,17,0,7,420
				18	20	14	2	1	40144	18	3.1	9	1	1								-1						181,0,100,17,0,7,450
				19	20	16	1	1	47277	19	4.4	10	1	1														186,0,100,17,0,7,500
boss				20	30	201	1	1	441280	73	4.8	800	1	1														191,0,100,17,0,7,1000
				21	20	45	1	1	81345	22	4.1	11	1	1														196,0,100,17,0,7,1500
				22	20	55	1	1	90991	23	4.7	11	1	1														201,0,100,17,0,7,2000
				23	20	42	1	1	102042	24	3.9	12	1	1														206,0,100,17,0,7,2600
				24	20	24	2	1	1	25	5.3	12	1	1														211,0,100,17,0,7,3200
				25	20	58	1	1	120750	26	4.5	13	1	1														216,0,100,17,0,7,3800
				26	20	52	2	1	134415	27	4.6	13	1	1														226,0,100,17,0,7,4400
				27	20	34	1	1	140780	28	3.6	14	1	1														231,0,100,17,0,7,5200
				28	20	37	2	1	147490	29	3	14	1	1														241,0,100,17,0,7,6000
				29	20	42	0	1	154542	30	3.9	15	1	1														246,0,100,17,0,7,8000
boss				30	30	202	1	1	1293940	84	3.5	1000	1	1														251,0,100,17,0,7,8000
				31	20	12	0	1	180184	32	5.1	16	1	1														251,0,100,17,0,7,10000
				32	20	16	2	1	192353	33	4.3	16	1	1														256,0,100,17,0,7,10000,9,70
				33	20	8	0	1	206547	34	3.1	17	1	1														261,0,100,17,0,7,10000,9,140
				34	20	64	2	1	221768	35	3.7	17	1	1														266,0,100,17,0,7,10000,9,240
				35	20	22	0	1	310399	36	4.7	18	1	1														271,0,100,17,0,7,10000,9,340
				36	20	0	0	1	323711	37	3.3	18	1	1														276,0,100,17,0,7,10000,9,340
				37	20	5	2	1	336864	38	4.5	19	1	1														281,0,100,17,0,7,10000,8,100
				38	20	7	1	1	349838	39	3.1	19	1	1														286,0,100,17,0,7,10000,9,444
				39	20	51	1	1	363024	40	5.1	20	1	1														291,0,100,17,0,7,10000,8,200
boss				40	30	203	1	1	2259561	94	5	1500	1	1														296,0,100,17,0,7,10000,9,666
				41	20	35	2	1	575471	43	3.2	21	1	1													-1	
				42	20	56	1	1	601464	44	5.1	21	1	1														
				43	20	41	2	1	626471	45	4.6	22	1	1														
				44	20	52	1	1	651118	46	3.7	22	1	1														
				45	20	36	2	1	675629	47	3	23	1	1														
				46	20	47	2	1	699560	48	3.7	23	1	1														
				47	20	46	2	1	724638	49	3	24	1	1														
				48	20	56	0	1	750110	50	5	24	1	1														
				49	20	20	1	1	1	51	3.5	25	1	1														
boss				50	30	204	1	1	4821407	105	5.1	2000	1	1														
				51	20	25	1	1	1141756	53	5.1	26	1	1														
				52	20	40	1	1	1180289	54	4.1	26	1	1														
				53	20	52	0	1	1220575	55	3.9	27	1	1														
				54	20	10	2	1	1263573	56	4.4	27	1	1														
				55	20	3	0	1	1310269	57	5.4	28	1	1														
				56	20	45	1	1	1360780	58	3.1	28	1	1														
				57	20	23	2	1	1415396	59	3.2	29	1	1														
				58	20	49	2	1	1473863	60	4.9	29	1	1														
				59	20	64	1	1	1535232	61	4.2	30	1	1														
boss				60	30	202	1	1	9601641	115	4.7	3000	1	1														
				61	20	3	0	1	1786354	64	4.4	31	1															
				62	20	26	0	1	1876630	65	3.1	31	1															
				63	20	54	0	1	1967121	66	3	32	1															
				64	20	22	0	1	2053711	67	5.4	32	1															
				65	20	24	0	1	2140097	68	3.8	33	1															
				66	20	39	1	1	2227420	69	4	34	1															
				67	20	3	0	1	2314171	70	4.3	34	1															
				68	20	60	2	1	2400810	71	3.7	35	1															
				69	20	9	2	1	2488683	72	4.5	35	1															
boss				70	30	201	1	1	15476432	126	5.3	4000	1															
				71	20	1	0	1	2672740	74	4.6	36	1															
				72	20	55	1	1	2769280	75	3.3	36	1															
				73	20	29	0	1	2868738	76	4.8	37	1															
				74	20	44	2	1	2970264	77	3.6	37	1															
				75	20	23	1	1	3074681	78	4.1	38	1															
				76	20	13	0	1	3180977	79	4	38	1															
				77	20	52	1	1	3294399	80	4.3	39	1															
				78	20	33	0	1	3413717	81	4.3	39	1															
				79	20	40	2	1	3541115	82	4	40	1															
boss				80	30	205	1	1	22059749	136	4.7	5000	1															
				81	20	31	1	1	4579701	85	5.5	41	1															
				82	20	3	1	1	4845002	86	5	41	1															
				83	20	26	2	1	5123347	87	4.8	42	1															
				84	20	17	2	1	5399024	88	4.7	42	1															
				85	20	31	1	1	5687961	89	5.3	43	1															
				86	20	28	0	1	5975938	90	5	43	1															
				87	20	19	0	1	6261895	91	4.1	44	1															
				88	20	43	0	1	6553186	92	4.2	44	1															
				89	20	50	0	1	6847083	93	5.3	45	1															
boss				90	30	203	1	1	40000772	147	3.2	7000	1															
				91	20	59	1	1	7436830	95	4.7	46	1															
				92	20	63	1	1	7742178	96	3.6	46	1															
				93	20	20	0	1	8054033	97	3.9	47	1															
				94	20	4	0	1	8377018	98	3.2	47	1															
				95	20	4	2	1	8710329	99	3.1	48	1															
				96	20	42	2	1	9052310	100	4.7	48	1															
				97	20	33	1	1	9399179	101	3.1	49	1															
				98	20	29	0	1	9751036	102	4.5	49	1															
				99	20	18	2	1	1	103	4.5	50	1															
boss				100	30	252	1	1	58732223	157	4.8	1000	1															
				101	20	19	0	1	11141135	106	4.4	50	1															
				102	20	12	1	1	11640713	107	5.2	50	1															
				103	20	43	2	1	12165001	108	3.4	50	1															
				104	20	10	0	1	12675930	109	4	50	1															
				105	20	59	1	1	13211791	110	3.2	50	1															
				106	20	20	1	1	13739415	111	4.7	50	1															
				107	20	61	0	1	14256862	112	4.5	50	1															
				108	20	33	2	1	14781132	113	4.6	50	1															
				109	20	44	0	1	15306330	114	5.4	50	1															
boss				110	30	200	1	1	94988339	168	4.2	1000	1															
				111	20	63	0	1	16547862	116	5.3	50	1															
				112	20	38	2	1	17291136	117	5.2	50	1															
				113	20	28	2	1	18050155	118	5.3	50	1															
				114	20	45	1	1	18835123	119	4.9	50	1															
				115	20	7	1	1	19644537	120	3.9	50	1															
				116	20	54	0	1	20474711	121	4	50	1															
				117	20	22	1	1	21316997	122	3.2	50	1															
				118	20	44	2	1	22171777	123	4	50	1															
				119	20	29	1	1	23047746	124	4.1	50	1															
boss				120	30	201	1	1	143763158	178	4.4	1000	1															
				121	20	46	1	1	24380502	127	3.3	50	1															
				122	20	48	1	1	25159038	128	4.8	50	1															
				123	20	64	1	1	25951612	129	3.5	50	1															
				124	20	16	2	1	26772693	130	3.2	50	1															
				125	20	20	1	1	27619604	131	5.5	50	1															
				126	20	15	2	1	28486737	132	5.3	50	1															
				127	20	13	1	1	29362065	133	4.8	50	1															
				128	20	39	2	1	30246132	134	3.1	50	1															
				129	20	37	0	1	31150910	135	5.2	50	1															
boss				130	30	202	1	1	192582059	189	3.6	1000	1															
				131	20	46	0	1	34374154	137	4.8	50	1															
				132	20	41	2	1	36867321	138	4.9	50	1															
				133	20	21	0	1	39432318	139	3.9	50	1															
				134	20	0	2	1	42058532	140	3.2	50	1															
				135	20	38	0	1	44757618	141	4.4	50	1															
				136	20	36	0	1	47516948	142	4.3	50	1															
				137	20	3	2	1	50416527	143	5.3	50	1															
				138	20	6	1	1	53442518	144	3.4	50	1															
				139	20	54	1	1	56633868	145	5.4	50	1															
boss				140	30	203	1	1	359974279	199	4.5	1000	1															
				141	20	25	2	1	63521248	148	3.2	50	1															
				142	20	16	1	1	67174914	149	3.8	50	1															
				143	20	30	2	1	71000111	150	4.7	50	1															
				144	20	41	1	1	74774626	151	3.3	50	1															
				145	20	49	2	1	78721917	152	5.1	50	1															
				146	20	31	2	1	82644656	153	4.2	50	1															
				147	20	11	2	1	86527690	154	3.3	50	1															
				148	20	19	0	1	90471679	155	4.5	50	1															
				149	20	62	1	1	1	156	3.1	50	1															
boss				150	30	204	1	1	590540628	210	3.5	1000	1															
				151	20	33	1	1	102365380	158	5.1	50	1															
				152	20	15	1	1	106453712	159	4	50	1															
				153	20	4	0	1	110619387	160	3.6	50	1															
				154	20	29	2	1	114924599	161	5.1	50	1															
				155	20	57	0	1	119359040	162	5.4	50	1															
				156	20	19	1	1	123899431	163	4.9	50	1															
				157	20	55	2	1	128493382	164	5.2	50	1															
				158	20	43	2	1	133142906	165	3.2	50	1															
				159	20	33	1	1	137900483	166	4.6	50	1															
boss				160	30	202	1	1	857150560	220	4.6	1000	1															
				161	20	38	0	1	203366913	169	3.5	50	1															
				162	20	58	0	1	204764894	170	5.2	50	1															
				163	20	32	0	1	209349458	171	3.6	50	1															
				164	20	2	0	1	213982066	172	5.5	50	1															
				165	20	63	0	1	218662940	173	3	50	1															
				166	20	44	1	1	223392287	174	4	50	1															
				167	20	21	0	1	228170326	175	4.5	50	1															
				168	20	28	2	1	232997264	176	4.6	50	1															
				169	20	14	2	1	237873322	177	3.3	50	1															
boss				170	30	201	1	1	1456793670	231	5.5	1000	1															
				171	20	31	0	1	248218050	179	4	50	1															
				172	20	59	1	1	253692810	180	3.1	50	1															
				173	20	48	0	1	259223463	181	3.9	50	1															
				174	20	35	2	1	264810254	182	4.6	50	1															
				175	20	41	1	1	270453427	183	3.6	50	1															
				176	20	29	0	1	276153215	184	5	50	1															
				177	20	15	1	1	281909870	185	4.5	50	1															
				178	20	52	0	1	287723628	186	4.8	50	1															
				179	20	52	2	1	293594730	187	3.1	50	1															
boss				180	30	205	1	1	1797141174	241	4.1	1000	1															
				181	20	42	1	1	303670529	190	5.4	50	1															
				182	20	1	1	1	308357795	191	3.1	50	1															
				183	20	1	2	1	313086126	192	4.6	50	1															
				184	20	46	2	1	317855681	193	3.7	50	1															
				185	20	4	1	1	322666621	194	3.7	50	1															
				186	20	24	0	1	327519112	195	3.1	50	1															
				187	20	62	0	1	332413317	196	3.5	50	1															
				188	20	22	0	1	337349393	197	4.3	50	1															
				189	20	7	0	1	342327503	198	4.3	50	1															
boss				190	30	203	1	1	2055361990	252	3.3	1000	1															
				191	20	21	1	1	352410829	200	4.6	50	1															
				192	20	62	1	1	362363616	201	3.4	50	1															
				193	20	45	0	1	372419120	202	3.7	50	1															
				194	20	29	0	1	382577778	203	4.4	50	1															
				195	20	2	2	1	392840017	204	4.2	50	1															
				196	20	4	2	1	403206269	205	4	50	1															
				197	20	11	1	1	413676965	206	4.3	50	1															
				198	20	63	0	1	424252541	207	3.5	50	1															
				199	20	48	2	1	11	208	3.6	50	1															
boss				200	30	252	1	1	2674320535	283	4.6	1000	1															
				201	20	36	0	1	414968558	234	5	50	1															
				202	20	55	1	1	417883912	238	5.3	50	1															
				203	20	44	2	1	421861552	242	4.9	50	1															
				204	20	20	0	1	426920216	246	3.5	50	1															
				205	20	23	1	1	433078965	250	4.8	50	1															
				206	20	55	1	1	440356840	255	4	50	1															
				207	20	63	0	1	448773079	259	3.7	50	1															
				208	20	5	2	1	458346938	263	4	50	1															
				209	20	14	0	1	469097830	267	3.6	50	1															
boss				210	30	200	1	1	2886271899	324	4.1	1000	1															
				211	20	50	0	1	494208984	276	3.2	50	1															
				212	20	16	2	1	508608619	281	3.2	50	1															
				213	20	46	2	1	524264021	285	3.4	50	1															
				214	20	55	1	1	541195153	289	5.3	50	1															
				215	20	14	1	1	559422116	294	3.9	50	1															
				216	20	55	0	1	578965054	298	4.8	50	1															
				217	20	46	1	1	599844287	302	3.6	50	1															
				218	20	36	2	1	622080165	307	3.4	50	1															
				219	20	17	1	1	645693195	311	5.2	50	1															
boss				220	30	201	1	1	4024224220	368	4.9	1000	1															
				221	20	53	1	1	697133356	320	4.2	50	1															
				222	20	39	1	1	725001992	325	3	50	1															
				223	20	54	1	1	754330929	329	3.4	50	1															
				224	20	23	2	1	785141168	333	4.5	50	1															
				225	20	54	1	1	817453869	339	4.6	50	1															
				226	20	14	2	1	851290347	343	3.7	50	1															
				227	20	48	1	1	886671977	347	5.5	50	1															
				228	20	14	2	1	923620147	352	3.4	50	1															
				229	20	10	0	1	962156605	357	5.3	50	1															
boss				230	30	202	1	1	6013817425	414	4.7	1000	1															
				231	20	55	0	1	1232681196	366	4.3	50	1															
				232	20	29	2	1	1239967668	371	3.4	50	1															
				233	20	13	0	1	1250268932	375	3.4	50	1															
				234	20	27	2	1	1263634018	381	4.7	50	1															
				235	20	44	0	1	1280112510	385	5.1	50	1															
				236	20	55	0	1	1299753962	390	3.5	50	1															
				237	20	18	2	1	1322608489	394	3	50	1															
				238	20	40	1	1	1348726216	400	3.1	50	1															
				239	20	42	1	1	1378157629	404	3.7	50	1															
boss				240	30	203	1	1	8465721162	462	4.8	1000	1															
				241	20	17	2	1	1447164868	414	4.5	50	1															
				242	20	28	1	1	1486842982	418	3.5	50	1															
				243	20	33	2	1	1530039402	424	3.6	50	1															
				244	20	16	1	1	1576805873	429	3.7	50	1															
				245	20	33	2	1	1627194458	433	3.7	50	1															
				246	20	24	2	1	1681257526	438	4.9	50	1															
				247	20	34	2	1	1739047662	444	4.1	50	1															
				248	20	21	0	1	1800617660	448	3.8	50	1															
				249	20	55	1	1	1866020634	453	4	50	1															
boss				250	30	204	1	1	11611860299	511	5.5	1000	1															
				251	20	49	1	1	2195125005	464	3	50	1															
				252	20	54	1	1	2208779052	469	4.9	50	1															
				253	20	22	0	1	2228584843	473	3.2	50	1															
				254	20	39	2	1	2254637275	478	4.1	50	1															
				255	20	19	0	1	2287031956	484	4.1	50	1															
				256	20	51	1	1	2325864790	489	5.2	50	1															
				257	20	27	2	1	2371232289	494	5	50	1															
				258	20	36	2	1	2423231274	499	3.6	50	1															
				259	20	1	1	1	2481959264	505	4.6	50	1															
boss				260	30	202	1	1	15285084939	562	4.1	1000	1															
				261	20	46	0	1	2619994205	515	5	50	1															
				262	20	28	0	1	2699498376	520	5	50	1															
				263	20	1	0	1	2786125950	526	4.3	50	1															
				264	20	48	0	1	2879976799	531	5.2	50	1															
				265	20	37	0	1	2981151097	536	5	50	1															
				266	20	45	1	1	3089749735	541	3.9	50	1															
				267	20	36	0	1	3205873970	547	4.7	50	1															
				268	20	34	2	1	3329625419	552	3	50	1															
				269	20	22	2	1	3461106417	557	4.4	50	1															
boss				270	30	201	1	1	21602517593	616	4.2	1000	1															
				271	20	30	0	1	3948110710	569	4.2	50	1															
				272	20	25	1	1	3970711191	574	3.8	50	1															
				273	20	5	0	1	4001977036	579	3.2	50	1															
				274	20	28	2	1	4042035331	584	5.4	50	1															
				275	20	30	1	1	4091013732	591	5.3	50	1															
				276	20	11	0	1	4149040424	596	3.4	50	1															
				277	20	7	1	1	4216244284	601	3.3	50	1															
				278	20	12	0	1	4292754849	606	5.5	50	1															
				279	20	0	2	1	4378702204	613	4.2	50	1															
boss				280	30	205	1	1	26845302009	670	3.1	1000	1															
				281	20	42	1	1	4579430543	623	3.3	50																
				282	20	23	1	1	4759838779	630	3.7	50																
				283	20	6	2	1	4941824459	635	5.1	50																
				284	20	11	2	1	5125392966	641	4.4	50																
				285	20	24	1	1	5310549699	646	4.5	50																
				286	20	53	0	1	5497300052	652	3	50																
				287	20	6	0	1	5685649412	658	3.3	50																
				288	20	1	0	1	5875603184	663	4.5	50																
				289	20	17	0	1	6067166751	669	5.1	50																
boss				290	30	203	1	1	43090325629	727	5.4	1000																
				291	20	1	1	1	6455144859	681	5.2	50																
				292	20	19	1	1	6651570182	686	3.6	50																
				293	20	12	0	1	6849626884	693	4.3	50																
				294	20	20	0	1	7049320349	699	5.3	50																
				295	20	9	2	1	7250655975	704	4.9	50																
				296	20	25	2	1	7453639151	710	4.1	50																
				297	20	5	1	1	7658275281	716	3.2	50																
				298	20	16	0	1	7864569747	722	4.3	50																
				299	20	40	2	1	8072527949	728	4.1	50																
boss				300	30	252	1	1	49723000934	786	5.4	100																
																												
				301	0	301	1	1	90001	100	0	1	508	508														
				302	0	302	1	1	153001	120	0	1	508	508														
				303	0	303	1	1	273601	140	0	1	508	508	508													
				304	0	304	1	1	514082	160	0	1	2	2														
				305	0	305	1	1	957170	180	0	1	2	2	2													
				306	0	306	1	1	1768682	200	0	1	3	3														
				307	0	307	1	1	4870951	220	0	1	3	3	3													
				308	0	308	1	1	11858656	240	0	1	4															
				309	0	309	1	1	26937549	260	0	1	4	4														
				310	0	310	1	1	61938983	280	0	1	508	508	508													
				311	0	311	1	1	157662862	300	0	1	508	508														
				312	0	312	1	1	450014845	320	0	1	5															
																												
				397	0	397	0	0.75	1	1	3																	
				398	0	398	2	0.75	1	1	3																	
				399	0	399	2	1	9999999	85	0																	