81	1	0	8.5	0	40	13	1	1	270 	0	2.8	5						6	0	0	-30.7	5000	20	2000	0	20
55	1	10	2.5	1	40	38	1	1	514	3	2.2	5	1	1				4	17	50.93	-5.25	5001	18	2000	0	3
25	1	5	-6.5	2	40	26	0	1	689	6	2.1	6	1	1				4	35	33.95	3.23	1501	1	460	1	
35	1	-5	-6.5	3	40	8	1	1	929	9	3.2	6	1	1				4	47	22.64	-2.43	5005	2	460	1	
	1	-10	2.5	4	40	13	1	1	1502	12	2.0	7	1	1				4	59	-11.32	14.54	5005	2	460	1	
				5	40	7	0	1	1927	15	3.5	7	1	1				5	0	-28.3	6.05	1501	1	460	2	
				6	40	44	0	1	2538	18	2.6	8	1	1				11	0	-33.95	8.88	1502	1	460	2	
				7	40	33	2	1	3156	20	2.5	8	1	1				12	0	-50.93	0.4	5005	2	460	2	
				8	40	33	0	1	3765	23	2.9	9	1	1				13	0	-22.64	-13.74	1501	1	460	3	
				9	40	3	2	1	4240	26	2.2	9	1	1						-28.3	-16.56	1502	1	460	3	
boss				10	45	200	1	1	19104	79	2.5	1000	1	1						0	-30.7	5005	2	460	3	
				11	40	19	0	1	5312	32	2.8	10	1	1								1501	1	2000	4	
				12	40	11	1	1	6032	35	2.4	10	1	1						0	31.5	1502	1	460	4	
				13	40	24	0	1	6956	38	2.1	11	1	1						45.27	8.88	1503	1	360	4	
				14	40	43	2	1	7970	41	3.4	11	1	1						22.64	-2.43	5005	2	460	4	
				15	40	13	1	1	8961	44	2.0	12	1	1						-11.32	14.54	504	1	460	5	
				16	40	13	0	1	10943	47	2.7	12	1	1						-28.3	6.05	504	1	460	5	
				17	40	19	0	1	12249	50	2.8	13	1	1						-39.61	11.71	504	1	460	5	
				18	40	38	0	1	14081	53	3.4	13	1	1						0	31.5	504	1	460	5	
				19	40	34	0	1	16330	55	3.2	14	1	1								505	1	460	5	
boss				20	45	201	1	1	103725	108	2.1	2000	1	1								505	1	460	5	
				21	40	18	1	1	25177	61	3.3	15	1	1								506	1	360	5	
				22	40	25	0	1	27796	64	3.1	15	1	1								1501	1	2000	5	
				23	40	37	1	1	30776	67	2.8	16	1	1								1502	1	2000	5	
				24	40	24	0	1	1	70	3.3	16	1	1								1502	1	2000	5	
				25	40	7	2	1	35547	73	3.2	17	1	1								5000	1200	2000	5	
				26	40	36	1	1	39071	76	2.8	17	1	1								5001	1352	2000	5	
				27	40	23	2	1	40447	79	2.3	18	1	1								5005	19	2000	5	
				28	40	46	2	1	41896	82	3.0	18	1	1								5005	2	460	5	
				29	40	1	2	1	43414	85	2.3	19	1	1								5001	250	2000	6	
boss				30	45	202	1	1	232235	138	2.2	3000	1	1								5005	8	2000	7	
				31	40	18	2	1	49491	91	2.3	20	1	1								1503	1	2000	8	
				32	40	14	1	1	52252	93	3.3	20	1	1								-1				
				33	40	43	1	1	55493	96	2.2	21	1	1												
				34	40	38	0	1	58884	99	2.9	21	1	1												
				35	40	29	0	1	81471	102	2.3	22	1	1												
				36	40	2	1	1	84056	105	3.4	22	1	1												
				37	40	24	1	1	86541	108	2.3	23	1	1												
				38	40	25	0	1	88930	111	3.0	23	1	1												
				39	40	4	2	1	91320	114	2.3	24	1	1												
boss				40	45	203	1	1	560710	167	2.2	4000	1	1												
				41	40	44	2	1	133046	120	2.2	25	1	1												
				42	40	8	1	1	137635	123	2.3	25	1	1												
				43	40	2	1	1	141907	126	2.3	26	1	1												
				44	40	11	0	1	146006	128	3.1	26	1	1												
				45	40	34	1	1	149989	131	2.1	27	1	1												
				46	40	24	1	1	153765	134	2.3	27	1	1												
				47	40	25	2	1	157708	137	2.5	28	1	1												
				48	40	6	2	1	161659	140	2.6	28	1	1												
				49	40	26	2	1	1	143	2.1	29	1	1												
boss				50	45	200	1	1	1011190	196	3.0	5000	1	1												
				51	40	36	2	1	238995	149	2.2	30	1	1												
				52	40	42	2	1	244719	152	3.5	30	1	1												
				53	40	36	0	1	250697	155	2.0	31	1	1												
				54	40	13	1	1	257112	158	3.2	31	1	1												
				55	40	44	2	1	264157	161	2.2	32	1	1												
				56	40	3	2	1	271835	164	2.7	32	1	1												
				57	40	24	1	1	280187	166	3.3	33	1	1												
				58	40	47	0	1	289140	169	2.9	33	1	1												
				59	40	16	2	1	298493	172	3.4	34	1	1												
boss				60	45	202	1	1	1848384	225	2.3	6000	1	1												
				61	40	10	1	1	317671	178	2.4	35	1	1												
				62	40	23	0	1	327350	181	2.7	35	1	1												
				63	40	12	1	1	336717	184	3.3	36	1	1												
				64	40	5	0	1	345101	187	3.3	36	1	1												
				65	40	28	1	1	353159	190	2.0	37	1	1												
				66	40	37	2	1	361098	193	3.2	38	1	1												
				67	40	47	1	1	368681	196	3.2	38	1	1												
				68	40	41	1	1	375999	199	3.4	39	1	1												
				69	40	17	1	1	383274	201	2.2	39	1	1												
boss				70	45	203	1	1	2735747	253	2.6	7000	1	1												
				71	40	10	1	1	398394	205	2.4	35	1	1												
				72	40	23	0	1	406272	207	2.7	35	1	1												
				73	40	12	1	1	414337	209	3.3	36	1	1												
				74	40	5	0	1	422463	211	3.3	36	1	1												
				75	40	28	1	1	430757	213	2.0	37	1	1												
				76	40	37	2	1	439085	215	3.2	38	1	1												
				77	40	47	1	1	448159	217	3.2	38	1	1												
				78	40	41	1	1	457781	219	3.4	39	1	1												
				79	40	17	1	1	468220	221	2.2	39	1	1												
boss				80	45	203	1	1	3383709	273	2.6	7000	1	1												
																										
				301	0	301	1	1	62424	50	0	1	508	508	508	508										
				302	0	302	1	1	96757	70	0	1	508	508	508	508										
				303	0	303	1	1	149973	100	0	1	508	508	508	508										
				304	0	304	1	1	232458	150	0	1	2	2	2	3										
				305	0	305	1	1	360309	170	0	1	2	2	3	3										
				306	0	306	1	1	558478	200	0	1	2	3	3	3										
				307	0	307	1	1	865640	220	0	1	4													
				308	0	308	1	1	1341742	240	0	1	4	4												
				309	0	309	1	1	2079700	270	0	1	4	4	4											
				310	0	310	1	1	3223535	300	0	1	5													
																										
				397	0	397	0	0.75	1	1	3															
				398	0	398	2	0.75	1	1	3															
				399	0	399	2	1	9999999	85	0															