91	1	0	8.5	0	40	30	1	1	290	0	3.3	5						6	0	0	25.85	5000	22	2000	0	22
55	1	10	2.5	1	40	53	0	1	564	3	3.5	5	1	1				4	20	-28.3	11.71	5001	20	2000	0	3
25	1	5	-6.5	2	40	17	0	1	757	7	3	6	1	1				4	40	0	-2.43	1501	1	460	1	
35	1	-5	-6.5	3	40	54	2	1	1021	10	3.7	6	1	1				4	54	28.3	11.71	5005	1	460	1	
	1	-10	2.5	4	40	2	0	1	1655	13	3.2	7	1	1				4	67	0	25.85	1501	1	460	2	
				5	40	39	0	1	2124	17	2.6	7	1	1				5	0			1502	1	460	2	
				6	40	44	0	1	2798	20	2.9	8	1	1				11	0	-28.3	11.71	5005	1	460	2	
				7	40	41	0	1	3481	23	3.8	8	1	1				12	0	-56.59	-2.43	5005	2	460	2	
				8	40	34	2	1	4154	27	3	9	1	1				13	0	-28.3	-16.56	1501	1	460	3	
				9	40	5	1	1	4678	30	2.9	9	1	1						0	-2.43	1502	1	460	3	
boss				10	45	204	1	1	42168	83	2.8	1000	1	1						-28.3	11.71	1503	1	360	3	
				11	40	44	1	1	5863	37	3.5	10	1	1								5005	2	460	3	
				12	40	18	2	1	6658	40	3	10	1	1						28.3	11.71	5005	2	460	3	
				13	40	40	0	1	7679	43	3	11	1	1						0	-2.43	1501	1	2000	4	
				14	40	19	2	1	8799	46	3.7	11	1	1						28.3	-16.56	1502	1	460	4	
				15	40	46	2	1	9991	50	3.5	12	1	1						56.59	-2.43	1503	1	360	4	
				16	40	32	1	1	12325	53	2.8	12	1	1						28.3	11.71	5005	2	460	4	
				17	40	19	1	1	13933	56	3.8	13	1	1								5005	2	460	4	
				18	40	30	2	1	16177	60	3.7	13	1	1								504	1	460	5	
				19	40	16	0	1	18944	63	3.4	14	1	1								504	1	460	5	
boss				20	45	203	1	1	121540	116	3.3	2000	1	1								504	1	460	5	
				21	40	35	0	1	29795	70	2.7	15	1	1								505	1	460	5	
				22	40	40	1	1	33218	73	2.5	15	1	1								505	1	460	5	
				23	40	22	1	1	37144	76	3.5	16	1	1								505	1	460	5	
				24	40	54	1	1	1	80	3.8	16	1	1								506	1	360	5	
				25	40	51	0	1	43754	83	4	17	1	1								1501	1	2000	5	
				26	40	14	0	1	48563	86	3.5	17	1	1								1502	1	2000	5	
				27	40	6	1	1	50768	90	3.7	18	1	1								1502	1	2000	5	
				28	40	57	1	1	53105	93	3.6	18	1	1								1503	1	2000	5	
				29	40	30	0	1	55568	96	3.3	19	1	1								5000	1411	2000	5	
boss				30	45	205	1	1	300170	150	3.2	3000	1	1								5001	1642	2000	5	
				31	40	15	1	1	64595	103	4	20	1	1								5005	23	2000	5	
				32	40	32	1	1	68865	106	4	20	1	1								5005	2	460	5	
				33	40	50	1	1	73851	110	3.3	21	1	1								5001	300	2000	6	
				34	40	14	1	1	79130	113	3.4	21	1	1								506	1	2000	7	
				35	40	40	2	1	110552	116	2.7	22	1	1								5005	9	2000	8	
				36	40	7	1	1	115171	120	3.7	22	1	1								-1				
				37	40	37	2	1	119729	123	2.9	23	1	1												
				38	40	7	0	1	124231	126	2.8	23	1	1												
				39	40	34	2	1	128809	129	3.2	24	1	1												
boss				40	45	200	1	1	798585	183	3.9	4000	1	1												
				41	40	57	0	1	191326	136	4	25	1	1												
				42	40	19	1	1	199845	139	3.6	25	1	1												
				43	40	48	0	1	208041	143	3.3	26	1	1												
				44	40	35	1	1	216119	146	3.1	26	1	1												
				45	40	38	1	1	224157	149	3.1	27	1	1												
				46	40	6	0	1	232021	153	3.7	27	1	1												
				47	40	39	1	1	240265	156	3.6	28	1	1												
				48	40	19	1	1	248650	159	2.9	28	1	1												
				49	40	22	0	1	1	163	3.6	29	1	1												
boss				50	45	205	1	1	1585405	216	3	5000	1	1												
				51	40	59	0	1	378312	169	2.5	30	1	1												
				52	40	19	0	1	391089	173	3.6	30	1	1												
				53	40	14	0	1	404480	176	4	31	1	1												
				54	40	8	2	1	418801	179	3.4	31	1	1												
				55	40	5	1	1	434397	183	3.5	32	1	1												
				56	40	31	2	1	451292	186	3	32	1	1												
				57	40	55	0	1	469596	189	3.9	33	1	1												
				58	40	48	1	1	489225	193	2.7	33	1	1												
				59	40	34	2	1	509863	196	3.1	34	1	1												
boss				60	45	203	1	1	3187320	249	3.3	6000	1	1												
				61	40	53	0	1	552999	203	2.6	35	1	1												
				62	40	6	1	1	575262	206	3.4	35	1	1												
				63	40	50	2	1	597339	209	3.5	36	1	1												
				64	40	40	1	1	618019	212	3.4	36	1	1												
				65	40	33	1	1	638437	216	3.8	37	1	1												
				66	40	2	2	1	658972	219	3.8	38	1	1												
				67	40	55	0	1	679173	222	3.4	38	1	1												
				68	40	52	1	1	699195	226	2.6	39	1	1												
				69	40	45	0	1	719452	229	2.7	39	1	1												
boss				70	45	202	1	1	5183752	282	3.4	7000	1	1												
				71	40	47	2	1	761995	236	3.9	40	1	1												
				72	40	20	2	1	784378	239	4	40	1	1												
				73	40	7	2	1	807471	242	2.6	41	1	1												
				74	40	48	1	1	831042	246	2.9	41	1	1												
				75	40	33	1	1	855309	249	2.9	42	1	1												
				76	40	9	1	1	880024	252	2.5	42	1	1												
				77	40	28	1	1	906620	256	3	43	1	1												
				78	40	27	0	1	934754	259	3.6	43	1	1												
				79	40	41	2	1	965011	262	3.9	44	1	1												
boss				80	45	204	1	1	7039025	315	3.8	8000	1	1												
				81	40	47	2	1	1046917	268	3.9	40	1	1												
				82	40	20	2	1	1098470	271	4	40	1	1												
				83	40	7	2	1	1152721	274	2.6	41	1	1												
				84	40	48	1	1	1206074	277	2.9	41	1	1												
				85	40	33	1	1	1262181	280	2.9	42	1	1												
				86	40	9	1	1	1317883	283	2.5	42	1	1												
				87	40	28	1	1	1372994	286	3	43	1	1												
				88	40	27	0	1	1429134	289	3.6	43	1	1												
				89	40	41	2	1	1485755	292	3.9	44	1	1												
boss				90	45	204	1	1	10793748	345	3.8	8000	1	1												
																										
				301	0	301	1	1	83886	50	0	1	508	508	508	508										
				302	0	302	1	1	130023	70	0	1	508	508	508	508										
				303	0	303	1	1	201535	100	0	1	508	508	508	508										
				304	0	304	1	1	312379	150	0	1	2	2	2	3										
				305	0	305	1	1	484187	170	0	1	2	2	3	3										
				306	0	306	1	1	750489	200	0	1	2	3	3	3										
				307	0	307	1	1	1163257	220	0	1	4													
				308	0	308	1	1	1803048	240	0	1	4	4												
				309	0	309	1	1	2794724	270	0	1	4	4	4											
				310	0	310	1	1	4331822	300	0	1	5													
																										
				397	0	397	0	0.75	1	1	3															
				398	0	398	2	0.75	1	1	3															
				399	0	399	2	1	9999999	85	0															