91	1	0	8.5	0	40	48	0	1	292 	0	4.0	5						6	0	-22.64	-2.43	5000	22	2000	0	22
55	1	10	2.5	1	40	40	0	1	569	3	3.4	5	1	1				4	20	-33.95	3.23	5001	20	2000	0	4
25	1	5	-6.5	2	40	13	2	1	764	7	3.1	6	1	1				4	40	-50.93	-5.25	1501	1	480	1	
35	1	-5	-6.5	3	40	28	2	1	1031	10	2.9	6	1	1				4	54	-22.64	-19.39	5005	1	480	1	
	1	-10	2.5	4	40	21	0	1	1671	13	3.8	7	1	1				4	67	5.66	-5.25	1501	1	480	2	
				5	40	24	2	1	2145	17	2.7	7	1	1				5	0	-11.32	3.23	1502	1	480	2	
				6	40	0	1	1	2825	20	3.1	8	1	1				11	0	-22.64	-2.43	5005	1	480	2	
				7	40	42	1	1	3515	24	3.5	8	1	1				12	0			5005	2	480	2	
				8	40	26	1	1	4195	27	2.6	9	1	1				13	0	0	20.19	1501	1	480	3	
				9	40	34	2	1	4724	30	2.7	9	1	1						-11.32	25.85	1502	1	480	3	
boss				10	45	200	1	1	21292	84	2.9	1000	1	1						-28.3	17.36	1503	1	380	3	
				11	40	48	2	1	5921	37	3.6	10	1	1						0	3.23	5005	2	480	3	
				12	40	9	1	1	6724	40	2.9	10	1	1						28.3	17.36	5005	2	480	3	
				13	40	48	2	1	7755	44	3.4	11	1	1						11.32	25.85	1501	1	2000	4	
				14	40	53	2	1	8886	47	3.9	11	1	1						0	20.19	1502	1	480	4	
				15	40	6	0	1	10100	50	3.4	12	1	1								1503	1	380	4	
				16	40	41	0	1	12472	54	3.5	12	1	1						22.64	-2.43	5005	2	480	4	
				17	40	38	1	1	14114	57	2.8	13	1	1						11.32	3.23	5005	2	480	4	
				18	40	10	0	1	16403	60	3.7	13	1	1						-5.66	-5.25	504	1	480	5	
				19	40	13	2	1	19228	64	3.0	14	1	1						22.64	-19.39	504	1	480	5	
boss				20	45	201	1	1	123480	117	2.5	2000	1	1						50.93	-5.25	504	1	480	5	
				21	40	9	2	1	30301	71	2.9	15	1	1						33.95	3.23	505	1	480	5	
				22	40	22	1	1	33815	74	2.9	15	1	1						22.64	-2.43	505	1	480	5	
				23	40	55	0	1	37849	77	2.6	16	1	1								505	1	480	5	
				24	40	24	2	1	1	81	4.0	16	1	1								506	1	380	5	
				25	40	58	2	1	44672	84	2.6	17	1	1								1501	1	2000	5	
				26	40	12	1	1	49631	87	2.6	17	1	1								1502	1	2000	5	
				27	40	58	0	1	51935	91	3.8	18	1	1								1502	1	2000	5	
				28	40	41	1	1	54379	94	3.5	18	1	1								1503	1	2000	5	
				29	40	59	0	1	56957	97	2.9	19	1	1								5000	1411	2000	5	
boss				30	45	205	1	1	307970	151	2.5	3000	1	1								5001	1686	2000	5	
				31	40	12	1	1	66339	104	2.5	20	1	1								5005	23	2000	5	
				32	40	30	0	1	70793	108	2.8	20	1	1								5005	2	480	5	
				33	40	12	0	1	75992	111	2.6	21	1	1								5001	300	2000	6	
				34	40	47	0	1	81503	114	3.4	21	1	1								506	1	2000	7	
				35	40	57	2	1	113979	118	3.6	22	1	1								5005	9	2000	8	
				36	40	32	0	1	118856	121	3.5	22	1	1								-1				
				37	40	42	2	1	123680	124	3.2	23	1	1												
				38	40	28	2	1	128454	128	3.4	23	1	1												
				39	40	2	1	1	133317	131	2.7	24	1	1												
boss				40	45	203	1	1	827330	184	3.7	4000	1	1												
				41	40	22	2	1	198405	138	3.2	25	1	1												
				42	40	47	0	1	207439	141	3.4	25	1	1												
				43	40	23	1	1	216154	144	3.6	26	1	1												
				44	40	10	0	1	224763	148	3.0	26	1	1												
				45	40	9	1	1	233347	151	2.9	27	1	1												
				46	40	0	2	1	241765	155	2.8	27	1	1												
				47	40	55	2	1	250596	158	3.8	28	1	1												
				48	40	43	0	1	259590	161	3.6	28	1	1												
				49	40	27	0	1	1	165	3.4	29	1	1												
boss				50	45	200	1	1	1658330	218	3.0	5000	1	1												
				51	40	24	2	1	396092	171	2.6	30	1	1												
				52	40	18	1	1	409861	175	3.3	30	1	1												
				53	40	21	1	1	424299	178	3.1	31	1	1												
				54	40	43	2	1	439741	181	3.4	31	1	1												
				55	40	12	0	1	456551	185	3.2	32	1	1												
				56	40	58	0	1	474759	188	3.6	32	1	1												
				57	40	40	1	1	494484	192	2.6	33	1	1												
				58	40	15	1	1	515643	195	3.1	33	1	1												
				59	40	57	1	1	537905	198	2.9	34	1	1												
boss				60	45	203	1	1	3365808	252	2.7	6000	1	1												
				61	40	52	2	1	584519	205	3.5	35	1	1												
				62	40	7	1	1	608627	208	3.0	35	1	1												
				63	40	26	0	1	632582	212	2.6	36	1	1												
				64	40	47	2	1	655100	215	2.9	36	1	1												
				65	40	33	2	1	677381	218	2.7	37	1	1												
				66	40	43	2	1	699828	222	3.9	38	1	1												
				67	40	49	2	1	721960	225	2.7	38	1	1												
				68	40	48	2	1	743943	228	2.9	39	1	1												
				69	40	43	0	1	766216	232	2.9	39	1	1												
boss				70	45	201	1	1	5525877	285	2.8	7000	1	1												
				71	40	18	1	1	813048	239	4.0	40	1	1												
				72	40	44	1	1	837715	242	3.9	40	1	1												
				73	40	54	0	1	863186	245	3.4	41	1	1												
				74	40	4	1	1	889214	249	3.7	41	1	1												
				75	40	12	1	1	916035	252	3.9	42	1	1												
				76	40	51	2	1	943385	255	3.9	42	1	1												
				77	40	42	2	1	972803	259	3.3	43	1	1												
				78	40	9	2	1	1003925	262	2.5	43	1	1												
				79	40	49	1	1	1037386	265	3.7	44	1	1												
boss				80	45	205	1	1	7573986	318	3.3	8000	1	1												
				81	40	18	1	1	1127529	271	4.0	40	1	1												
				82	40	44	1	1	1184150	274	3.9	40	1	1												
				83	40	54	0	1	1243785	277	3.4	41	1	1												
				84	40	4	1	1	1302559	280	3.7	41	1	1												
				85	40	12	1	1	1364417	283	3.9	42	1	1												
				86	40	51	2	1	1425949	286	3.9	42	1	1												
				87	40	42	2	1	1486952	289	3.3	43	1	1												
				88	40	9	2	1	1549181	292	2.5	43	1	1												
				89	40	49	1	1	1612044	295	3.7	44	1	1												
boss				90	45	202	1	1	11722004	348	3.3	8000	1	1												
																										
				301	0	301	1	1	86402	50	0	1	508	508	508	508										
				302	0	302	1	1	133923	70	0	1	508	508	508	508										
				303	0	303	1	1	207580	100	0	1	508	508	508	508										
				304	0	304	1	1	321749	150	0	1	2	2	2	3										
				305	0	305	1	1	498710	170	0	1	2	2	3	3										
				306	0	306	1	1	773000	200	0	1	2	3	3	3										
				307	0	307	1	1	1198150	220	0	1	4													
				308	0	308	1	1	1857132	240	0	1	4	4												
				309	0	309	1	1	2878554	270	0	1	4	4	4											
				310	0	310	1	1	4461758	300	0	1	5													
																										
				397	0	397	0	0.75	1	1	3															
				398	0	398	2	0.75	1	1	3															
				399	0	399	2	1	9999999	85	0															