101	1	0	8.5	0	40	24	1	1	309 	0	4.0	5						6	0	-50.93	0.4	5000	23	2000	0	23
55	1	10	2.5	1	40	51	0	1	604	4	3.6	5	1	1				4	20	-33.95	-8.08	5001	21	2000	0	1
25	1	5	-6.5	2	40	55	0	1	814	7	3.4	6	1	1				4	40	0	8.88	5005	1	420	1	
35	1	-5	-6.5	3	40	35	0	1	1101	11	3.9	6	1	1				4	54	-16.98	17.36	1501	1	420	1	
	1	-10	2.5	4	40	59	2	1	1788	15	3.7	7	1	1				4	67	-50.93	0.4	5005	2	420	2	
				5	40	46	0	1	2296	18	3.2	7	1	1				5	0			5005	2	420	2	
				6	40	23	0	1	3025	22	3.8	8	1	1				11	0	0	25.85	1501	1	420	2	
				7	40	46	0	1	3765	25	2.6	8	1	1				12	0	-16.98	17.36	1502	1	420	2	
				8	40	2	1	1	4494	29	3.4	9	1	1				13	0	16.98	0.4	5005	2	420	3	
				9	40	10	1	1	5062	33	2.9	9	1	1						33.95	8.88	5005	2	420	3	
boss				10	45	201	1	1	45624	86	2.6	1000	1	1						0	25.85	1501	1	420	3	
				11	40	48	0	1	6344	40	3.5	10	1	1								1502	1	420	3	
				12	40	65	1	1	7205	44	3.1	10	1	1						50.93	0.4	5005	2	420	4	
				13	40	2	1	1	8311	47	3.3	11	1	1						33.95	8.88	5005	2	420	4	
				14	40	23	0	1	9523	51	3.9	11	1	1						0	-8.08	1501	1	2000	4	
				15	40	38	2	1	10901	55	3.6	12	1	1						16.98	-16.56	1502	1	420	4	
				16	40	54	2	1	13554	58	3.1	12	1	1						50.93	0.4	1503	1	320	4	
				17	40	20	1	1	15446	62	2.7	13	1	1								5000	1245	2000	5	
				18	40	19	1	1	18076	66	3.5	13	1	1						0	-25.05	5001	2479	2000	5	
				19	40	25	2	1	21337	69	2.5	14	1	1						16.98	-16.56	5005	25	2000	5	
boss				20	45	200	1	1	137975	123	3.5	2000	1	1						-16.98	0.4	5005	2	420	5	
				21	40	64	0	1	34092	76	2.9	15	1	1						-33.95	-8.08	1501	1	2000	5	
				22	40	15	2	1	38309	80	3.3	15	1	1						0	-25.05	1502	1	2000	5	
				23	40	60	1	1	43176	84	3.9	16	1	1								1502	1	2000	5	
				24	40	0	2	1	1	87	3.5	16	1	1								1503	1	2000	5	
				25	40	39	0	1	51663	91	2.9	17	1	1								504	1	420	5	
				26	40	19	0	1	57794	95	2.8	17	1	1								504	1	420	5	
				27	40	52	0	1	60893	98	3.1	18	1	1								505	1	420	5	
				28	40	41	1	1	64196	102	3.1	18	1	1								505	1	420	5	
				29	40	14	1	1	67699	106	2.5	19	1	1								505	1	420	5	
boss				30	45	200	1	1	368565	159	3.1	3000	1	1								505	1	420	5	
				31	40	1	0	1	79937	113	3.4	20	1	1								506	1	320	5	
				32	40	57	0	1	85886	116	2.5	20	1	1								506	1	320	5	
				33	40	56	0	1	92824	120	3.0	21	1	1								1503	1	2000	6	
				34	40	0	1	1	100234	124	4.0	21	1	1								506	1	2000	7	
				35	40	42	0	1	141131	127	3.5	22	1	1								5005	10	2000	8	
				36	40	23	1	1	148174	131	3.4	22	1	1								-1				
				37	40	16	1	1	155236	135	4.0	23	1	1												
				38	40	51	1	1	162324	138	3.7	23	1	1												
				39	40	31	2	1	169613	142	3.5	24	1	1												
boss				40	45	205	1	1	1059710	196	3.4	4000	1	1												
				41	40	27	2	1	255857	149	2.5	25	1	1												
				42	40	52	1	1	269318	153	3.3	25	1	1												
				43	40	42	1	1	282532	157	3.0	26	1	1												
				44	40	2	0	1	295770	160	4.0	26	1	1												
				45	40	40	1	1	309137	164	3.4	27	1	1												
				46	40	7	0	1	322450	167	3.6	27	1	1												
				47	40	25	0	1	336480	171	3.7	28	1	1												
				48	40	61	1	1	350901	175	3.3	28	1	1												
				49	40	45	2	1	1	178	2.9	29	1	1												
boss				50	45	205	1	1	2271900	232	3.4	5000	1	1												
				51	40	46	1	1	546286	186	2.8	30	1	1												
				52	40	31	1	1	569067	189	4.0	30	1	1												
				53	40	13	0	1	593059	193	3.5	31	1	1												
				54	40	39	1	1	618756	197	3.3	31	1	1												
				55	40	11	2	1	646704	200	3.0	32	1	1												
				56	40	27	0	1	676988	204	2.5	32	1	1												
				57	40	48	1	1	709820	207	3.9	33	1	1												
				58	40	65	1	1	745129	211	3.2	33	1	1												
				59	40	63	2	1	782474	215	4.0	34	1	1												
boss				60	45	201	1	1	4928730	268	3.5	6000	1	1												
				61	40	41	0	1	861630	222	3.9	35	1	1												
				62	40	7	1	1	903126	226	3.4	35	1	1												
				63	40	43	0	1	944902	229	3.2	36	1	1												
				64	40	55	2	1	985024	233	2.9	36	1	1												
				65	40	39	1	1	1025271	237	3.4	37	1	1												
				66	40	28	2	1	1066256	240	2.7	38	1	1												
				67	40	6	0	1	1107246	244	2.5	38	1	1												
				68	40	9	2	1	1148496	248	4.0	39	1	1												
				69	40	52	1	1	1190685	251	4.0	39	1	1												
boss				70	45	203	1	1	8643712	305	3.4	7000	1	1												
				71	40	14	1	1	1280165	258	2.6	40	1	1												
				72	40	37	1	1	1327682	262	3.3	40	1	1												
				73	40	41	0	1	1377040	266	3.2	41	1	1												
				74	40	22	0	1	1427879	269	3.4	41	1	1												
				75	40	31	1	1	1480598	273	2.7	42	1	1												
				76	40	13	1	1	1534797	277	3.3	42	1	1												
				77	40	8	0	1	1593021	280	3.6	43	1	1												
				78	40	17	1	1	1654741	284	2.5	43	1	1												
				79	40	55	1	1	1721070	288	2.9	44	1	1												
boss				80	45	200	1	1	12647635	341	3.3	8000	1	1												
				81	40	41	1	1	1895119	295	3.4	45	1	1												
				82	40	7	1	1	2003260	298	3.2	45	1	1												
				83	40	43	0	1	2117848	302	2.9	46	1	1												
				84	40	55	0	1	2232353	306	3.4	46	1	1												
				85	40	39	1	1	2353564	309	2.7	47	1	1												
				86	40	28	1	1	2475677	313	2.5	47	1	1												
				87	40	6	0	1	2598336	317	4.0	48	1	1												
				88	40	9	1	1	2724624	320	4.0	48	1	1												
				89	40	52	1	1	2853542	324	3.4	49	1	1												
boss				90	45	203	1	1	20883821	378	2.6	49	1	1												
				91	40	41	1	1	3117057	332	3.4	45	1	1												
				92	40	7	1	1	3255808	336	3.2	45	1	1												
				93	40	43	0	1	3399163	340	2.9	46	1	1												
				94	40	55	0	1	3549148	344	3.4	46	1	1												
				95	40	39	1	1	3705583	348	2.7	47	1	1												
				96	40	28	1	1	3867874	352	2.5	47	1	1												
				97	40	6	0	1	4034519	356	4.0	48	1	1												
				98	40	9	1	1	4205690	360	4.0	48	1	1												
				99	40	52	1	1	4383136	364	3.4	49	1	1												
boss				100	45	202	1	1	31959508	418	2.6	49	1	1												
																										
				301	0	301	1	1	106259	50	0	1	508	508	508	508										
				302	0	302	1	1	164701	70	0	1	508	508	508	508										
				303	0	303	1	1	255286	100	0	1	508	508	508	508										
				304	0	304	1	1	395693	150	0	1	2	2	2	3										
				305	0	305	1	1	613324	170	0	1	2	2	3	3										
				306	0	306	1	1	950652	200	0	1	2	3	3	3										
				307	0	307	1	1	1473510	220	0	1	4													
				308	0	308	1	1	2283940	240	0	1	4	4												
				309	0	309	1	1	3540107	270	0	1	4	4	4											
				310	0	310	1	1	5487165	300	0	1	5													
																										
				397	0	397	0	0.75	1	1	3															
				398	0	398	2	0.75	1	1	3															
				399	0	399	2	1	9999999	85	0															