101	1	0	8.5	0	40	57	1	1	324 	0	2.5	5						6	0	0	31.5	5000	23	2000	0	23
55	1	10	2.5	1	40	1	0	1	634	4	3.8	5	1	1				4	20	-28.3	17.36	5001	21	2000	0	6
25	1	5	-6.5	2	40	8	1	1	854	8	3.2	6	1	1				4	40	0	3.23	1501	1	520	1	
35	1	-5	-6.5	3	40	37	1	1	1156	12	2.7	6	1	1				4	54	28.3	17.36	5005	1	520	1	
	1	-10	2.5	4	40	30	2	1	1877	15	2.5	7	1	1				4	67	0	31.5	5005	1	520	1	
				5	40	61	0	1	2410	19	3.0	7	1	1				5	0			1501	1	520	2	
				6	40	13	0	1	3177	23	3.3	8	1	1				11	0	-28.3	17.36	1502	1	520	2	
				7	40	20	0	1	3955	27	3.4	8	1	1				12	0	-62.25	0.4	5005	2	520	2	
				8	40	53	2	1	4720	31	2.8	9	1	1				13	0	-33.95	-13.74	5005	2	520	2	
				9	40	63	2	1	5318	35	3.4	9	1	1						0	3.23	1501	1	520	3	
boss				10	45	200	1	1	23968	88	3.4	1000	1	1						-28.3	17.36	1502	1	520	3	
				11	40	34	1	1	6666	42	2.6	10	1	1								5005	2	520	3	
				12	40	47	2	1	7570	46	2.8	10	1	1						28.3	17.36	5005	2	520	3	
				13	40	9	0	1	8732	50	3.4	11	1	1						0	3.23	1501	1	2000	4	
				14	40	10	2	1	10008	54	2.5	11	1	1						33.95	-13.74	1502	1	520	4	
				15	40	8	2	1	11511	58	3.3	12	1	1						62.25	0.4	1503	1	420	4	
				16	40	22	1	1	14384	61	2.8	12	1	1						28.3	17.36	5005	2	520	4	
				17	40	58	2	1	16474	65	3.8	13	1	1								5005	2	520	4	
				18	40	5	2	1	19375	69	2.7	13	1	1						0	3.23	504	1	520	5	
				19	40	34	2	1	22983	73	3.2	14	1	1						-33.95	-13.74	504	1	520	5	
boss				20	45	203	1	1	149360	127	3.0	2000	1	1						0	-30.7	505	1	520	5	
				21	40	36	2	1	37087	81	2.8	15	1	1						33.95	-13.74	505	1	520	5	
				22	40	30	1	1	41880	84	3.2	15	1	1						0	3.23	505	1	520	5	
				23	40	45	0	1	47433	88	3.2	16	1	1								505	1	520	5	
				24	40	22	1	1	1	92	3.0	16	1	1								506	1	420	5	
				25	40	11	0	1	57316	96	2.7	17	1	1								506	1	420	5	
				26	40	27	2	1	64436	100	3.1	17	1	1								1501	1	2000	5	
				27	40	10	2	1	68222	104	3.9	18	1	1								1502	1	2000	5	
				28	40	17	0	1	72275	108	2.5	18	1	1								1502	1	2000	5	
				29	40	33	2	1	76593	111	3.2	19	1	1								1503	1	2000	5	
boss				30	45	201	1	1	419020	165	2.8	3000	1	1								5000	1245	2000	5	
				31	40	11	2	1	91324	119	3.9	20	1	1								5001	2479	2000	5	
				32	40	0	1	1	98600	123	3.3	20	1	1								5005	26	2000	5	
				33	40	16	2	1	107083	127	2.6	21	1	1								5005	2	520	5	
				34	40	2	2	1	116197	131	2.9	21	1	1								1503	1	2000	6	
				35	40	62	2	1	164403	134	3.6	22	1	1								506	1	2000	7	
				36	40	49	1	1	173446	138	3.7	22	1	1								5005	10	2000	8	
				37	40	25	1	1	182594	142	3.6	23	1	1								-1				
				38	40	24	0	1	191858	146	3.0	23	1	1												
				39	40	38	2	1	201445	150	3.3	24	1	1												
boss				40	45	202	1	1	1264680	204	3.9	4000	1	1												
				41	40	23	1	1	306822	157	2.8	25	1	1												
				42	40	5	0	1	324525	161	4.0	25	1	1												
				43	40	36	2	1	342090	165	2.8	26	1	1												
				44	40	13	2	1	359846	169	3.3	26	1	1												
				45	40	9	0	1	377922	173	3.3	27	1	1												
				46	40	37	2	1	396093	177	3.7	27	1	1												
				47	40	48	0	1	415315	180	3.0	28	1	1												
				48	40	38	1	1	435195	184	3.4	28	1	1												
				49	40	65	0	1	1	188	3.7	29	1	1												
boss				50	45	201	1	1	2844755	242	2.7	5000	1	1												
				51	40	48	2	1	687309	196	3.1	30	1	1												
				52	40	5	1	1	719397	200	4.0	30	1	1												
				53	40	65	0	1	753309	204	3.0	31	1	1												
				54	40	40	0	1	789703	207	3.7	31	1	1												
				55	40	47	0	1	829310	211	2.6	32	1	1												
				56	40	18	1	1	872284	215	3.2	32	1	1												
				57	40	40	0	1	918943	219	3.1	33	1	1												
				58	40	13	0	1	969243	223	3.7	33	1	1												
				59	40	46	1	1	1022661	227	2.9	34	1	1												
boss				60	45	203	1	1	6472218	280	3.1	6000	1	1												
				61	40	15	2	1	1136827	234	3.6	35	1	1												
				62	40	59	1	1	1197225	238	2.6	35	1	1												
				63	40	33	1	1	1258536	242	3.6	36	1	1												
				64	40	28	1	1	1318182	246	3.5	36	1	1												
				65	40	64	1	1	1378525	250	3.7	37	1	1												
				66	40	24	0	1	1440400	253	3.7	38	1	1												
				67	40	65	0	1	1502830	257	3.1	38	1	1												
				68	40	24	2	1	1566162	261	2.8	39	1	1												
				69	40	23	2	1	1631339	265	3.9	39	1	1												
boss				70	45	205	1	1	11898313	319	2.8	7000	1	1												
				71	40	61	1	1	1770465	273	3.5	40	1	1												
				72	40	55	0	1	1844802	276	3.6	40	1	1												
				73	40	30	2	1	1922359	280	3.4	41	1	1												
				74	40	64	1	1	2002671	284	2.9	41	1	1												
				75	40	29	2	1	2086334	288	4.0	42	1	1												
				76	40	59	2	1	2172822	292	2.6	42	1	1												
				77	40	44	1	1	2265789	296	3.7	43	1	1												
				78	40	6	1	1	2364564	300	2.7	43	1	1												
				79	40	19	1	1	2470816	303	3.7	44	1	1												
boss				80	45	203	1	1	18241916	357	3.1	8000	1	1												
				81	40	48	2	1	2746089	311	3.7	45	1	1												
				82	40	5	1	1	2916290	315	2.9	45	1	1												
				83	40	65	0	1	3097431	319	3.1	46	1	1												
				84	40	40	0	1	3280057	323	3.6	46	1	1												
				85	40	47	0	1	3474194	326	2.6	47	1	1												
				86	40	18	1	1	3671385	330	3.6	47	1	1												
				87	40	40	0	1	3871125	334	3.5	48	1	1												
				88	40	13	0	1	4078052	338	3.7	48	1	1												
				89	40	46	1	1	4290745	342	3.7	49	1	1												
boss				90	45	203	1	1	31547047	396	3.1	49	1	1												
				91	40	48	2	1	4730338	350	3.7	45	1	1												
				92	40	5	1	1	4963672	354	2.9	45	1	1												
				93	40	65	0	1	5206084	358	3.1	46	1	1												
				94	40	40	0	1	5460801	362	3.6	46	1	1												
				95	40	47	0	1	5727698	366	2.6	47	1	1												
				96	40	18	1	1	6006001	370	3.6	47	1	1												
				97	40	40	0	1	6293502	374	3.5	48	1	1												
				98	40	13	0	1	6590579	378	3.7	48	1	1												
				99	40	46	1	1	6900099	382	3.7	49	1	1												
boss				100	45	203	1	1	50542030	436	3.1	49	1	1												
																										
				301	0	301	1	1	123180	50	0	1	508	508	508	508										
				302	0	302	1	1	190929	70	0	1	508	508	508	508										
				303	0	303	1	1	295939	100	0	1	508	508	508	508										
				304	0	304	1	1	458705	150	0	1	2	2	2	3										
				305	0	305	1	1	710992	170	0	1	2	2	3	3										
				306	0	306	1	1	1102037	200	0	1	2	3	3	3										
				307	0	307	1	1	1708157	220	0	1	4													
				308	0	308	1	1	2647643	240	0	1	4	4												
				309	0	309	1	1	4103846	270	0	1	4	4	4											
				310	0	310	1	1	6360961	300	0	1	5													
																										
				397	0	397	0	0.75	1	1	3															
				398	0	398	2	0.75	1	1	3															
				399	0	399	2	1	9999999	85	0															