101	1	0	8.5	0	40	54	0	1	330 	0	3.0	5						6	0	0	8.88	5000	23	2000	0	23
55	1	10	2.5	1	40	16	2	1	646	4	2.6	5	1	1				4	20	-22.64	20.19	5001	21	2000	0	8
25	1	5	-6.5	2	40	3	0	1	870	8	3.1	6	1	1				4	40	-62.25	0.4	1501	1	560	1	
35	1	-5	-6.5	3	40	16	2	1	1178	12	2.9	6	1	1				4	54	-39.61	-10.91	5005	1	560	1	
	1	-10	2.5	4	40	20	2	1	1913	16	3.2	7	1	1				4	67	0	8.88	5005	1	560	1	
				5	40	37	1	1	2458	20	4.0	7	1	1				5	0			1501	1	560	2	
				6	40	6	0	1	3240	24	3.9	8	1	1				11	0	16.98	0.4	1502	1	560	2	
				7	40	24	1	1	4033	27	2.7	8	1	1				12	0	-22.64	20.19	5005	2	560	2	
				8	40	9	2	1	4814	31	3.8	9	1	1				13	0	0	31.5	5005	2	560	2	
				9	40	29	0	1	5424	35	2.8	9	1	1						39.61	11.71	1501	1	560	3	
boss				10	45	203	1	1	24444	89	3.8	1000	1	1						16.98	0.4	1502	1	560	3	
				11	40	12	2	1	6799	43	3.7	10	1	1								5005	2	560	3	
				12	40	53	1	1	7721	47	3.3	10	1	1						0	-8.08	5005	2	560	3	
				13	40	3	2	1	8907	51	3.4	11	1	1						39.61	11.71	1501	1	2000	4	
				14	40	54	1	1	10209	55	3.4	11	1	1						62.25	0.4	1502	1	560	4	
				15	40	32	0	1	11765	59	4.0	12	1	1						22.64	-19.39	1503	1	460	4	
				16	40	1	0	1	14730	63	3.9	12	1	1						0	-8.08	5005	2	560	4	
				17	40	52	0	1	16904	67	2.5	13	1	1								5005	2	560	4	
				18	40	34	1	1	19921	71	3.9	13	1	1						-16.98	0.4	504	1	560	5	
				19	40	55	0	1	23676	74	3.5	14	1	1						22.64	-19.39	504	1	560	5	
boss				20	45	201	1	1	154170	128	3.4	2000	1	1						0	-30.7	505	1	560	5	
				21	40	60	1	1	38358	82	3.5	15	1	1						-39.61	-10.91	505	1	560	5	
				22	40	10	2	1	43400	86	3.5	15	1	1						-16.98	0.4	505	1	560	5	
				23	40	37	2	1	49252	90	2.7	16	1	1								505	1	560	5	
				24	40	27	2	1	1	94	2.9	16	1	1								506	1	460	5	
				25	40	56	2	1	59747	98	4.0	17	1	1								506	1	460	5	
				26	40	2	0	1	67301	102	3.4	17	1	1								1501	1	2000	5	
				27	40	8	0	1	71396	106	3.4	18	1	1								1502	1	2000	5	
				28	40	13	1	1	75785	110	3.6	18	1	1								1502	1	2000	5	
				29	40	9	1	1	80469	114	3.0	19	1	1								1503	1	2000	5	
boss				30	45	204	1	1	441085	168	2.7	3000	1	1								5000	1245	2000	5	
				31	40	3	2	1	96321	122	3.2	20	1	1								5001	2479	2000	5	
				32	40	21	2	1	104198	125	2.8	20	1	1								5005	26	2000	5	
				33	40	5	1	1	113383	129	3.1	21	1	1								5005	2	560	5	
				34	40	31	1	1	123272	133	2.5	21	1	1								1503	1	2000	6	
				35	40	34	2	1	174753	137	3.9	22	1	1								506	1	2000	7	
				36	40	33	2	1	184723	141	2.8	22	1	1								5005	10	2000	8	
				37	40	2	0	1	194843	145	3.1	23	1	1								-1				
				38	40	31	0	1	205125	149	3.4	23	1	1												
				39	40	30	2	1	215792	153	3.6	24	1	1												
boss				40	45	201	1	1	1357370	207	3.4	4000	1	1												
				41	40	47	2	1	329946	161	2.7	25	1	1												
				42	40	22	0	1	349656	165	3.8	25	1	1												
				43	40	14	0	1	369292	169	3.2	26	1	1												
				44	40	23	2	1	389208	172	3.6	26	1	1												
				45	40	0	0	1	409546	176	3.8	27	1	1												
				46	40	50	2	1	430062	180	3.0	27	1	1												
				47	40	15	2	1	451799	184	2.8	28	1	1												
				48	40	44	2	1	474334	188	3.0	28	1	1												
				49	40	13	0	1	1	192	3.7	29	1	1												
boss				50	45	201	1	1	3112485	246	3.0	5000	1	1												
				51	40	48	1	1	753433	200	4.0	30	1	1												
				52	40	30	0	1	790116	204	3.2	30	1	1												
				53	40	34	0	1	828941	208	3.4	31	1	1												
				54	40	2	2	1	870647	212	3.9	31	1	1												
				55	40	25	2	1	916055	216	3.9	32	1	1												
				56	40	59	2	1	965359	220	3.2	32	1	1												
				57	40	57	1	1	1018931	223	3.1	33	1	1												
				58	40	18	1	1	1076747	227	3.1	33	1	1												
				59	40	2	2	1	1138246	231	3.8	34	1	1												
boss				60	45	201	1	1	7217400	285	4.0	6000	1	1												
				61	40	33	0	1	1270118	239	3.2	35	1	1												
				62	40	61	0	1	1340130	243	2.9	35	1	1												
				63	40	35	1	1	1411423	247	3.4	36	1	1												
				64	40	27	1	1	1481108	251	3.4	36	1	1												
				65	40	6	2	1	1551834	255	3.6	37	1	1												
				66	40	18	2	1	1624545	259	2.6	38	1	1												
				67	40	43	0	1	1698151	263	2.7	38	1	1												
				68	40	14	2	1	1773045	267	3.8	39	1	1												
				69	40	53	1	1	1850305	270	3.0	39	1	1												
boss				70	45	201	1	1	13520717	324	2.9	7000	1	1												
				71	40	43	0	1	2015654	278	3.2	40	1	1												
				72	40	62	0	1	2104224	282	3.4	40	1	1												
				73	40	10	2	1	2196796	286	3.4	41	1	1												
				74	40	64	0	1	2292856	290	3.8	41	1	1												
				75	40	25	0	1	2393109	294	3.6	42	1	1												
				76	40	22	1	1	2496972	298	2.6	42	1	1												
				77	40	17	0	1	2608667	302	2.6	43	1	1												
				78	40	44	2	1	2727467	306	4.0	43	1	1												
				79	40	49	2	1	2855336	310	3.1	44	1	1												
boss				80	45	205	1	1	21120050	364	2.6	8000	1	1												
				81	40	3	2	1	3185267	318	2.6	45	1	1												
				82	40	21	2	1	3388973	321	2.7	45	1	1												
				83	40	5	1	1	3606156	325	3.8	46	1	1												
				84	40	31	1	1	3825857	329	3.0	46	1	1												
				85	40	34	2	1	4059806	333	2.9	47	1	1												
				86	40	33	2	1	4298177	337	3.2	47	1	1												
				87	40	2	0	1	4540399	341	3.4	48	1	1												
				88	40	31	0	1	4791939	345	3.4	48	1	1												
				89	40	30	2	1	5051171	349	3.8	49	1	1												
boss				90	45	201	1	1	37206456	403	3.6	49	1	1												
				91	40	3	2	1	5589220	357	2.6	45	1	1												
				92	40	21	2	1	5875716	361	2.7	45	1	1												
				93	40	5	1	1	6174003	365	3.8	46	1	1												
				94	40	31	1	1	6487977	369	3.0	46	1	1												
				95	40	34	2	1	6817569	373	2.9	47	1	1												
				96	40	33	2	1	7161939	377	3.2	47	1	1												
				97	40	2	0	1	7518525	381	3.4	48	1	1												
				98	40	31	0	1	7887841	385	3.4	48	1	1												
				99	40	30	2	1	8273390	389	3.8	49	1	1												
boss				100	45	202	1	1	60711882	443	3.6	49	1	1												
																										
				301	0	301	1	1	130681	50	0	1	508	508	508	508										
				302	0	302	1	1	202555	70	0	1	508	508	508	508										
				303	0	303	1	1	313960	100	0	1	508	508	508	508										
				304	0	304	1	1	486638	150	0	1	2	2	2	3										
				305	0	305	1	1	754288	170	0	1	2	2	3	3										
				306	0	306	1	1	1169146	200	0	1	2	3	3	3										
				307	0	307	1	1	1812176	220	0	1	4													
				308	0	308	1	1	2808872	240	0	1	4	4												
				309	0	309	1	1	4353751	270	0	1	4	4	4											
				310	0	310	1	1	6748314	300	0	1	5													
																										
				397	0	397	0	0.75	1	1	3															
				398	0	398	2	0.75	1	1	3															
				399	0	399	2	1	9999999	85	0															