#0		
0	0	0
2	1	8
12	1	5
1	2	9
#1		
0	0	0
1	2	7
3	1	10
12	2	5
#2		
0	0	0
1	2	7
14	5	5
4	1	8
#3		
0	0	0
14	1	5
5	5	5
1	1	11
#4		
0	0	0
1	1	9
11	1	5
14	2	5
#5		
0	0	0
7	4	5
1	1	20
11	2	5
#6		
0	0	0
14	4	5
1	1	20
13	2	5
#7		
0	0	0
9	1	5
13	1	5
1	1	11
#10		
0	0	0
3	1	12
15	2	5
1	9	150
#11		
0	0	0
3	4	5
11	5	5
1	9	225
#12		
0	0	0
1	2	9
7	5	5
7	2	5
#13		
0	0	0
7	1	10
1	1	12
11	2	5
#14		
0	0	0
15	4	5
6	2	7
1	6	25
#15		
0	0	0
1	1	10
13	5	5
1	2	11
#16		
0	0	0
5	4	5
1	8	30
5	1	9
#17		
0	0	0
12	4	5
5	9	40
0	105	5
#18		
0	0	0
2	9	40
1	3	7
2	2	8
#19		
0	0	0
1	2	8
15	5	5
1	3	8
#20		
0	0	0
4	2	4
15	1	10
1	1	15
#21		
0	0	0
8	1	8
1	9	75
13	2	5
#22		
0	0	0
8	1	8
12	1	10
1	2	9
#23		
0	0	0
1	2	7
9	5	5
1	1	15
#50		
0	0	0
3	2	5
1	9	150
12	2	5
#51		
0	0	0
1	1	12
16	1	10
0	104	1
#52		
0	0	0
1	2	11
3	1	13
1	9	550
#53		
0	0	0
13	4	5
3	9	50
1	6	15
#54		
0	0	0
1	9	75
7	2	8
7	9	75
#55		
0	0	0
7	1	12
12	5	5
1	11	15
#56		
0	0	0
1	9	450
1	1	12
16	2	10
#57		
0	0	0
16	1	8
1	2	10
1	1	11
#58		
0	0	0
2	4	5
1	1	13
1	3	14
#59		
0	0	0
1	1	11
8	1	11
1	9	55
#60		
0	0	0
11	4	5
1	6	25
2	3	5
#61		
0	0	0
1	2	9
1	9	105
5	2	8
#62		
0	0	0
1	1	11
1	9	215
5	2	8
#63		
0	0	0
1	7	50
16	5	5
0	104	1
#64		
0	0	0
1	2	8
20	2	5
1	1	15
#65		
0	0	0
6	4	5
13	1	10
1	9	135
#66		
0	0	0
6	2	4
1	1	13
16	1	12
#67		
0	0	0
6	9	50
6	1	12
6	2	8
#68		
0	0	0
1	1	13
11	1	10
4	1	12
#69		
0	0	0
16	4	5
4	5	5
1	2	11
#70		
0	0	0
8	4	5
8	2	7
1	9	115
#71		
0	0	0
9	1	7
9	2	8
1	1	14
#72		
0	0	0
1	2	8
1	1	13
16	11	10
#73		
0	0	0
16	8	10
1	1	11
16	6	10
#74		
0	0	0
1	1	13
16	7	10
1	9	233
#75		
0	0	0
1	7	50
1	2	100
1	1	100
#98		
0	0	0
20	5	3
20	3	2
20	1	5
#99		
0	0	0
0	0	0
0	0	0
0	0	0
#100		
0	0	0
17	9	125
3	2	7
17	1	15
#101		
0	0	0
8	1	13
0	102	4
1	1	20
#102		
0	0	0
3	9	75
1	1	18
1	9	450
#103		
0	0	0
12	9	100
1	10	200
3	1	15
#104		
0	0	0
17	1	9
1	10	200
1	3	7
#105		
0	0	0
1	3	2
7	3	3
0	105	5
#106		
0	0	0
7	1	13
1	11	10
1	7	25
#107		
0	0	0
1	1	15
1	6	15
7	2	12
#108		
0	0	0
9	4	5
1	12	100
0	102	6
#109		
0	0	0
17	1	9
1	2	11
2	3	10
#110		
0	0	0
1	1	12
2	5	5
1	3	7
#111		
0	0	0
0	102	2
2	1	12
1	12	25
#112		
0	0	0
1	9	175
17	1	12
1	1	21
#113		
0	0	0
1	3	2
1	8	20
17	2	12
#114		
0	0	0
1	7	15
20	1	10
1	9	380
#115		
0	0	0
1	9	225
5	1	13
1	7	25
#116		
0	0	0
1	1	15
5	1	13
1	8	20
#117		
0	0	0
1	2	12
1	9	333
17	1	15
#118		
0	0	0
20	9	25
1	7	30
20	3	3
#119		
0	0	0
1	1	16
6	5	5
1	8	20
#120		
0	0	0
6	1	11
1	1	18
1	2	15
#121		
0	0	0
6	9	75
6	2	11
1	12	33
#122		
0	0	0
0	104	1
1	9	300
1	7	50
#123		
0	0	0
17	2	8
9	2	12
0	102	5
#124		
0	0	0
1	1	18
1	1	20
1	2	17
#125		
0	0	0
1	2	14
4	2	12
1	9	350
#126		
0	0	0
4	4	5
20	5	5
4	2	14
#127		
0	0	0
1	1	19
8	9	75
1	2	14
#128		
0	0	0
1	9	325
4	2	13
1	2	15
#129		
0	0	0
7	1	8
17	6	10
1	6	20
#130		
0	0	0
4	2	5
17	8	10
1	8	50
#131		
0	0	0
17	11	10
1	11	10
8	2	11
#132		
0	0	0
1	2	12
9	9	75
17	7	10
#133		
0	0	0
1	1	18
9	3	5
1	9	175
#134		
0	0	0
1	1	15
1	2	15
1	8	25
#135		
0	0	0
1	1	20
1	11	15
17	3	5
#136		
0	0	0
1	7	20
1	10	300
17	1	10
#137		
0	0	0
1	7	20
1	11	15
17	2	5
#138		
0	0	0
0	104	1
1	2	33
1	2	33
#139		
0	0	0
1	7	5
1	7	10
1	7	25
#140		
0	0	0
5	9	75
0	102	3
1	6	25
#141		
0	0	0
1	3	2
1	2	25
1	1	37
#192		
0	0	0
17	1	5
1	6	5
6	11	5
#193		
0	0	0
0	0	0
0	0	0
0	0	0
#194		
0	0	0
17	2	5
11	1	10
1	7	20
#195		
0	0	0
1	2	14
1	7	50
1	6	20
#196		
0	0	0
0	102	3
12	1	10
17	3	5
#197		
0	0	0
9	2	10
1	1	25
1	7	25
#198		
0	0	0
5	11	5
13	1	10
1	8	25
#199		
0	0	0
1	2	10
1	3	3
1	8	20
#200		
0	0	0
1	1	22
18	1	15
1	12	150
#201		
0	0	0
0	105	5
11	9	100
1	1	55
#202		
0	0	0
1	10	350
3	2	8
1	7	20
#203		
0	0	0
13	9	100
1	1	50
3	3	5
#204		
0	0	0
18	1	10
1	8	25
1	9	125
#205		
0	0	0
1	1	66
1	8	20
7	3	7
#206		
0	0	0
9	1	15
9	9	95
18	2	18
#207		
0	0	0
18	4	5
1	11	20
1	3	7
#208		
0	0	0
2	9	90
2	1	15
1	2	14
#209		
0	0	0
18	2	12
1	9	380
8	3	8
#210		
0	0	0
1	7	33
1	9	600
2	2	12
#211		
0	0	0
1	12	200
1	7	50
5	2	14
#212		
0	0	0
18	9	50
1	10	400
18	1	20
#213		
0	0	0
18	1	10
18	9	75
1	9	750
#214		
0	0	0
20	4	5
1	1	44
1	7	20
#215		
0	0	0
1	9	625
18	1	15
1	1	43
#216		
0	0	0
1	12	25
1	7	10
6	1	17
#217		
0	0	0
4	1	10
1	9	430
0	104	3
#218		
0	0	0
1	10	350
9	1	18
18	1	20
#219		
0	0	0
1	6	20
4	9	100
1	9	640
#220		
0	0	0
4	1	10
18	5	5
0	104	3
#221		
0	0	0
1	1	77
18	7	10
1	9	780
#222		
0	0	0
1	1	22
1	3	5
18	8	10
#223		
0	0	0
18	11	10
1	6	15
18	6	10
#224		
0	0	0
20	3	5
1	12	55
1	1	47
#225		
0	0	0
6	11	10
18	7	5
1	11	10
#226		
0	0	0
7	11	10
18	3	5
1	9	300
#227		
0	0	0
0	102	3
12	2	10
1	9	150
#228		
0	0	0
18	9	75
1	11	5
1	11	10
#229		
0	0	0
1	9	450
1	10	400
1	2	27
#230		
0	0	0
4	11	10
0	102	4
1	1	51
#231		
0	0	0
0	105	5
1	12	50
1	7	25
#232		
0	0	0
1	1	25
1	2	15
1	11	15
#233		
0	0	0
2	7	5
1	11	30
20	1	7
#234		
0	0	0
1	1	15
8	7	5
1	9	900
#283		
0	0	0
9	11	5
18	3	2
20	9	20
#284		
0	0	0
5	1	11
1	8	34
1	11	10
#285		
0	0	0
18	11	5
4	11	5
20	11	5
#286		
0	0	0
1	1	25
1	7	18
18	11	15
#287		
0	0	0
1	1	25
1	7	18
18	11	15
#288		
0	0	0
11	3	2
1	8	35
11	11	14
#289		
0	0	0
6	1	12
12	11	5
1	7	80
#290		
0	0	0
1	7	15
13	1	10
18	7	5
#291		
0	0	0
18	3	3
1	8	20
1	7	50
#292		
0	0	0
3	11	10
18	6	5
1	2	16
#293		
0	0	0
8	11	10
12	2	10
1	1	44
#294		
0	0	0
20	9	25
11	2	10
1	2	21
#295		
0	0	0
20	1	5
18	3	5
1	11	10
#296		
0	0	0
2	11	10
1	1	42
1	3	12
#297		
0	0	0
20	2	5
18	8	5
1	7	20
#298		
0	0	0
5	11	10
1	1	27
1	7	45
#299		
0	0	0
18	11	5
1	9	750
1	1	38
#300		
0	0	0
19	8	7
1	1	30
19	1	35
#301		
0	0	0
19	3	3
19	5	5
1	8	25
#302		
0	0	0
19	4	5
19	8	13
1	12	25
#303		
0	0	0
1	9	1050
19	1	28
19	11	13
#304		
0	0	0
19	11	7
1	12	80
19	2	25
#305		
0	0	0
1	12	20
19	6	7
19	1	35
#306		
0	0	0
19	1	22
1	1	30
19	6	13
#307		
0	0	0
19	2	15
19	3	5
1	7	50
#308		
0	0	0
1	1	50
1	7	33
20	1	5
#379		
0	0	0
0	0	0
0	0	0
0	0	0
#380		
0	0	0
0	0	0
0	0	0
0	0	0
#381		
0	0	0
0	0	0
0	0	0
0	0	0
#382		
0	0	0
0	0	0
0	0	0
0	0	0
#383		
0	0	0
0	0	0
0	0	0
0	0	0
#384		
0	0	0
0	0	0
0	0	0
0	0	0
#385		
0	0	0
0	0	0
0	0	0
0	0	0
#386		
0	0	0
0	0	0
0	0	0
0	0	0
#387		
0	0	0
0	0	0
0	0	0
0	0	0
#388		
0	0	0
1	1	14
19	3	5
1	12	100
#389		
0	0	0
19	7	7
1	2	22
1	9	999
#390		
0	0	0
19	7	7
1	2	22
1	9	999