0	0	1	0	0	-1	1	6.67	0.35	12	120	2	0	0	67	0
1	1	1	0	0	-1	1	6.5	0.31	12	182	2	0	0	99	0
2	2	1	2	4	2	1	7.3	0.33	20	136	2	0	0	69	0
3	3	0	2	5	5	1	6.5	0.3	20	154	2	0	0	70	0
4	4	0	1	0	1	1	6.5	0.29	25	154	2	-2.7	2.5	61	0
5	5	1	1	0	0	1	6.2	0.27	25	128	2	-2.2	1.8	59	0
6	6	2	0	0	-1	1	6.67	0.3	15	109	3	0	0	65	0
7	7	2	0	0	-1	1	5.3	0.25	18	273	3	0	0	138	0
															
10	1	0	0	0	-1	1	6.2	0.35	13	97	2	-3.4	2.4	206	0
11	1	2	0	0	-1	1	6.2	0.37	13	103	2	-4.6	2.5	233	0
12	5	0	1	0	9	1	6.2	0.3	27	81	2	-2.32	2.05	199	2
13	5	2	1	0	0	1	6.2	0.36	26	81	2	-2.32	2.32	177	2
14	4	2	0	0	-1	1	6.6	0.34	16	98	3	-3.95	-2.52	224	0
15	4	0	1	1	4	1	6.7	0.33	27	95	2	-1.5	2	171	0
16	3	1	2	4	3	1	7	0.38	21	98	1	-3	1.63	197	0
17	3	1	0	0	-1	1	6.6	0.39	21	91	3	-2.65	-3	154	0
18	0	1	0	0	-1	1	6.4	0.4	13	81	1	-4.6	2.5	194	5
19	0	0	0	0	-1	1	6.4	0.42	13	78	3	-4.58	-0.5	192	1
20	2	2	2	5	7	1	6.6	0.3	20	87	2	-2.65	-1	170	0
21	6	1	0	0	-1	1.4	7	0.35	16	74	2	0	0	178	2
22	6	1	0	0	-1	1.15	7	0.34	16	67	2	-3.2	2.15	175	0
23	7	2	0	0	-1	1.2	7	0.28	19	118	2	-2.85	1.85	272	0
															
50	1	1	0	0	-1	1	6.6	0.42	14	75	3	-4	-1	510	0
51	1	0	2	5	10	1	6.7	0.43	14	65	2	1.9	8.3	419	0
52	1	0	0	0	-1	1	6.7	0.4	14	75	2	-4.2	2.5	495	0
53	1	1	0	0	-1	1	7	0.39	10	72	2	-2.7	3.5	481	1
54	5	1	1	0	11	1	7	0.35	29	56	2	-2.7	2.5	429	1
55	5	1	2	1	12	1	7	0.38	10	65	2	-3.6	2.5	444	0
56	7	0	2	3	13	1	7	0.41	25	61	2	-4.8	3.55	462	2
57	0	2	0	0	-1	1	6.9	0.45	14	71	3	-4.4	3.3	454	0
58	0	2	2	5	33	1	6.9	0.47	14	54	3	-6.4	2.4	503	5
59	6	0	0	0	-1	1	6.8	0.44	18	59	1	-5.5	2.6	431	3
60	0	0	0	0	-1	1	7.3	0.42	14	63	3	-5.1	2.4	460	2
61	3	1	2	4	15	1	7.3	0.38	23	74	2	-1	6.25	439	0
62	3	0	2	0	16	1	7.3	0.37	23	70	2	-3.2	2.8	447	0
63	3	1	1	0	14	1	7.5	0.36	23	71	3	-2.4	2.7	435	0
64	3	1	2	5	17	1	7.2	0.4	23	61	2	-2.5	6	401	0
65	4	2	2	5	33	1	7.2	0.35	20	75	2	-4.8	3	490	0
66	4	0	2	5	33	1	7.2	0.39	29	65	2	-3	3.4	421	0
67	4	2	1	1	18	1	7.2	0.35	29	71	2	-4.55	2	524	0
68	2	0	0	0	-1	1	6.5	0.33	21	67	2	-1.3	0	468	2
69	2	2	2	4	19	1	7	0.42	25	63	2	-1.5	0	420	0
70	6	2	0	0	-1	1.2	7.5	0.41	18	61	2	0	0	452	2
71	7	0	0	0	-1	1.3	7.5	0.33	21	85	2	-4.8	2.4	448	0
72	5	0	1	0	0	1.2	6.9	0.35	26	77	2	-1.7	2.82	433	3
73	6	0	0	0	-1	1.2	6.9	0.47	13	70	3	-4.8	2.4	461	0
74	7	0	0	0	-1	1.2	6.9	0.32	14	65	2	-4.8	2.4	475	0
75	1	1	0	0	-1	1.3	8.8	0.35	13	67	2	-1.5	4.5	413	5
98	1	2	0	0	-1	1.25	8.5	0.3	15	40	2	0	0	3000	3
99	2	0	0	0	-1	1	5.3	0.5	20	62	2	-4.8	2.4	490	0
															
100	1	2	0	0	-1	1.25	7.6	0.46	15	52	2	-5.4	3.5	1012	0
101	6	2	1	0	20	1.6	7.6	0.47	19	48	3	-5.2	2.6	959	2
102	1	0	0	0	-1	1.75	8.3	0.45	15	51	2	-8	3.4	1001	0
103	1	1	2	5	34	1.5	8.3	0.46	15	50	3	-6.3	3.7	980	0
104	1	0	2	5	33	1.5	8.5	0.48	15	50	2	-1.5	1.6	958	0
105	5	1	1	0	9	1	8.5	0.41	31	44	3	-4	3.7	920	3
106	5	0	1	0	47	1.5	8	0.45	31	45	2	-4.6	2.5	852	0
107	5	0	1	0	21	1.5	8	0.43	25	45	1	-1.5	4	920	5
108	7	0	2	3	13	1	8.4	0.42	30	47	2	-5.2	2.8	946	1
109	0	2	0	0	-1	1	7.9	0.42	20	47	2	0	4	892	0
110	0	0	2	5	33	1	8.5	0.52	15	43	2	-5.8	3.3	890	10
111	0	1	2	5	34	1	8.5	0.5	15	49	2	-10.8	2.24	943	7
112	6	1	2	1	32	1.5	8.4	0.48	19	45	2	-5	4.2	890	0
113	0	2	0	0	-1	1.7	8.8	0.49	15	47	2	-5.1	2.4	1067	5
114	3	2	2	4	15	1.5	8.2	0.4	25	53	2	-3.4	7	994	0
115	3	2	1	0	22	1	10.2	0.41	25	50	2	-4.4	6.3	947	0
116	3	2	1	0	23	2	11	0.41	25	49	2	-3.8	5.8	941	0
117	3	0	1	0	24	1	5.8	0.47	40	49	3	-5.8	4.5	881	0
118	3	0	2	5	17	1.75	8.8	0.39	25	52	2	-6.1	7.6	973	0
119	4	1	0	0	-1	1.5	8.2	0.41	20	50	2	-5.5	2.75	970	2
120	4	1	0	0	-1	1.5	8	0.42	31	50	2	-6.7	3.35	980	0
121	4	2	1	1	18	1.5	8	0.45	31	49	2	2.6	6	948	0
122	4	2	1	0	30	1.4	8.5	0.38	31	56	2	-5.25	4	1072	0
123	7	2	1	0	27	1.45	8	0.4	20	53	2	-3.9	3.3	966	3
124	2	1	1	0	36	1.8	11	0.47	25	51	2	-6	4.75	949	0
125	2	1	2	4	35	1.9	8.8	0.46	25	51	2	-6.3	5	953	0
126	2	2	2	0	19	1.1	7	0.51	30	50	2	-1	3	944	0
127	6	1	0	0	-1	1.5	8	0.38	19	47	2	0	0	958	2
128	2	0	1	0	39	1.4	8.5	0.45	20	45	2	-4.2	3	943	0
129	5	0	1	1	0	1.4	8.5	0.41	32	46	2	-3.5	2.53	959	2
130	2	1	0	0	-1	1.3	9	0.46	16	47	2	-4.2	3	942	0
131	6	2	0	0	-1	1.25	8.2	0.4	14	53	2	-4.65	2.8	772	0
132	7	0	0	0	-1	1.25	9	0.35	33	50	2	-4.2	4	968	2
133	7	1	0	0	-1	1.4	8.7	0.4	18	48	2	-4.9	4.2	958	0
134	4	2	2	1	17	1	7.8	0.4	16	41	2	-6	3.4	1054	0
135	2	0	0	0	-1	1.5	8	0.5	25	46	2	-4.5	2.8	1039	0
136	2	1	0	0	-1	1.5	7.8	0.5	20	40	2	-4.85	4.5	1146	0
137	2	2	0	0	-1	1.5	7.5	0.5	20	43	2	-5.5	3.2	1084	0
138	7	0	2	1	45	1.5	8.2	0.38	20	41	2	-4.2	3	1009	0
139	0	1	2	1	5	1.2	8.2	0.37	18	42	2	-4.2	3	987	2
140	3	2	2	4	15	1.4	8.5	0.45	25	45	2	-4.2	3	180	0
141	0	0	0	1	17	1.4	8.5	0.45	15	38	2	-4.2	3	1275	10
192	4	0	2	1	52	1.2	9	0.24	18	47	2	-2	5.4	754	0
193	2	1	2	1	0	1	7	0	0	99999999	0	0	0	0	0
194	7	0	0	1	-1	1.3	8.5	0.37	14	39	2	-4.2	3	835	0
195	2	1	2	1	17	1.4	9.2	0.45	20	40	2	0	0	1203	0
196	1	2	2	1	17	1	7	0	0	99999999	0	0	0	0	0
197	7	0	2	5	17	1.25	9.5	0.42	16	48	2	-5	4.2	876	0
198	3	2	0	0	-1	1.2	7.5	0.47	25	46	2	-3.4	7	1258	0
199	6	1	0	0	-1	1.7	8.8	0.45	15	45	2	-5.1	2.4	1588	6
															
200	1	1	2	5	33	2	8.5	0.52	16	39	2	-6.6	4.4	1933	4
201	6	0	1	0	6	1.5	8.6	0.52	21	39	3	-2.8	3.4	1947	3
202	1	0	2	5	34	1.75	9.6	0.53	16	38	2	-5.9	2.74	1896	3
203	1	2	2	5	33	1.9	9.5	0.5	16	39	2	-10	4	2023	10
204	5	1	1	0	37	1.5	8.5	0.46	33	36	2	-4	4	1839	8
205	5	0	1	0	26	2	9	0.45	33	38	2	-6	4	1896	12
206	7	2	2	5	25	1.5	9	0.46	30	35	2	-3.2	1.8	1848	10
207	0	1	2	5	33	2	9.5	0.56	16	34	2	-10	3.5	1812	5
208	0	0	2	5	33	1.6	9	0.57	16	38	2	-6	3.5	1928	7
209	6	2	2	1	32	1.9	10	0.54	21	33	2	-9	3.5	1737	11
210	0	1	0	0	-1	1.9	9	0.52	16	38	2	-12	4.25	1941	3
211	3	0	0	0	-1	1.8	9.5	0.47	27	39	2	-4.6	11	2016	2
212	4	2	1	0	29	1.8	9.8	0.46	31	39	2	-5.7	5.1	1905	2
213	3	2	1	0	31	1.7	9.7	0.46	27	39	2	-10	5	1913	2
214	3	2	0	0	-1	1.7	12	0.51	27	38	2	-7	6	1903	3
215	4	0	0	0	-1	2	10	0.5	31	38	2	-6.5	6	1896	4
216	4	1	0	0	-1	1.7	11.5	0.44	31	39	2	-8	9.5	2112	2
217	2	0	0	0	-1	1.7	11.5	0.56	30	37	2	-6	6	1896	0
218	7	1	2	5	25	2.5	12.5	0.43	20	39	2	-2.8	2.7	2003	6
219	2	2	2	3	28	2	12.5	0.47	25	37	2	-10	5.7	1873	0
220	2	0	2	4	35	1.7	11.5	0.48	25	37	2	-7	8.6	1870	0
221	5	1	1	0	42	1.5	9.5	0.51	32	36	2	-4.45	4	1935	7
222	6	2	0	0	-1	1.8	9	0.47	15	33	2	-7	8.6	1755	5
223	7	0	2	5	41	2.5	8.5	0	50	44	2	-1.8	7.5	2055	0
224	1	1	0	0	-1	1.5	9.4	0.48	21	33	2	-7	8.6	2060	5
225	4	2	0	0	35	1.4	10.5	0.51	26	34	2	-7	8.6	2231	2
226	5	0	0	0	-1	1.5	8.75	0.46	28	32	2	-7	8.6	2174	5
227	6	1	0	0	-1	1.5	8.5	0.32	16	36	2	-7	8.6	1773	0
228	2	2	2	3	43	2	13.5	0.38	20	40	2	-11.78	4.68	1854	3
229	2	0	2	3	48	2	12	0.38	20	35	2	-9.1	6.23	2077	0
230	2	1	1	0	44	1.4	9.7	0.41	19	33	2	-6.2	3.95	2122	0
231	5	0	1	0	38	1.5	8.5	0.48	35	32	2	-4	4	2150	8
232	7	1	2	5	25	1.5	9	0.48	30	30	2	-3.2	1.8	2289	10
233	0	2	0	0	-1	1.5	8.5	0.55	16	29	3	0	0	1387	7
234	6	1	0	0	-1	1.5	9.2	0.6	21	33	2	0	0	1855	5
284	3	1	1	0	54	1.4	9.2	0.44	20	34	2	-3.35	5	2184	7
285	2	0	2	1	53	1.5	9.2	0.58	22	42	2	0	0	889	0
286	2	0	2	1	53	1.5	9.2	0.58	22	33	2	0	0	1779	0
287	5	2	1	0	51	1.5	9	0.4	29	33	3	-3.5	3.3	2256	3
288	6	0	0	0	-1	1.5	9	0.32	18	32	3	0	0	1764	5
289	4	1	2	5	17	1.35	9	0.44	20	34	2	0	0	2350	0
290	0	2	2	1	46	1.4	9	0.52	17	29	2	0	0	1956	10
291	3	0	0	0	-1	1.2	12	0.5	27	34	2	-4.8	3	2135	0
292	1	1	0	0	-1	1.5	9.6	0.47	25	32	2	-4.8	3	2176	3
293	6	2	0	0	-1	2	9.9	0.4	18	31	2	-4.8	3	2216	5
294	5	0	1	0	42	2.5	11.7	0.52	31	46	2	-4.85	7.25	2448	7
295	6	1	0	0	-1	1.2	11	0.5	20	34	2	-10	7.68	2014	0
296	0	2	0	0	-1	1.85	9.5	0.51	18	33	2	-4.8	3	2073	10
297	4	0	0	0	-1	1.4	9.3	0.44	21	39	2	-5.8	7.6	1998	0
298	3	1	0	0	-1	1.5	12	0.52	18	33	2	-4.8	3	2215	2
299	2	2	2	3	49	2	12.5	0.38	20	34	2	-9.7	6	2246	4
															
300	1	1	0	0	-1	1.96	9.5	0.6	20	26	3	0	0	7672	10
301	5	2	0	0	-1	1.9	9.5	0.5	40	24	4	-4.8	2.83	7118	10
302	0	1	0	0	-1	1.85	9	0.7	22	24	4	0	0	16496	24
303	3	2	2	1	5	2	10.5	0.55	30	25	3	0	0	3712	0
304	4	0	1	0	1	2	13	0.55	35	25	2	-5.5	9.8	9999	0
305	2	0	2	0	2	2	13.5	0.7	35	25	2	0	0	3163	0
306	6	1	0	0	-1	1.82	9	0.6	25	23	3	0	0	10172	12
307	7	2	0	0	-1	2	12.5	0.4	38	26	3	0	0	4228	5
															
379	7	0	2	1	61	2.5	14	0.34	21	30	2	0	0	11425	0
380	7	2	0	0	-1	1	7.5	0.25	21	30	2	0	0	1	0
381	3	0	2	1	60	1.5	9.5	2	25	25	2	0	0	12387	0
382	6	1	2	1	59	1.45	10	0.8	21	25	2	0	0	13576	12
383	0	1	1	0	58	1.65	10	0.7	24	27	3	-5	5	20143	15
384	2	2	2	1	57	1.8	12.5	0.6	30	24	2	-13	0.5	6571	0
385	4	1	1	0	56	1.55	10.5	0.38	22	29	2	-4.12	4.76	5884	5
386	5	0	1	0	0	1	7	0.29	19	100	2	-2.27	2.07	69	5
387	5	0	1	0	55	1.75	10.5	0.41	27	28	2	-3.38	4.18	27000	8
388	3	2	0	0	-1	2	12.5	0.5	30	29	3	0	0	7616	1
389	4	2	2	1	50	1.8	11.5	0.55	27	30	3	0	0	4320	2
308	1	2	0	0	-1	2.5	18.2	0.47	19	29	2	0	0	4864	10
															
408	0	0	0	0	-1	1	6.5	0.5	0	10000	2	0	0	0	0
450	0	0	0	0	0	1	9	0	0	10000	0	0	0	0	0
451	0	0	0	0	0	1	9	0	0	10000	0	0	0	0	0
452	0	0	0	0	0	1	9	0	0	10000	0	0	0	0	0
453	0	0	0	0	0	1	9	0	0	10000	0	0	0	0	0
409	0	0	0	0	-1	1	7	0.5	0	10000	2	0	0	0	0
407	0	0	0	0	-1	1	7	0.5	0	10000	2	0	0	0	0